%!PS-Adobe-3.0 EPSF-3.0
%%BoundingBox: 0 0 739.000 10.000
%%Title: L-system "Cantor set"
%%Creator: Python package l_system 01.00.00 --- Olivier Pirson --- http://www.opimedia.be/
%%EndComments
save

% Function
%%%%%%%%%%
/l {  % x1 y1 x0 y0
    moveto lineto stroke
} def

% Main
%%%%%%
0.000 neg 0.000 neg translate
5.000 5.000 translate

3.000 0.000 0.000 0.000 l
9.000 0.000 6.000 0.000 l
21.000 0.000 18.000 0.000 l
27.000 0.000 24.000 0.000 l
57.000 0.000 54.000 0.000 l
63.000 0.000 60.000 0.000 l
75.000 0.000 72.000 0.000 l
81.000 0.000 78.000 0.000 l
165.000 0.000 162.000 0.000 l
171.000 0.000 168.000 0.000 l
183.000 0.000 180.000 0.000 l
189.000 0.000 186.000 0.000 l
219.000 0.000 216.000 0.000 l
225.000 0.000 222.000 0.000 l
237.000 0.000 234.000 0.000 l
243.000 0.000 240.000 0.000 l
489.000 0.000 486.000 0.000 l
495.000 0.000 492.000 0.000 l
507.000 0.000 504.000 0.000 l
513.000 0.000 510.000 0.000 l
543.000 0.000 540.000 0.000 l
549.000 0.000 546.000 0.000 l
561.000 0.000 558.000 0.000 l
567.000 0.000 564.000 0.000 l
651.000 0.000 648.000 0.000 l
657.000 0.000 654.000 0.000 l
669.000 0.000 666.000 0.000 l
675.000 0.000 672.000 0.000 l
705.000 0.000 702.000 0.000 l
711.000 0.000 708.000 0.000 l
723.000 0.000 720.000 0.000 l
729.000 0.000 726.000 0.000 l

showpage

restore
%%EOF
