%!PS-Adobe-3.0 EPSF-3.0
%%BoundingBox: 0 0 386.000 258.000
%%Title: L-system "dragon curve"
%%Creator: Python package l_system 01.00.00 --- Olivier Pirson --- http://www.opimedia.be/
%%EndComments
save

% Function
%%%%%%%%%%
/l {  % x1 y1 x0 y0
    moveto lineto stroke
} def

% Main
%%%%%%
-80.000 neg -80.000 neg translate
5.000 5.000 translate

0.000 8.000 0.000 0.000 l
8.000 8.000 0.000 8.000 l
8.000 0.000 8.000 8.000 l
16.000 0.000 8.000 0.000 l
16.000 -8.000 16.000 0.000 l
8.000 -8.000 16.000 -8.000 l
8.000 -16.000 8.000 -8.000 l
16.000 -16.000 8.000 -16.000 l
16.000 -24.000 16.000 -16.000 l
8.000 -24.000 16.000 -24.000 l
8.000 -16.000 8.000 -24.000 l
-0.000 -16.000 8.000 -16.000 l
-0.000 -24.000 -0.000 -16.000 l
-8.000 -24.000 -0.000 -24.000 l
-8.000 -32.000 -8.000 -24.000 l
-0.000 -32.000 -8.000 -32.000 l
-0.000 -40.000 -0.000 -32.000 l
-8.000 -40.000 -0.000 -40.000 l
-8.000 -32.000 -8.000 -40.000 l
-16.000 -32.000 -8.000 -32.000 l
-16.000 -24.000 -16.000 -32.000 l
-8.000 -24.000 -16.000 -24.000 l
-8.000 -16.000 -8.000 -24.000 l
-16.000 -16.000 -8.000 -16.000 l
-16.000 -24.000 -16.000 -16.000 l
-24.000 -24.000 -16.000 -24.000 l
-24.000 -16.000 -24.000 -24.000 l
-32.000 -16.000 -24.000 -16.000 l
-32.000 -24.000 -32.000 -16.000 l
-40.000 -24.000 -32.000 -24.000 l
-40.000 -32.000 -40.000 -24.000 l
-32.000 -32.000 -40.000 -32.000 l
-32.000 -40.000 -32.000 -32.000 l
-40.000 -40.000 -32.000 -40.000 l
-40.000 -32.000 -40.000 -40.000 l
-48.000 -32.000 -40.000 -32.000 l
-48.000 -24.000 -48.000 -32.000 l
-40.000 -24.000 -48.000 -24.000 l
-40.000 -16.000 -40.000 -24.000 l
-48.000 -16.000 -40.000 -16.000 l
-48.000 -8.000 -48.000 -16.000 l
-40.000 -8.000 -48.000 -8.000 l
-40.000 -16.000 -40.000 -8.000 l
-32.000 -16.000 -40.000 -16.000 l
-32.000 -8.000 -32.000 -16.000 l
-24.000 -8.000 -32.000 -8.000 l
-24.000 0.000 -24.000 -8.000 l
-32.000 0.000 -24.000 0.000 l
-32.000 -8.000 -32.000 0.000 l
-40.000 -8.000 -32.000 -8.000 l
-40.000 0.000 -40.000 -8.000 l
-48.000 0.000 -40.000 0.000 l
-48.000 8.000 -48.000 0.000 l
-40.000 8.000 -48.000 8.000 l
-40.000 16.000 -40.000 8.000 l
-48.000 16.000 -40.000 16.000 l
-48.000 8.000 -48.000 16.000 l
-56.000 8.000 -48.000 8.000 l
-56.000 16.000 -56.000 8.000 l
-64.000 16.000 -56.000 16.000 l
-64.000 8.000 -64.000 16.000 l
-72.000 8.000 -64.000 8.000 l
-72.000 0.000 -72.000 8.000 l
-64.000 0.000 -72.000 0.000 l
-64.000 -8.000 -64.000 0.000 l
-72.000 -8.000 -64.000 -8.000 l
-72.000 0.000 -72.000 -8.000 l
-80.000 0.000 -72.000 0.000 l
-80.000 8.000 -80.000 0.000 l
-72.000 8.000 -80.000 8.000 l
-72.000 16.000 -72.000 8.000 l
-80.000 16.000 -72.000 16.000 l
-80.000 24.000 -80.000 16.000 l
-72.000 24.000 -80.000 24.000 l
-72.000 16.000 -72.000 24.000 l
-64.000 16.000 -72.000 16.000 l
-64.000 24.000 -64.000 16.000 l
-56.000 24.000 -64.000 24.000 l
-56.000 32.000 -56.000 24.000 l
-64.000 32.000 -56.000 32.000 l
-64.000 40.000 -64.000 32.000 l
-56.000 40.000 -64.000 40.000 l
-56.000 32.000 -56.000 40.000 l
-48.000 32.000 -56.000 32.000 l
-48.000 24.000 -48.000 32.000 l
-56.000 24.000 -48.000 24.000 l
-56.000 16.000 -56.000 24.000 l
-48.000 16.000 -56.000 16.000 l
-48.000 24.000 -48.000 16.000 l
-40.000 24.000 -48.000 24.000 l
-40.000 16.000 -40.000 24.000 l
-32.000 16.000 -40.000 16.000 l
-32.000 24.000 -32.000 16.000 l
-24.000 24.000 -32.000 24.000 l
-24.000 32.000 -24.000 24.000 l
-32.000 32.000 -24.000 32.000 l
-32.000 24.000 -32.000 32.000 l
-40.000 24.000 -32.000 24.000 l
-40.000 32.000 -40.000 24.000 l
-48.000 32.000 -40.000 32.000 l
-48.000 40.000 -48.000 32.000 l
-40.000 40.000 -48.000 40.000 l
-40.000 48.000 -40.000 40.000 l
-48.000 48.000 -40.000 48.000 l
-48.000 56.000 -48.000 48.000 l
-40.000 56.000 -48.000 56.000 l
-40.000 48.000 -40.000 56.000 l
-32.000 48.000 -40.000 48.000 l
-32.000 56.000 -32.000 48.000 l
-24.000 56.000 -32.000 56.000 l
-24.000 64.000 -24.000 56.000 l
-32.000 64.000 -24.000 64.000 l
-32.000 56.000 -32.000 64.000 l
-40.000 56.000 -32.000 56.000 l
-40.000 64.000 -40.000 56.000 l
-48.000 64.000 -40.000 64.000 l
-48.000 72.000 -48.000 64.000 l
-40.000 72.000 -48.000 72.000 l
-40.000 80.000 -40.000 72.000 l
-48.000 80.000 -40.000 80.000 l
-48.000 72.000 -48.000 80.000 l
-56.000 72.000 -48.000 72.000 l
-56.000 80.000 -56.000 72.000 l
-64.000 80.000 -56.000 80.000 l
-64.000 72.000 -64.000 80.000 l
-72.000 72.000 -64.000 72.000 l
-72.000 64.000 -72.000 72.000 l
-64.000 64.000 -72.000 64.000 l
-64.000 56.000 -64.000 64.000 l
-72.000 56.000 -64.000 56.000 l
-72.000 64.000 -72.000 56.000 l
-80.000 64.000 -72.000 64.000 l
-80.000 72.000 -80.000 64.000 l
-72.000 72.000 -80.000 72.000 l
-72.000 80.000 -72.000 72.000 l
-80.000 80.000 -72.000 80.000 l
-80.000 88.000 -80.000 80.000 l
-72.000 88.000 -80.000 88.000 l
-72.000 80.000 -72.000 88.000 l
-64.000 80.000 -72.000 80.000 l
-64.000 88.000 -64.000 80.000 l
-56.000 88.000 -64.000 88.000 l
-56.000 96.000 -56.000 88.000 l
-64.000 96.000 -56.000 96.000 l
-64.000 104.000 -64.000 96.000 l
-56.000 104.000 -64.000 104.000 l
-56.000 96.000 -56.000 104.000 l
-48.000 96.000 -56.000 96.000 l
-48.000 88.000 -48.000 96.000 l
-56.000 88.000 -48.000 88.000 l
-56.000 80.000 -56.000 88.000 l
-48.000 80.000 -56.000 80.000 l
-48.000 88.000 -48.000 80.000 l
-40.000 88.000 -48.000 88.000 l
-40.000 80.000 -40.000 88.000 l
-32.000 80.000 -40.000 80.000 l
-32.000 88.000 -32.000 80.000 l
-24.000 88.000 -32.000 88.000 l
-24.000 96.000 -24.000 88.000 l
-32.000 96.000 -24.000 96.000 l
-32.000 104.000 -32.000 96.000 l
-24.000 104.000 -32.000 104.000 l
-24.000 96.000 -24.000 104.000 l
-16.000 96.000 -24.000 96.000 l
-16.000 88.000 -16.000 96.000 l
-24.000 88.000 -16.000 88.000 l
-24.000 80.000 -24.000 88.000 l
-16.000 80.000 -24.000 80.000 l
-16.000 72.000 -16.000 80.000 l
-24.000 72.000 -16.000 72.000 l
-24.000 80.000 -24.000 72.000 l
-32.000 80.000 -24.000 80.000 l
-32.000 72.000 -32.000 80.000 l
-40.000 72.000 -32.000 72.000 l
-40.000 64.000 -40.000 72.000 l
-32.000 64.000 -40.000 64.000 l
-32.000 72.000 -32.000 64.000 l
-24.000 72.000 -32.000 72.000 l
-24.000 64.000 -24.000 72.000 l
-16.000 64.000 -24.000 64.000 l
-16.000 56.000 -16.000 64.000 l
-24.000 56.000 -16.000 56.000 l
-24.000 48.000 -24.000 56.000 l
-16.000 48.000 -24.000 48.000 l
-16.000 56.000 -16.000 48.000 l
-8.000 56.000 -16.000 56.000 l
-8.000 48.000 -8.000 56.000 l
-0.000 48.000 -8.000 48.000 l
-0.000 56.000 -0.000 48.000 l
8.000 56.000 -0.000 56.000 l
8.000 64.000 8.000 56.000 l
-0.000 64.000 8.000 64.000 l
-0.000 56.000 -0.000 64.000 l
-8.000 56.000 -0.000 56.000 l
-8.000 64.000 -8.000 56.000 l
-16.000 64.000 -8.000 64.000 l
-16.000 72.000 -16.000 64.000 l
-8.000 72.000 -16.000 72.000 l
-8.000 80.000 -8.000 72.000 l
-16.000 80.000 -8.000 80.000 l
-16.000 88.000 -16.000 80.000 l
-8.000 88.000 -16.000 88.000 l
-8.000 80.000 -8.000 88.000 l
-0.000 80.000 -8.000 80.000 l
-0.000 88.000 -0.000 80.000 l
8.000 88.000 -0.000 88.000 l
8.000 96.000 8.000 88.000 l
-0.000 96.000 8.000 96.000 l
-0.000 104.000 -0.000 96.000 l
8.000 104.000 -0.000 104.000 l
8.000 96.000 8.000 104.000 l
16.000 96.000 8.000 96.000 l
16.000 88.000 16.000 96.000 l
8.000 88.000 16.000 88.000 l
8.000 80.000 8.000 88.000 l
16.000 80.000 8.000 80.000 l
16.000 88.000 16.000 80.000 l
24.000 88.000 16.000 88.000 l
24.000 80.000 24.000 88.000 l
32.000 80.000 24.000 80.000 l
32.000 88.000 32.000 80.000 l
40.000 88.000 32.000 88.000 l
40.000 96.000 40.000 88.000 l
32.000 96.000 40.000 96.000 l
32.000 88.000 32.000 96.000 l
24.000 88.000 32.000 88.000 l
24.000 96.000 24.000 88.000 l
16.000 96.000 24.000 96.000 l
16.000 104.000 16.000 96.000 l
24.000 104.000 16.000 104.000 l
24.000 112.000 24.000 104.000 l
16.000 112.000 24.000 112.000 l
16.000 120.000 16.000 112.000 l
24.000 120.000 16.000 120.000 l
24.000 112.000 24.000 120.000 l
32.000 112.000 24.000 112.000 l
32.000 120.000 32.000 112.000 l
40.000 120.000 32.000 120.000 l
40.000 128.000 40.000 120.000 l
32.000 128.000 40.000 128.000 l
32.000 120.000 32.000 128.000 l
24.000 120.000 32.000 120.000 l
24.000 128.000 24.000 120.000 l
16.000 128.000 24.000 128.000 l
16.000 136.000 16.000 128.000 l
24.000 136.000 16.000 136.000 l
24.000 144.000 24.000 136.000 l
16.000 144.000 24.000 144.000 l
16.000 136.000 16.000 144.000 l
8.000 136.000 16.000 136.000 l
8.000 144.000 8.000 136.000 l
-0.000 144.000 8.000 144.000 l
-0.000 136.000 -0.000 144.000 l
-8.000 136.000 -0.000 136.000 l
-8.000 128.000 -8.000 136.000 l
-0.000 128.000 -8.000 128.000 l
-0.000 120.000 -0.000 128.000 l
-8.000 120.000 -0.000 120.000 l
-8.000 128.000 -8.000 120.000 l
-16.000 128.000 -8.000 128.000 l
-16.000 136.000 -16.000 128.000 l
-8.000 136.000 -16.000 136.000 l
-8.000 144.000 -8.000 136.000 l
-16.000 144.000 -8.000 144.000 l
-16.000 152.000 -16.000 144.000 l
-8.000 152.000 -16.000 152.000 l
-8.000 144.000 -8.000 152.000 l
-0.000 144.000 -8.000 144.000 l
-0.000 152.000 -0.000 144.000 l
8.000 152.000 -0.000 152.000 l
8.000 160.000 8.000 152.000 l
-0.000 160.000 8.000 160.000 l
-0.000 168.000 -0.000 160.000 l
8.000 168.000 -0.000 168.000 l
8.000 160.000 8.000 168.000 l
16.000 160.000 8.000 160.000 l
16.000 152.000 16.000 160.000 l
8.000 152.000 16.000 152.000 l
8.000 144.000 8.000 152.000 l
16.000 144.000 8.000 144.000 l
16.000 152.000 16.000 144.000 l
24.000 152.000 16.000 152.000 l
24.000 144.000 24.000 152.000 l
32.000 144.000 24.000 144.000 l
32.000 152.000 32.000 144.000 l
40.000 152.000 32.000 152.000 l
40.000 160.000 40.000 152.000 l
32.000 160.000 40.000 160.000 l
32.000 168.000 32.000 160.000 l
40.000 168.000 32.000 168.000 l
40.000 160.000 40.000 168.000 l
48.000 160.000 40.000 160.000 l
48.000 152.000 48.000 160.000 l
40.000 152.000 48.000 152.000 l
40.000 144.000 40.000 152.000 l
48.000 144.000 40.000 144.000 l
48.000 136.000 48.000 144.000 l
40.000 136.000 48.000 136.000 l
40.000 144.000 40.000 136.000 l
32.000 144.000 40.000 144.000 l
32.000 136.000 32.000 144.000 l
24.000 136.000 32.000 136.000 l
24.000 128.000 24.000 136.000 l
32.000 128.000 24.000 128.000 l
32.000 136.000 32.000 128.000 l
40.000 136.000 32.000 136.000 l
40.000 128.000 40.000 136.000 l
48.000 128.000 40.000 128.000 l
48.000 120.000 48.000 128.000 l
40.000 120.000 48.000 120.000 l
40.000 112.000 40.000 120.000 l
48.000 112.000 40.000 112.000 l
48.000 120.000 48.000 112.000 l
56.000 120.000 48.000 120.000 l
56.000 112.000 56.000 120.000 l
64.000 112.000 56.000 112.000 l
64.000 120.000 64.000 112.000 l
72.000 120.000 64.000 120.000 l
72.000 128.000 72.000 120.000 l
64.000 128.000 72.000 128.000 l
64.000 136.000 64.000 128.000 l
72.000 136.000 64.000 136.000 l
72.000 128.000 72.000 136.000 l
80.000 128.000 72.000 128.000 l
80.000 120.000 80.000 128.000 l
72.000 120.000 80.000 120.000 l
72.000 112.000 72.000 120.000 l
80.000 112.000 72.000 112.000 l
80.000 104.000 80.000 112.000 l
72.000 104.000 80.000 104.000 l
72.000 112.000 72.000 104.000 l
64.000 112.000 72.000 112.000 l
64.000 104.000 64.000 112.000 l
56.000 104.000 64.000 104.000 l
56.000 96.000 56.000 104.000 l
64.000 96.000 56.000 96.000 l
64.000 88.000 64.000 96.000 l
56.000 88.000 64.000 88.000 l
56.000 96.000 56.000 88.000 l
48.000 96.000 56.000 96.000 l
48.000 104.000 48.000 96.000 l
56.000 104.000 48.000 104.000 l
56.000 112.000 56.000 104.000 l
48.000 112.000 56.000 112.000 l
48.000 104.000 48.000 112.000 l
40.000 104.000 48.000 104.000 l
40.000 112.000 40.000 104.000 l
32.000 112.000 40.000 112.000 l
32.000 104.000 32.000 112.000 l
24.000 104.000 32.000 104.000 l
24.000 96.000 24.000 104.000 l
32.000 96.000 24.000 96.000 l
32.000 104.000 32.000 96.000 l
40.000 104.000 32.000 104.000 l
40.000 96.000 40.000 104.000 l
48.000 96.000 40.000 96.000 l
48.000 88.000 48.000 96.000 l
40.000 88.000 48.000 88.000 l
40.000 80.000 40.000 88.000 l
48.000 80.000 40.000 80.000 l
48.000 72.000 48.000 80.000 l
40.000 72.000 48.000 72.000 l
40.000 80.000 40.000 72.000 l
32.000 80.000 40.000 80.000 l
32.000 72.000 32.000 80.000 l
24.000 72.000 32.000 72.000 l
24.000 64.000 24.000 72.000 l
32.000 64.000 24.000 64.000 l
32.000 72.000 32.000 64.000 l
40.000 72.000 32.000 72.000 l
40.000 64.000 40.000 72.000 l
48.000 64.000 40.000 64.000 l
48.000 56.000 48.000 64.000 l
40.000 56.000 48.000 56.000 l
40.000 48.000 40.000 56.000 l
48.000 48.000 40.000 48.000 l
48.000 56.000 48.000 48.000 l
56.000 56.000 48.000 56.000 l
56.000 48.000 56.000 56.000 l
64.000 48.000 56.000 48.000 l
64.000 56.000 64.000 48.000 l
72.000 56.000 64.000 56.000 l
72.000 64.000 72.000 56.000 l
64.000 64.000 72.000 64.000 l
64.000 56.000 64.000 64.000 l
56.000 56.000 64.000 56.000 l
56.000 64.000 56.000 56.000 l
48.000 64.000 56.000 64.000 l
48.000 72.000 48.000 64.000 l
56.000 72.000 48.000 72.000 l
56.000 80.000 56.000 72.000 l
48.000 80.000 56.000 80.000 l
48.000 88.000 48.000 80.000 l
56.000 88.000 48.000 88.000 l
56.000 80.000 56.000 88.000 l
64.000 80.000 56.000 80.000 l
64.000 88.000 64.000 80.000 l
72.000 88.000 64.000 88.000 l
72.000 96.000 72.000 88.000 l
64.000 96.000 72.000 96.000 l
64.000 104.000 64.000 96.000 l
72.000 104.000 64.000 104.000 l
72.000 96.000 72.000 104.000 l
80.000 96.000 72.000 96.000 l
80.000 88.000 80.000 96.000 l
72.000 88.000 80.000 88.000 l
72.000 80.000 72.000 88.000 l
80.000 80.000 72.000 80.000 l
80.000 88.000 80.000 80.000 l
88.000 88.000 80.000 88.000 l
88.000 80.000 88.000 88.000 l
96.000 80.000 88.000 80.000 l
96.000 88.000 96.000 80.000 l
104.000 88.000 96.000 88.000 l
104.000 96.000 104.000 88.000 l
96.000 96.000 104.000 96.000 l
96.000 104.000 96.000 96.000 l
104.000 104.000 96.000 104.000 l
104.000 96.000 104.000 104.000 l
112.000 96.000 104.000 96.000 l
112.000 88.000 112.000 96.000 l
104.000 88.000 112.000 88.000 l
104.000 80.000 104.000 88.000 l
112.000 80.000 104.000 80.000 l
112.000 72.000 112.000 80.000 l
104.000 72.000 112.000 72.000 l
104.000 80.000 104.000 72.000 l
96.000 80.000 104.000 80.000 l
96.000 72.000 96.000 80.000 l
88.000 72.000 96.000 72.000 l
88.000 64.000 88.000 72.000 l
96.000 64.000 88.000 64.000 l
96.000 72.000 96.000 64.000 l
104.000 72.000 96.000 72.000 l
104.000 64.000 104.000 72.000 l
112.000 64.000 104.000 64.000 l
112.000 56.000 112.000 64.000 l
104.000 56.000 112.000 56.000 l
104.000 48.000 104.000 56.000 l
112.000 48.000 104.000 48.000 l
112.000 56.000 112.000 48.000 l
120.000 56.000 112.000 56.000 l
120.000 48.000 120.000 56.000 l
128.000 48.000 120.000 48.000 l
128.000 56.000 128.000 48.000 l
136.000 56.000 128.000 56.000 l
136.000 64.000 136.000 56.000 l
128.000 64.000 136.000 64.000 l
128.000 56.000 128.000 64.000 l
120.000 56.000 128.000 56.000 l
120.000 64.000 120.000 56.000 l
112.000 64.000 120.000 64.000 l
112.000 72.000 112.000 64.000 l
120.000 72.000 112.000 72.000 l
120.000 80.000 120.000 72.000 l
112.000 80.000 120.000 80.000 l
112.000 88.000 112.000 80.000 l
120.000 88.000 112.000 88.000 l
120.000 80.000 120.000 88.000 l
128.000 80.000 120.000 80.000 l
128.000 88.000 128.000 80.000 l
136.000 88.000 128.000 88.000 l
136.000 96.000 136.000 88.000 l
128.000 96.000 136.000 96.000 l
128.000 104.000 128.000 96.000 l
136.000 104.000 128.000 104.000 l
136.000 96.000 136.000 104.000 l
144.000 96.000 136.000 96.000 l
144.000 88.000 144.000 96.000 l
136.000 88.000 144.000 88.000 l
136.000 80.000 136.000 88.000 l
144.000 80.000 136.000 80.000 l
144.000 88.000 144.000 80.000 l
152.000 88.000 144.000 88.000 l
152.000 80.000 152.000 88.000 l
160.000 80.000 152.000 80.000 l
160.000 88.000 160.000 80.000 l
168.000 88.000 160.000 88.000 l
168.000 96.000 168.000 88.000 l
160.000 96.000 168.000 96.000 l
160.000 88.000 160.000 96.000 l
152.000 88.000 160.000 88.000 l
152.000 96.000 152.000 88.000 l
144.000 96.000 152.000 96.000 l
144.000 104.000 144.000 96.000 l
152.000 104.000 144.000 104.000 l
152.000 112.000 152.000 104.000 l
144.000 112.000 152.000 112.000 l
144.000 120.000 144.000 112.000 l
152.000 120.000 144.000 120.000 l
152.000 112.000 152.000 120.000 l
160.000 112.000 152.000 112.000 l
160.000 120.000 160.000 112.000 l
168.000 120.000 160.000 120.000 l
168.000 128.000 168.000 120.000 l
160.000 128.000 168.000 128.000 l
160.000 120.000 160.000 128.000 l
152.000 120.000 160.000 120.000 l
152.000 128.000 152.000 120.000 l
144.000 128.000 152.000 128.000 l
144.000 136.000 144.000 128.000 l
152.000 136.000 144.000 136.000 l
152.000 144.000 152.000 136.000 l
144.000 144.000 152.000 144.000 l
144.000 136.000 144.000 144.000 l
136.000 136.000 144.000 136.000 l
136.000 144.000 136.000 136.000 l
128.000 144.000 136.000 144.000 l
128.000 136.000 128.000 144.000 l
120.000 136.000 128.000 136.000 l
120.000 128.000 120.000 136.000 l
128.000 128.000 120.000 128.000 l
128.000 120.000 128.000 128.000 l
120.000 120.000 128.000 120.000 l
120.000 128.000 120.000 120.000 l
112.000 128.000 120.000 128.000 l
112.000 136.000 112.000 128.000 l
120.000 136.000 112.000 136.000 l
120.000 144.000 120.000 136.000 l
112.000 144.000 120.000 144.000 l
112.000 152.000 112.000 144.000 l
120.000 152.000 112.000 152.000 l
120.000 144.000 120.000 152.000 l
128.000 144.000 120.000 144.000 l
128.000 152.000 128.000 144.000 l
136.000 152.000 128.000 152.000 l
136.000 160.000 136.000 152.000 l
128.000 160.000 136.000 160.000 l
128.000 168.000 128.000 160.000 l
136.000 168.000 128.000 168.000 l
136.000 160.000 136.000 168.000 l
144.000 160.000 136.000 160.000 l
144.000 152.000 144.000 160.000 l
136.000 152.000 144.000 152.000 l
136.000 144.000 136.000 152.000 l
144.000 144.000 136.000 144.000 l
144.000 152.000 144.000 144.000 l
152.000 152.000 144.000 152.000 l
152.000 144.000 152.000 152.000 l
160.000 144.000 152.000 144.000 l
160.000 152.000 160.000 144.000 l
168.000 152.000 160.000 152.000 l
168.000 160.000 168.000 152.000 l
160.000 160.000 168.000 160.000 l
160.000 168.000 160.000 160.000 l
168.000 168.000 160.000 168.000 l
168.000 160.000 168.000 168.000 l
176.000 160.000 168.000 160.000 l
176.000 152.000 176.000 160.000 l
168.000 152.000 176.000 152.000 l
168.000 144.000 168.000 152.000 l
176.000 144.000 168.000 144.000 l
176.000 136.000 176.000 144.000 l
168.000 136.000 176.000 136.000 l
168.000 144.000 168.000 136.000 l
160.000 144.000 168.000 144.000 l
160.000 136.000 160.000 144.000 l
152.000 136.000 160.000 136.000 l
152.000 128.000 152.000 136.000 l
160.000 128.000 152.000 128.000 l
160.000 136.000 160.000 128.000 l
168.000 136.000 160.000 136.000 l
168.000 128.000 168.000 136.000 l
176.000 128.000 168.000 128.000 l
176.000 120.000 176.000 128.000 l
168.000 120.000 176.000 120.000 l
168.000 112.000 168.000 120.000 l
176.000 112.000 168.000 112.000 l
176.000 120.000 176.000 112.000 l
184.000 120.000 176.000 120.000 l
184.000 112.000 184.000 120.000 l
192.000 112.000 184.000 112.000 l
192.000 120.000 192.000 112.000 l
200.000 120.000 192.000 120.000 l
200.000 128.000 200.000 120.000 l
192.000 128.000 200.000 128.000 l
192.000 136.000 192.000 128.000 l
200.000 136.000 192.000 136.000 l
200.000 128.000 200.000 136.000 l
208.000 128.000 200.000 128.000 l
208.000 120.000 208.000 128.000 l
200.000 120.000 208.000 120.000 l
200.000 112.000 200.000 120.000 l
208.000 112.000 200.000 112.000 l
208.000 104.000 208.000 112.000 l
200.000 104.000 208.000 104.000 l
200.000 112.000 200.000 104.000 l
192.000 112.000 200.000 112.000 l
192.000 104.000 192.000 112.000 l
184.000 104.000 192.000 104.000 l
184.000 96.000 184.000 104.000 l
192.000 96.000 184.000 96.000 l
192.000 88.000 192.000 96.000 l
184.000 88.000 192.000 88.000 l
184.000 96.000 184.000 88.000 l
176.000 96.000 184.000 96.000 l
176.000 104.000 176.000 96.000 l
184.000 104.000 176.000 104.000 l
184.000 112.000 184.000 104.000 l
176.000 112.000 184.000 112.000 l
176.000 104.000 176.000 112.000 l
168.000 104.000 176.000 104.000 l
168.000 112.000 168.000 104.000 l
160.000 112.000 168.000 112.000 l
160.000 104.000 160.000 112.000 l
152.000 104.000 160.000 104.000 l
152.000 96.000 152.000 104.000 l
160.000 96.000 152.000 96.000 l
160.000 104.000 160.000 96.000 l
168.000 104.000 160.000 104.000 l
168.000 96.000 168.000 104.000 l
176.000 96.000 168.000 96.000 l
176.000 88.000 176.000 96.000 l
168.000 88.000 176.000 88.000 l
168.000 80.000 168.000 88.000 l
176.000 80.000 168.000 80.000 l
176.000 72.000 176.000 80.000 l
168.000 72.000 176.000 72.000 l
168.000 80.000 168.000 72.000 l
160.000 80.000 168.000 80.000 l
160.000 72.000 160.000 80.000 l
152.000 72.000 160.000 72.000 l
152.000 64.000 152.000 72.000 l
160.000 64.000 152.000 64.000 l
160.000 72.000 160.000 64.000 l
168.000 72.000 160.000 72.000 l
168.000 64.000 168.000 72.000 l
176.000 64.000 168.000 64.000 l
176.000 56.000 176.000 64.000 l
168.000 56.000 176.000 56.000 l
168.000 48.000 168.000 56.000 l
176.000 48.000 168.000 48.000 l
176.000 56.000 176.000 48.000 l
184.000 56.000 176.000 56.000 l
184.000 48.000 184.000 56.000 l
192.000 48.000 184.000 48.000 l
192.000 56.000 192.000 48.000 l
200.000 56.000 192.000 56.000 l
200.000 64.000 200.000 56.000 l
192.000 64.000 200.000 64.000 l
192.000 72.000 192.000 64.000 l
200.000 72.000 192.000 72.000 l
200.000 64.000 200.000 72.000 l
208.000 64.000 200.000 64.000 l
208.000 56.000 208.000 64.000 l
200.000 56.000 208.000 56.000 l
200.000 48.000 200.000 56.000 l
208.000 48.000 200.000 48.000 l
208.000 40.000 208.000 48.000 l
200.000 40.000 208.000 40.000 l
200.000 48.000 200.000 40.000 l
192.000 48.000 200.000 48.000 l
192.000 40.000 192.000 48.000 l
184.000 40.000 192.000 40.000 l
184.000 32.000 184.000 40.000 l
192.000 32.000 184.000 32.000 l
192.000 24.000 192.000 32.000 l
184.000 24.000 192.000 24.000 l
184.000 32.000 184.000 24.000 l
176.000 32.000 184.000 32.000 l
176.000 40.000 176.000 32.000 l
184.000 40.000 176.000 40.000 l
184.000 48.000 184.000 40.000 l
176.000 48.000 184.000 48.000 l
176.000 40.000 176.000 48.000 l
168.000 40.000 176.000 40.000 l
168.000 48.000 168.000 40.000 l
160.000 48.000 168.000 48.000 l
160.000 40.000 160.000 48.000 l
152.000 40.000 160.000 40.000 l
152.000 32.000 152.000 40.000 l
160.000 32.000 152.000 32.000 l
160.000 24.000 160.000 32.000 l
152.000 24.000 160.000 24.000 l
152.000 32.000 152.000 24.000 l
144.000 32.000 152.000 32.000 l
144.000 40.000 144.000 32.000 l
152.000 40.000 144.000 40.000 l
152.000 48.000 152.000 40.000 l
144.000 48.000 152.000 48.000 l
144.000 56.000 144.000 48.000 l
152.000 56.000 144.000 56.000 l
152.000 48.000 152.000 56.000 l
160.000 48.000 152.000 48.000 l
160.000 56.000 160.000 48.000 l
168.000 56.000 160.000 56.000 l
168.000 64.000 168.000 56.000 l
160.000 64.000 168.000 64.000 l
160.000 56.000 160.000 64.000 l
152.000 56.000 160.000 56.000 l
152.000 64.000 152.000 56.000 l
144.000 64.000 152.000 64.000 l
144.000 72.000 144.000 64.000 l
152.000 72.000 144.000 72.000 l
152.000 80.000 152.000 72.000 l
144.000 80.000 152.000 80.000 l
144.000 72.000 144.000 80.000 l
136.000 72.000 144.000 72.000 l
136.000 80.000 136.000 72.000 l
128.000 80.000 136.000 80.000 l
128.000 72.000 128.000 80.000 l
120.000 72.000 128.000 72.000 l
120.000 64.000 120.000 72.000 l
128.000 64.000 120.000 64.000 l
128.000 72.000 128.000 64.000 l
136.000 72.000 128.000 72.000 l
136.000 64.000 136.000 72.000 l
144.000 64.000 136.000 64.000 l
144.000 56.000 144.000 64.000 l
136.000 56.000 144.000 56.000 l
136.000 48.000 136.000 56.000 l
144.000 48.000 136.000 48.000 l
144.000 40.000 144.000 48.000 l
136.000 40.000 144.000 40.000 l
136.000 48.000 136.000 40.000 l
128.000 48.000 136.000 48.000 l
128.000 40.000 128.000 48.000 l
120.000 40.000 128.000 40.000 l
120.000 32.000 120.000 40.000 l
128.000 32.000 120.000 32.000 l
128.000 24.000 128.000 32.000 l
120.000 24.000 128.000 24.000 l
120.000 32.000 120.000 24.000 l
112.000 32.000 120.000 32.000 l
112.000 40.000 112.000 32.000 l
120.000 40.000 112.000 40.000 l
120.000 48.000 120.000 40.000 l
112.000 48.000 120.000 48.000 l
112.000 40.000 112.000 48.000 l
104.000 40.000 112.000 40.000 l
104.000 48.000 104.000 40.000 l
96.000 48.000 104.000 48.000 l
96.000 40.000 96.000 48.000 l
88.000 40.000 96.000 40.000 l
88.000 32.000 88.000 40.000 l
96.000 32.000 88.000 32.000 l
96.000 40.000 96.000 32.000 l
104.000 40.000 96.000 40.000 l
104.000 32.000 104.000 40.000 l
112.000 32.000 104.000 32.000 l
112.000 24.000 112.000 32.000 l
104.000 24.000 112.000 24.000 l
104.000 16.000 104.000 24.000 l
112.000 16.000 104.000 16.000 l
112.000 8.000 112.000 16.000 l
104.000 8.000 112.000 8.000 l
104.000 16.000 104.000 8.000 l
96.000 16.000 104.000 16.000 l
96.000 8.000 96.000 16.000 l
88.000 8.000 96.000 8.000 l
88.000 0.000 88.000 8.000 l
96.000 0.000 88.000 0.000 l
96.000 8.000 96.000 0.000 l
104.000 8.000 96.000 8.000 l
104.000 0.000 104.000 8.000 l
112.000 0.000 104.000 0.000 l
112.000 -8.000 112.000 0.000 l
104.000 -8.000 112.000 -8.000 l
104.000 -16.000 104.000 -8.000 l
112.000 -16.000 104.000 -16.000 l
112.000 -8.000 112.000 -16.000 l
120.000 -8.000 112.000 -8.000 l
120.000 -16.000 120.000 -8.000 l
128.000 -16.000 120.000 -16.000 l
128.000 -8.000 128.000 -16.000 l
136.000 -8.000 128.000 -8.000 l
136.000 0.000 136.000 -8.000 l
128.000 0.000 136.000 0.000 l
128.000 -8.000 128.000 0.000 l
120.000 -8.000 128.000 -8.000 l
120.000 0.000 120.000 -8.000 l
112.000 0.000 120.000 0.000 l
112.000 8.000 112.000 0.000 l
120.000 8.000 112.000 8.000 l
120.000 16.000 120.000 8.000 l
112.000 16.000 120.000 16.000 l
112.000 24.000 112.000 16.000 l
120.000 24.000 112.000 24.000 l
120.000 16.000 120.000 24.000 l
128.000 16.000 120.000 16.000 l
128.000 24.000 128.000 16.000 l
136.000 24.000 128.000 24.000 l
136.000 32.000 136.000 24.000 l
128.000 32.000 136.000 32.000 l
128.000 40.000 128.000 32.000 l
136.000 40.000 128.000 40.000 l
136.000 32.000 136.000 40.000 l
144.000 32.000 136.000 32.000 l
144.000 24.000 144.000 32.000 l
136.000 24.000 144.000 24.000 l
136.000 16.000 136.000 24.000 l
144.000 16.000 136.000 16.000 l
144.000 24.000 144.000 16.000 l
152.000 24.000 144.000 24.000 l
152.000 16.000 152.000 24.000 l
160.000 16.000 152.000 16.000 l
160.000 24.000 160.000 16.000 l
168.000 24.000 160.000 24.000 l
168.000 32.000 168.000 24.000 l
160.000 32.000 168.000 32.000 l
160.000 40.000 160.000 32.000 l
168.000 40.000 160.000 40.000 l
168.000 32.000 168.000 40.000 l
176.000 32.000 168.000 32.000 l
176.000 24.000 176.000 32.000 l
168.000 24.000 176.000 24.000 l
168.000 16.000 168.000 24.000 l
176.000 16.000 168.000 16.000 l
176.000 8.000 176.000 16.000 l
168.000 8.000 176.000 8.000 l
168.000 16.000 168.000 8.000 l
160.000 16.000 168.000 16.000 l
160.000 8.000 160.000 16.000 l
152.000 8.000 160.000 8.000 l
152.000 0.000 152.000 8.000 l
160.000 0.000 152.000 0.000 l
160.000 8.000 160.000 0.000 l
168.000 8.000 160.000 8.000 l
168.000 0.000 168.000 8.000 l
176.000 0.000 168.000 0.000 l
176.000 -8.000 176.000 0.000 l
168.000 -8.000 176.000 -8.000 l
168.000 -16.000 168.000 -8.000 l
176.000 -16.000 168.000 -16.000 l
176.000 -8.000 176.000 -16.000 l
184.000 -8.000 176.000 -8.000 l
184.000 -16.000 184.000 -8.000 l
192.000 -16.000 184.000 -16.000 l
192.000 -8.000 192.000 -16.000 l
200.000 -8.000 192.000 -8.000 l
200.000 0.000 200.000 -8.000 l
192.000 0.000 200.000 0.000 l
192.000 8.000 192.000 0.000 l
200.000 8.000 192.000 8.000 l
200.000 0.000 200.000 8.000 l
208.000 0.000 200.000 0.000 l
208.000 -8.000 208.000 0.000 l
200.000 -8.000 208.000 -8.000 l
200.000 -16.000 200.000 -8.000 l
208.000 -16.000 200.000 -16.000 l
208.000 -24.000 208.000 -16.000 l
200.000 -24.000 208.000 -24.000 l
200.000 -16.000 200.000 -24.000 l
192.000 -16.000 200.000 -16.000 l
192.000 -24.000 192.000 -16.000 l
184.000 -24.000 192.000 -24.000 l
184.000 -32.000 184.000 -24.000 l
192.000 -32.000 184.000 -32.000 l
192.000 -40.000 192.000 -32.000 l
184.000 -40.000 192.000 -40.000 l
184.000 -32.000 184.000 -40.000 l
176.000 -32.000 184.000 -32.000 l
176.000 -24.000 176.000 -32.000 l
184.000 -24.000 176.000 -24.000 l
184.000 -16.000 184.000 -24.000 l
176.000 -16.000 184.000 -16.000 l
176.000 -24.000 176.000 -16.000 l
168.000 -24.000 176.000 -24.000 l
168.000 -16.000 168.000 -24.000 l
160.000 -16.000 168.000 -16.000 l
160.000 -24.000 160.000 -16.000 l
152.000 -24.000 160.000 -24.000 l
152.000 -32.000 152.000 -24.000 l
160.000 -32.000 152.000 -32.000 l
160.000 -24.000 160.000 -32.000 l
168.000 -24.000 160.000 -24.000 l
168.000 -32.000 168.000 -24.000 l
176.000 -32.000 168.000 -32.000 l
176.000 -40.000 176.000 -32.000 l
168.000 -40.000 176.000 -40.000 l
168.000 -48.000 168.000 -40.000 l
176.000 -48.000 168.000 -48.000 l
176.000 -56.000 176.000 -48.000 l
168.000 -56.000 176.000 -56.000 l
168.000 -48.000 168.000 -56.000 l
160.000 -48.000 168.000 -48.000 l
160.000 -56.000 160.000 -48.000 l
152.000 -56.000 160.000 -56.000 l
152.000 -64.000 152.000 -56.000 l
160.000 -64.000 152.000 -64.000 l
160.000 -56.000 160.000 -64.000 l
168.000 -56.000 160.000 -56.000 l
168.000 -64.000 168.000 -56.000 l
176.000 -64.000 168.000 -64.000 l
176.000 -72.000 176.000 -64.000 l
168.000 -72.000 176.000 -72.000 l
168.000 -80.000 168.000 -72.000 l
176.000 -80.000 168.000 -80.000 l
176.000 -72.000 176.000 -80.000 l
184.000 -72.000 176.000 -72.000 l
184.000 -80.000 184.000 -72.000 l
192.000 -80.000 184.000 -80.000 l
192.000 -72.000 192.000 -80.000 l
200.000 -72.000 192.000 -72.000 l
200.000 -64.000 200.000 -72.000 l
192.000 -64.000 200.000 -64.000 l
192.000 -72.000 192.000 -64.000 l
184.000 -72.000 192.000 -72.000 l
184.000 -64.000 184.000 -72.000 l
176.000 -64.000 184.000 -64.000 l
176.000 -56.000 176.000 -64.000 l
184.000 -56.000 176.000 -56.000 l
184.000 -48.000 184.000 -56.000 l
176.000 -48.000 184.000 -48.000 l
176.000 -40.000 176.000 -48.000 l
184.000 -40.000 176.000 -40.000 l
184.000 -48.000 184.000 -40.000 l
192.000 -48.000 184.000 -48.000 l
192.000 -40.000 192.000 -48.000 l
200.000 -40.000 192.000 -40.000 l
200.000 -32.000 200.000 -40.000 l
192.000 -32.000 200.000 -32.000 l
192.000 -24.000 192.000 -32.000 l
200.000 -24.000 192.000 -24.000 l
200.000 -32.000 200.000 -24.000 l
208.000 -32.000 200.000 -32.000 l
208.000 -40.000 208.000 -32.000 l
200.000 -40.000 208.000 -40.000 l
200.000 -48.000 200.000 -40.000 l
208.000 -48.000 200.000 -48.000 l
208.000 -40.000 208.000 -48.000 l
216.000 -40.000 208.000 -40.000 l
216.000 -48.000 216.000 -40.000 l
224.000 -48.000 216.000 -48.000 l
224.000 -40.000 224.000 -48.000 l
232.000 -40.000 224.000 -40.000 l
232.000 -32.000 232.000 -40.000 l
224.000 -32.000 232.000 -32.000 l
224.000 -24.000 224.000 -32.000 l
232.000 -24.000 224.000 -24.000 l
232.000 -32.000 232.000 -24.000 l
240.000 -32.000 232.000 -32.000 l
240.000 -40.000 240.000 -32.000 l
232.000 -40.000 240.000 -40.000 l
232.000 -48.000 232.000 -40.000 l
240.000 -48.000 232.000 -48.000 l
240.000 -56.000 240.000 -48.000 l
232.000 -56.000 240.000 -56.000 l
232.000 -48.000 232.000 -56.000 l
224.000 -48.000 232.000 -48.000 l
224.000 -56.000 224.000 -48.000 l
216.000 -56.000 224.000 -56.000 l
216.000 -64.000 216.000 -56.000 l
224.000 -64.000 216.000 -64.000 l
224.000 -56.000 224.000 -64.000 l
232.000 -56.000 224.000 -56.000 l
232.000 -64.000 232.000 -56.000 l
240.000 -64.000 232.000 -64.000 l
240.000 -72.000 240.000 -64.000 l
232.000 -72.000 240.000 -72.000 l
232.000 -80.000 232.000 -72.000 l
240.000 -80.000 232.000 -80.000 l
240.000 -72.000 240.000 -80.000 l
248.000 -72.000 240.000 -72.000 l
248.000 -80.000 248.000 -72.000 l
256.000 -80.000 248.000 -80.000 l
256.000 -72.000 256.000 -80.000 l
264.000 -72.000 256.000 -72.000 l
264.000 -64.000 264.000 -72.000 l
256.000 -64.000 264.000 -64.000 l
256.000 -72.000 256.000 -64.000 l
248.000 -72.000 256.000 -72.000 l
248.000 -64.000 248.000 -72.000 l
240.000 -64.000 248.000 -64.000 l
240.000 -56.000 240.000 -64.000 l
248.000 -56.000 240.000 -56.000 l
248.000 -48.000 248.000 -56.000 l
240.000 -48.000 248.000 -48.000 l
240.000 -40.000 240.000 -48.000 l
248.000 -40.000 240.000 -40.000 l
248.000 -48.000 248.000 -40.000 l
256.000 -48.000 248.000 -48.000 l
256.000 -40.000 256.000 -48.000 l
264.000 -40.000 256.000 -40.000 l
264.000 -32.000 264.000 -40.000 l
256.000 -32.000 264.000 -32.000 l
256.000 -24.000 256.000 -32.000 l
264.000 -24.000 256.000 -24.000 l
264.000 -32.000 264.000 -24.000 l
272.000 -32.000 264.000 -32.000 l
272.000 -40.000 272.000 -32.000 l
264.000 -40.000 272.000 -40.000 l
264.000 -48.000 264.000 -40.000 l
272.000 -48.000 264.000 -48.000 l
272.000 -40.000 272.000 -48.000 l
280.000 -40.000 272.000 -40.000 l
280.000 -48.000 280.000 -40.000 l
288.000 -48.000 280.000 -48.000 l
288.000 -40.000 288.000 -48.000 l
296.000 -40.000 288.000 -40.000 l
296.000 -32.000 296.000 -40.000 l
288.000 -32.000 296.000 -32.000 l
288.000 -40.000 288.000 -32.000 l
280.000 -40.000 288.000 -40.000 l
280.000 -32.000 280.000 -40.000 l
272.000 -32.000 280.000 -32.000 l
272.000 -24.000 272.000 -32.000 l
280.000 -24.000 272.000 -24.000 l
280.000 -16.000 280.000 -24.000 l
272.000 -16.000 280.000 -16.000 l
272.000 -8.000 272.000 -16.000 l
280.000 -8.000 272.000 -8.000 l
280.000 -16.000 280.000 -8.000 l
288.000 -16.000 280.000 -16.000 l
288.000 -8.000 288.000 -16.000 l
296.000 -8.000 288.000 -8.000 l
296.000 0.000 296.000 -8.000 l
288.000 0.000 296.000 0.000 l
288.000 -8.000 288.000 0.000 l
280.000 -8.000 288.000 -8.000 l
280.000 0.000 280.000 -8.000 l
272.000 0.000 280.000 0.000 l
272.000 8.000 272.000 0.000 l
280.000 8.000 272.000 8.000 l
280.000 16.000 280.000 8.000 l
272.000 16.000 280.000 16.000 l
272.000 8.000 272.000 16.000 l
264.000 8.000 272.000 8.000 l
264.000 16.000 264.000 8.000 l
256.000 16.000 264.000 16.000 l
256.000 8.000 256.000 16.000 l
248.000 8.000 256.000 8.000 l
248.000 0.000 248.000 8.000 l
256.000 0.000 248.000 0.000 l

showpage

restore
%%EOF
