%!PS-Adobe-3.0 EPSF-3.0
%%BoundingBox: 0 0 526.985 588.492
%%Title: L-system "fractal binary tree"
%%Creator: Python package l_system 01.00.00 --- Olivier Pirson --- http://www.opimedia.be/
%%EndComments
save

% Function
%%%%%%%%%%
/l {  % x1 y1 x0 y0
    moveto lineto stroke
} def

% Main
%%%%%%
-258.492 neg 0.000 neg translate
5.000 5.000 translate

0.000 10.000 0.000 0.000 l
0.000 20.000 0.000 10.000 l
0.000 30.000 0.000 20.000 l
0.000 40.000 0.000 30.000 l
0.000 50.000 0.000 40.000 l
0.000 60.000 0.000 50.000 l
0.000 70.000 0.000 60.000 l
0.000 80.000 0.000 70.000 l
0.000 90.000 0.000 80.000 l
0.000 100.000 0.000 90.000 l
0.000 110.000 0.000 100.000 l
0.000 120.000 0.000 110.000 l
0.000 130.000 0.000 120.000 l
0.000 140.000 0.000 130.000 l
0.000 150.000 0.000 140.000 l
0.000 160.000 0.000 150.000 l
0.000 170.000 0.000 160.000 l
0.000 180.000 0.000 170.000 l
0.000 190.000 0.000 180.000 l
0.000 200.000 0.000 190.000 l
0.000 210.000 0.000 200.000 l
0.000 220.000 0.000 210.000 l
0.000 230.000 0.000 220.000 l
0.000 240.000 0.000 230.000 l
0.000 250.000 0.000 240.000 l
0.000 260.000 0.000 250.000 l
0.000 270.000 0.000 260.000 l
0.000 280.000 0.000 270.000 l
0.000 290.000 0.000 280.000 l
0.000 300.000 0.000 290.000 l
0.000 310.000 0.000 300.000 l
0.000 320.000 0.000 310.000 l
-7.071 327.071 0.000 320.000 l
-14.142 334.142 -7.071 327.071 l
-21.213 341.213 -14.142 334.142 l
-28.284 348.284 -21.213 341.213 l
-35.355 355.355 -28.284 348.284 l
-42.426 362.426 -35.355 355.355 l
-49.497 369.497 -42.426 362.426 l
-56.569 376.569 -49.497 369.497 l
-63.640 383.640 -56.569 376.569 l
-70.711 390.711 -63.640 383.640 l
-77.782 397.782 -70.711 390.711 l
-84.853 404.853 -77.782 397.782 l
-91.924 411.924 -84.853 404.853 l
-98.995 418.995 -91.924 411.924 l
-106.066 426.066 -98.995 418.995 l
-113.137 433.137 -106.066 426.066 l
-123.137 433.137 -113.137 433.137 l
-133.137 433.137 -123.137 433.137 l
-143.137 433.137 -133.137 433.137 l
-153.137 433.137 -143.137 433.137 l
-163.137 433.137 -153.137 433.137 l
-173.137 433.137 -163.137 433.137 l
-183.137 433.137 -173.137 433.137 l
-193.137 433.137 -183.137 433.137 l
-200.208 426.066 -193.137 433.137 l
-207.279 418.995 -200.208 426.066 l
-214.350 411.924 -207.279 418.995 l
-221.421 404.853 -214.350 411.924 l
-221.421 394.853 -221.421 404.853 l
-221.421 384.853 -221.421 394.853 l
-214.350 377.782 -221.421 384.853 l
-204.350 377.782 -214.350 377.782 l
-214.350 367.782 -214.350 377.782 l
-228.492 377.782 -221.421 384.853 l
-228.492 367.782 -228.492 377.782 l
-238.492 377.782 -228.492 377.782 l
-231.421 404.853 -221.421 404.853 l
-241.421 404.853 -231.421 404.853 l
-248.492 397.782 -241.421 404.853 l
-248.492 387.782 -248.492 397.782 l
-258.492 397.782 -248.492 397.782 l
-248.492 411.924 -241.421 404.853 l
-258.492 411.924 -248.492 411.924 l
-248.492 421.924 -248.492 411.924 l
-200.208 440.208 -193.137 433.137 l
-207.279 447.279 -200.208 440.208 l
-214.350 454.350 -207.279 447.279 l
-221.421 461.421 -214.350 454.350 l
-231.421 461.421 -221.421 461.421 l
-241.421 461.421 -231.421 461.421 l
-248.492 454.350 -241.421 461.421 l
-248.492 444.350 -248.492 454.350 l
-258.492 454.350 -248.492 454.350 l
-248.492 468.492 -241.421 461.421 l
-258.492 468.492 -248.492 468.492 l
-248.492 478.492 -248.492 468.492 l
-221.421 471.421 -221.421 461.421 l
-221.421 481.421 -221.421 471.421 l
-228.492 488.492 -221.421 481.421 l
-238.492 488.492 -228.492 488.492 l
-228.492 498.492 -228.492 488.492 l
-214.350 488.492 -221.421 481.421 l
-214.350 498.492 -214.350 488.492 l
-204.350 488.492 -214.350 488.492 l
-113.137 443.137 -113.137 433.137 l
-113.137 453.137 -113.137 443.137 l
-113.137 463.137 -113.137 453.137 l
-113.137 473.137 -113.137 463.137 l
-113.137 483.137 -113.137 473.137 l
-113.137 493.137 -113.137 483.137 l
-113.137 503.137 -113.137 493.137 l
-113.137 513.137 -113.137 503.137 l
-120.208 520.208 -113.137 513.137 l
-127.279 527.279 -120.208 520.208 l
-134.350 534.350 -127.279 527.279 l
-141.421 541.421 -134.350 534.350 l
-151.421 541.421 -141.421 541.421 l
-161.421 541.421 -151.421 541.421 l
-168.492 534.350 -161.421 541.421 l
-168.492 524.350 -168.492 534.350 l
-178.492 534.350 -168.492 534.350 l
-168.492 548.492 -161.421 541.421 l
-178.492 548.492 -168.492 548.492 l
-168.492 558.492 -168.492 548.492 l
-141.421 551.421 -141.421 541.421 l
-141.421 561.421 -141.421 551.421 l
-148.492 568.492 -141.421 561.421 l
-158.492 568.492 -148.492 568.492 l
-148.492 578.492 -148.492 568.492 l
-134.350 568.492 -141.421 561.421 l
-134.350 578.492 -134.350 568.492 l
-124.350 568.492 -134.350 568.492 l
-106.066 520.208 -113.137 513.137 l
-98.995 527.279 -106.066 520.208 l
-91.924 534.350 -98.995 527.279 l
-84.853 541.421 -91.924 534.350 l
-84.853 551.421 -84.853 541.421 l
-84.853 561.421 -84.853 551.421 l
-91.924 568.492 -84.853 561.421 l
-101.924 568.492 -91.924 568.492 l
-91.924 578.492 -91.924 568.492 l
-77.782 568.492 -84.853 561.421 l
-77.782 578.492 -77.782 568.492 l
-67.782 568.492 -77.782 568.492 l
-74.853 541.421 -84.853 541.421 l
-64.853 541.421 -74.853 541.421 l
-57.782 548.492 -64.853 541.421 l
-57.782 558.492 -57.782 548.492 l
-47.782 548.492 -57.782 548.492 l
-57.782 534.350 -64.853 541.421 l
-47.782 534.350 -57.782 534.350 l
-57.782 524.350 -57.782 534.350 l
7.071 327.071 0.000 320.000 l
14.142 334.142 7.071 327.071 l
21.213 341.213 14.142 334.142 l
28.284 348.284 21.213 341.213 l
35.355 355.355 28.284 348.284 l
42.426 362.426 35.355 355.355 l
49.497 369.497 42.426 362.426 l
56.569 376.569 49.497 369.497 l
63.640 383.640 56.569 376.569 l
70.711 390.711 63.640 383.640 l
77.782 397.782 70.711 390.711 l
84.853 404.853 77.782 397.782 l
91.924 411.924 84.853 404.853 l
98.995 418.995 91.924 411.924 l
106.066 426.066 98.995 418.995 l
113.137 433.137 106.066 426.066 l
113.137 443.137 113.137 433.137 l
113.137 453.137 113.137 443.137 l
113.137 463.137 113.137 453.137 l
113.137 473.137 113.137 463.137 l
113.137 483.137 113.137 473.137 l
113.137 493.137 113.137 483.137 l
113.137 503.137 113.137 493.137 l
113.137 513.137 113.137 503.137 l
106.066 520.208 113.137 513.137 l
98.995 527.279 106.066 520.208 l
91.924 534.350 98.995 527.279 l
84.853 541.421 91.924 534.350 l
74.853 541.421 84.853 541.421 l
64.853 541.421 74.853 541.421 l
57.782 534.350 64.853 541.421 l
57.782 524.350 57.782 534.350 l
47.782 534.350 57.782 534.350 l
57.782 548.492 64.853 541.421 l
47.782 548.492 57.782 548.492 l
57.782 558.492 57.782 548.492 l
84.853 551.421 84.853 541.421 l
84.853 561.421 84.853 551.421 l
77.782 568.492 84.853 561.421 l
67.782 568.492 77.782 568.492 l
77.782 578.492 77.782 568.492 l
91.924 568.492 84.853 561.421 l
91.924 578.492 91.924 568.492 l
101.924 568.492 91.924 568.492 l
120.208 520.208 113.137 513.137 l
127.279 527.279 120.208 520.208 l
134.350 534.350 127.279 527.279 l
141.421 541.421 134.350 534.350 l
141.421 551.421 141.421 541.421 l
141.421 561.421 141.421 551.421 l
134.350 568.492 141.421 561.421 l
124.350 568.492 134.350 568.492 l
134.350 578.492 134.350 568.492 l
148.492 568.492 141.421 561.421 l
148.492 578.492 148.492 568.492 l
158.492 568.492 148.492 568.492 l
151.421 541.421 141.421 541.421 l
161.421 541.421 151.421 541.421 l
168.492 548.492 161.421 541.421 l
168.492 558.492 168.492 548.492 l
178.492 548.492 168.492 548.492 l
168.492 534.350 161.421 541.421 l
178.492 534.350 168.492 534.350 l
168.492 524.350 168.492 534.350 l
123.137 433.137 113.137 433.137 l
133.137 433.137 123.137 433.137 l
143.137 433.137 133.137 433.137 l
153.137 433.137 143.137 433.137 l
163.137 433.137 153.137 433.137 l
173.137 433.137 163.137 433.137 l
183.137 433.137 173.137 433.137 l
193.137 433.137 183.137 433.137 l
200.208 440.208 193.137 433.137 l
207.279 447.279 200.208 440.208 l
214.350 454.350 207.279 447.279 l
221.421 461.421 214.350 454.350 l
221.421 471.421 221.421 461.421 l
221.421 481.421 221.421 471.421 l
214.350 488.492 221.421 481.421 l
204.350 488.492 214.350 488.492 l
214.350 498.492 214.350 488.492 l
228.492 488.492 221.421 481.421 l
228.492 498.492 228.492 488.492 l
238.492 488.492 228.492 488.492 l
231.421 461.421 221.421 461.421 l
241.421 461.421 231.421 461.421 l
248.492 468.492 241.421 461.421 l
248.492 478.492 248.492 468.492 l
258.492 468.492 248.492 468.492 l
248.492 454.350 241.421 461.421 l
258.492 454.350 248.492 454.350 l
248.492 444.350 248.492 454.350 l
200.208 426.066 193.137 433.137 l
207.279 418.995 200.208 426.066 l
214.350 411.924 207.279 418.995 l
221.421 404.853 214.350 411.924 l
231.421 404.853 221.421 404.853 l
241.421 404.853 231.421 404.853 l
248.492 411.924 241.421 404.853 l
248.492 421.924 248.492 411.924 l
258.492 411.924 248.492 411.924 l
248.492 397.782 241.421 404.853 l
258.492 397.782 248.492 397.782 l
248.492 387.782 248.492 397.782 l
221.421 394.853 221.421 404.853 l
221.421 384.853 221.421 394.853 l
228.492 377.782 221.421 384.853 l
238.492 377.782 228.492 377.782 l
228.492 367.782 228.492 377.782 l
214.350 377.782 221.421 384.853 l
214.350 367.782 214.350 377.782 l
204.350 377.782 214.350 377.782 l

showpage

restore
%%EOF
