%!PS-Adobe-3.0 EPSF-3.0
%%BoundingBox: 0 0 820.000 945.307
%%Title: L-system "Koch snowflake"
%%Creator: Python package l_system 01.00.00 --- Olivier Pirson --- http://www.opimedia.be/
%%EndComments
save

% Function
%%%%%%%%%%
/l {  % x1 y1 x0 y0
    moveto lineto stroke
} def

% Main
%%%%%%
-0.000 neg -701.481 neg translate
5.000 5.000 translate

10.000 0.000 0.000 0.000 l
15.000 8.660 10.000 0.000 l
20.000 0.000 15.000 8.660 l
30.000 0.000 20.000 0.000 l
35.000 8.660 30.000 0.000 l
30.000 17.321 35.000 8.660 l
40.000 17.321 30.000 17.321 l
45.000 25.981 40.000 17.321 l
50.000 17.321 45.000 25.981 l
60.000 17.321 50.000 17.321 l
55.000 8.660 60.000 17.321 l
60.000 0.000 55.000 8.660 l
70.000 0.000 60.000 0.000 l
75.000 8.660 70.000 0.000 l
80.000 0.000 75.000 8.660 l
90.000 0.000 80.000 0.000 l
95.000 8.660 90.000 0.000 l
90.000 17.321 95.000 8.660 l
100.000 17.321 90.000 17.321 l
105.000 25.981 100.000 17.321 l
100.000 34.641 105.000 25.981 l
90.000 34.641 100.000 34.641 l
95.000 43.301 90.000 34.641 l
90.000 51.962 95.000 43.301 l
100.000 51.962 90.000 51.962 l
105.000 60.622 100.000 51.962 l
110.000 51.962 105.000 60.622 l
120.000 51.962 110.000 51.962 l
125.000 60.622 120.000 51.962 l
120.000 69.282 125.000 60.622 l
130.000 69.282 120.000 69.282 l
135.000 77.942 130.000 69.282 l
140.000 69.282 135.000 77.942 l
150.000 69.282 140.000 69.282 l
145.000 60.622 150.000 69.282 l
150.000 51.962 145.000 60.622 l
160.000 51.962 150.000 51.962 l
165.000 60.622 160.000 51.962 l
170.000 51.962 165.000 60.622 l
180.000 51.962 170.000 51.962 l
175.000 43.301 180.000 51.962 l
180.000 34.641 175.000 43.301 l
170.000 34.641 180.000 34.641 l
165.000 25.981 170.000 34.641 l
170.000 17.321 165.000 25.981 l
180.000 17.321 170.000 17.321 l
175.000 8.660 180.000 17.321 l
180.000 0.000 175.000 8.660 l
190.000 0.000 180.000 0.000 l
195.000 8.660 190.000 0.000 l
200.000 0.000 195.000 8.660 l
210.000 0.000 200.000 0.000 l
215.000 8.660 210.000 0.000 l
210.000 17.321 215.000 8.660 l
220.000 17.321 210.000 17.321 l
225.000 25.981 220.000 17.321 l
230.000 17.321 225.000 25.981 l
240.000 17.321 230.000 17.321 l
235.000 8.660 240.000 17.321 l
240.000 0.000 235.000 8.660 l
250.000 0.000 240.000 0.000 l
255.000 8.660 250.000 0.000 l
260.000 0.000 255.000 8.660 l
270.000 0.000 260.000 0.000 l
275.000 8.660 270.000 0.000 l
270.000 17.321 275.000 8.660 l
280.000 17.321 270.000 17.321 l
285.000 25.981 280.000 17.321 l
280.000 34.641 285.000 25.981 l
270.000 34.641 280.000 34.641 l
275.000 43.301 270.000 34.641 l
270.000 51.962 275.000 43.301 l
280.000 51.962 270.000 51.962 l
285.000 60.622 280.000 51.962 l
290.000 51.962 285.000 60.622 l
300.000 51.962 290.000 51.962 l
305.000 60.622 300.000 51.962 l
300.000 69.282 305.000 60.622 l
310.000 69.282 300.000 69.282 l
315.000 77.942 310.000 69.282 l
310.000 86.603 315.000 77.942 l
300.000 86.603 310.000 86.603 l
305.000 95.263 300.000 86.603 l
300.000 103.923 305.000 95.263 l
290.000 103.923 300.000 103.923 l
285.000 95.263 290.000 103.923 l
280.000 103.923 285.000 95.263 l
270.000 103.923 280.000 103.923 l
275.000 112.583 270.000 103.923 l
270.000 121.244 275.000 112.583 l
280.000 121.244 270.000 121.244 l
285.000 129.904 280.000 121.244 l
280.000 138.564 285.000 129.904 l
270.000 138.564 280.000 138.564 l
275.000 147.224 270.000 138.564 l
270.000 155.885 275.000 147.224 l
280.000 155.885 270.000 155.885 l
285.000 164.545 280.000 155.885 l
290.000 155.885 285.000 164.545 l
300.000 155.885 290.000 155.885 l
305.000 164.545 300.000 155.885 l
300.000 173.205 305.000 164.545 l
310.000 173.205 300.000 173.205 l
315.000 181.865 310.000 173.205 l
320.000 173.205 315.000 181.865 l
330.000 173.205 320.000 173.205 l
325.000 164.545 330.000 173.205 l
330.000 155.885 325.000 164.545 l
340.000 155.885 330.000 155.885 l
345.000 164.545 340.000 155.885 l
350.000 155.885 345.000 164.545 l
360.000 155.885 350.000 155.885 l
365.000 164.545 360.000 155.885 l
360.000 173.205 365.000 164.545 l
370.000 173.205 360.000 173.205 l
375.000 181.865 370.000 173.205 l
370.000 190.526 375.000 181.865 l
360.000 190.526 370.000 190.526 l
365.000 199.186 360.000 190.526 l
360.000 207.846 365.000 199.186 l
370.000 207.846 360.000 207.846 l
375.000 216.506 370.000 207.846 l
380.000 207.846 375.000 216.506 l
390.000 207.846 380.000 207.846 l
395.000 216.506 390.000 207.846 l
390.000 225.167 395.000 216.506 l
400.000 225.167 390.000 225.167 l
405.000 233.827 400.000 225.167 l
410.000 225.167 405.000 233.827 l
420.000 225.167 410.000 225.167 l
415.000 216.506 420.000 225.167 l
420.000 207.846 415.000 216.506 l
430.000 207.846 420.000 207.846 l
435.000 216.506 430.000 207.846 l
440.000 207.846 435.000 216.506 l
450.000 207.846 440.000 207.846 l
445.000 199.186 450.000 207.846 l
450.000 190.526 445.000 199.186 l
440.000 190.526 450.000 190.526 l
435.000 181.865 440.000 190.526 l
440.000 173.205 435.000 181.865 l
450.000 173.205 440.000 173.205 l
445.000 164.545 450.000 173.205 l
450.000 155.885 445.000 164.545 l
460.000 155.885 450.000 155.885 l
465.000 164.545 460.000 155.885 l
470.000 155.885 465.000 164.545 l
480.000 155.885 470.000 155.885 l
485.000 164.545 480.000 155.885 l
480.000 173.205 485.000 164.545 l
490.000 173.205 480.000 173.205 l
495.000 181.865 490.000 173.205 l
500.000 173.205 495.000 181.865 l
510.000 173.205 500.000 173.205 l
505.000 164.545 510.000 173.205 l
510.000 155.885 505.000 164.545 l
520.000 155.885 510.000 155.885 l
525.000 164.545 520.000 155.885 l
530.000 155.885 525.000 164.545 l
540.000 155.885 530.000 155.885 l
535.000 147.224 540.000 155.885 l
540.000 138.564 535.000 147.224 l
530.000 138.564 540.000 138.564 l
525.000 129.904 530.000 138.564 l
530.000 121.244 525.000 129.904 l
540.000 121.244 530.000 121.244 l
535.000 112.583 540.000 121.244 l
540.000 103.923 535.000 112.583 l
530.000 103.923 540.000 103.923 l
525.000 95.263 530.000 103.923 l
520.000 103.923 525.000 95.263 l
510.000 103.923 520.000 103.923 l
505.000 95.263 510.000 103.923 l
510.000 86.603 505.000 95.263 l
500.000 86.603 510.000 86.603 l
495.000 77.942 500.000 86.603 l
500.000 69.282 495.000 77.942 l
510.000 69.282 500.000 69.282 l
505.000 60.622 510.000 69.282 l
510.000 51.962 505.000 60.622 l
520.000 51.962 510.000 51.962 l
525.000 60.622 520.000 51.962 l
530.000 51.962 525.000 60.622 l
540.000 51.962 530.000 51.962 l
535.000 43.301 540.000 51.962 l
540.000 34.641 535.000 43.301 l
530.000 34.641 540.000 34.641 l
525.000 25.981 530.000 34.641 l
530.000 17.321 525.000 25.981 l
540.000 17.321 530.000 17.321 l
535.000 8.660 540.000 17.321 l
540.000 0.000 535.000 8.660 l
550.000 0.000 540.000 0.000 l
555.000 8.660 550.000 0.000 l
560.000 0.000 555.000 8.660 l
570.000 0.000 560.000 0.000 l
575.000 8.660 570.000 0.000 l
570.000 17.321 575.000 8.660 l
580.000 17.321 570.000 17.321 l
585.000 25.981 580.000 17.321 l
590.000 17.321 585.000 25.981 l
600.000 17.321 590.000 17.321 l
595.000 8.660 600.000 17.321 l
600.000 0.000 595.000 8.660 l
610.000 0.000 600.000 0.000 l
615.000 8.660 610.000 0.000 l
620.000 0.000 615.000 8.660 l
630.000 0.000 620.000 0.000 l
635.000 8.660 630.000 0.000 l
630.000 17.321 635.000 8.660 l
640.000 17.321 630.000 17.321 l
645.000 25.981 640.000 17.321 l
640.000 34.641 645.000 25.981 l
630.000 34.641 640.000 34.641 l
635.000 43.301 630.000 34.641 l
630.000 51.962 635.000 43.301 l
640.000 51.962 630.000 51.962 l
645.000 60.622 640.000 51.962 l
650.000 51.962 645.000 60.622 l
660.000 51.962 650.000 51.962 l
665.000 60.622 660.000 51.962 l
660.000 69.282 665.000 60.622 l
670.000 69.282 660.000 69.282 l
675.000 77.942 670.000 69.282 l
680.000 69.282 675.000 77.942 l
690.000 69.282 680.000 69.282 l
685.000 60.622 690.000 69.282 l
690.000 51.962 685.000 60.622 l
700.000 51.962 690.000 51.962 l
705.000 60.622 700.000 51.962 l
710.000 51.962 705.000 60.622 l
720.000 51.962 710.000 51.962 l
715.000 43.301 720.000 51.962 l
720.000 34.641 715.000 43.301 l
710.000 34.641 720.000 34.641 l
705.000 25.981 710.000 34.641 l
710.000 17.321 705.000 25.981 l
720.000 17.321 710.000 17.321 l
715.000 8.660 720.000 17.321 l
720.000 0.000 715.000 8.660 l
730.000 0.000 720.000 0.000 l
735.000 8.660 730.000 0.000 l
740.000 0.000 735.000 8.660 l
750.000 0.000 740.000 0.000 l
755.000 8.660 750.000 0.000 l
750.000 17.321 755.000 8.660 l
760.000 17.321 750.000 17.321 l
765.000 25.981 760.000 17.321 l
770.000 17.321 765.000 25.981 l
780.000 17.321 770.000 17.321 l
775.000 8.660 780.000 17.321 l
780.000 0.000 775.000 8.660 l
790.000 0.000 780.000 0.000 l
795.000 8.660 790.000 0.000 l
800.000 0.000 795.000 8.660 l
810.000 0.000 800.000 0.000 l
805.000 -8.660 810.000 0.000 l
810.000 -17.321 805.000 -8.660 l
800.000 -17.321 810.000 -17.321 l
795.000 -25.981 800.000 -17.321 l
800.000 -34.641 795.000 -25.981 l
810.000 -34.641 800.000 -34.641 l
805.000 -43.301 810.000 -34.641 l
810.000 -51.962 805.000 -43.301 l
800.000 -51.962 810.000 -51.962 l
795.000 -60.622 800.000 -51.962 l
790.000 -51.962 795.000 -60.622 l
780.000 -51.962 790.000 -51.962 l
775.000 -60.622 780.000 -51.962 l
780.000 -69.282 775.000 -60.622 l
770.000 -69.282 780.000 -69.282 l
765.000 -77.942 770.000 -69.282 l
770.000 -86.603 765.000 -77.942 l
780.000 -86.603 770.000 -86.603 l
775.000 -95.263 780.000 -86.603 l
780.000 -103.923 775.000 -95.263 l
790.000 -103.923 780.000 -103.923 l
795.000 -95.263 790.000 -103.923 l
800.000 -103.923 795.000 -95.263 l
810.000 -103.923 800.000 -103.923 l
805.000 -112.583 810.000 -103.923 l
810.000 -121.244 805.000 -112.583 l
800.000 -121.244 810.000 -121.244 l
795.000 -129.904 800.000 -121.244 l
800.000 -138.564 795.000 -129.904 l
810.000 -138.564 800.000 -138.564 l
805.000 -147.224 810.000 -138.564 l
810.000 -155.885 805.000 -147.224 l
800.000 -155.885 810.000 -155.885 l
795.000 -164.545 800.000 -155.885 l
790.000 -155.885 795.000 -164.545 l
780.000 -155.885 790.000 -155.885 l
775.000 -164.545 780.000 -155.885 l
780.000 -173.205 775.000 -164.545 l
770.000 -173.205 780.000 -173.205 l
765.000 -181.865 770.000 -173.205 l
760.000 -173.205 765.000 -181.865 l
750.000 -173.205 760.000 -173.205 l
755.000 -164.545 750.000 -173.205 l
750.000 -155.885 755.000 -164.545 l
740.000 -155.885 750.000 -155.885 l
735.000 -164.545 740.000 -155.885 l
730.000 -155.885 735.000 -164.545 l
720.000 -155.885 730.000 -155.885 l
715.000 -164.545 720.000 -155.885 l
720.000 -173.205 715.000 -164.545 l
710.000 -173.205 720.000 -173.205 l
705.000 -181.865 710.000 -173.205 l
710.000 -190.526 705.000 -181.865 l
720.000 -190.526 710.000 -190.526 l
715.000 -199.186 720.000 -190.526 l
720.000 -207.846 715.000 -199.186 l
710.000 -207.846 720.000 -207.846 l
705.000 -216.506 710.000 -207.846 l
700.000 -207.846 705.000 -216.506 l
690.000 -207.846 700.000 -207.846 l
685.000 -216.506 690.000 -207.846 l
690.000 -225.167 685.000 -216.506 l
680.000 -225.167 690.000 -225.167 l
675.000 -233.827 680.000 -225.167 l
680.000 -242.487 675.000 -233.827 l
690.000 -242.487 680.000 -242.487 l
685.000 -251.147 690.000 -242.487 l
690.000 -259.808 685.000 -251.147 l
700.000 -259.808 690.000 -259.808 l
705.000 -251.147 700.000 -259.808 l
710.000 -259.808 705.000 -251.147 l
720.000 -259.808 710.000 -259.808 l
715.000 -268.468 720.000 -259.808 l
720.000 -277.128 715.000 -268.468 l
710.000 -277.128 720.000 -277.128 l
705.000 -285.788 710.000 -277.128 l
710.000 -294.449 705.000 -285.788 l
720.000 -294.449 710.000 -294.449 l
715.000 -303.109 720.000 -294.449 l
720.000 -311.769 715.000 -303.109 l
730.000 -311.769 720.000 -311.769 l
735.000 -303.109 730.000 -311.769 l
740.000 -311.769 735.000 -303.109 l
750.000 -311.769 740.000 -311.769 l
755.000 -303.109 750.000 -311.769 l
750.000 -294.449 755.000 -303.109 l
760.000 -294.449 750.000 -294.449 l
765.000 -285.788 760.000 -294.449 l
770.000 -294.449 765.000 -285.788 l
780.000 -294.449 770.000 -294.449 l
775.000 -303.109 780.000 -294.449 l
780.000 -311.769 775.000 -303.109 l
790.000 -311.769 780.000 -311.769 l
795.000 -303.109 790.000 -311.769 l
800.000 -311.769 795.000 -303.109 l
810.000 -311.769 800.000 -311.769 l
805.000 -320.429 810.000 -311.769 l
810.000 -329.090 805.000 -320.429 l
800.000 -329.090 810.000 -329.090 l
795.000 -337.750 800.000 -329.090 l
800.000 -346.410 795.000 -337.750 l
810.000 -346.410 800.000 -346.410 l
805.000 -355.070 810.000 -346.410 l
810.000 -363.731 805.000 -355.070 l
800.000 -363.731 810.000 -363.731 l
795.000 -372.391 800.000 -363.731 l
790.000 -363.731 795.000 -372.391 l
780.000 -363.731 790.000 -363.731 l
775.000 -372.391 780.000 -363.731 l
780.000 -381.051 775.000 -372.391 l
770.000 -381.051 780.000 -381.051 l
765.000 -389.711 770.000 -381.051 l
770.000 -398.372 765.000 -389.711 l
780.000 -398.372 770.000 -398.372 l
775.000 -407.032 780.000 -398.372 l
780.000 -415.692 775.000 -407.032 l
790.000 -415.692 780.000 -415.692 l
795.000 -407.032 790.000 -415.692 l
800.000 -415.692 795.000 -407.032 l
810.000 -415.692 800.000 -415.692 l
805.000 -424.352 810.000 -415.692 l
810.000 -433.013 805.000 -424.352 l
800.000 -433.013 810.000 -433.013 l
795.000 -441.673 800.000 -433.013 l
800.000 -450.333 795.000 -441.673 l
810.000 -450.333 800.000 -450.333 l
805.000 -458.993 810.000 -450.333 l
810.000 -467.654 805.000 -458.993 l
800.000 -467.654 810.000 -467.654 l
795.000 -476.314 800.000 -467.654 l
790.000 -467.654 795.000 -476.314 l
780.000 -467.654 790.000 -467.654 l
775.000 -476.314 780.000 -467.654 l
780.000 -484.974 775.000 -476.314 l
770.000 -484.974 780.000 -484.974 l
765.000 -493.634 770.000 -484.974 l
760.000 -484.974 765.000 -493.634 l
750.000 -484.974 760.000 -484.974 l
755.000 -476.314 750.000 -484.974 l
750.000 -467.654 755.000 -476.314 l
740.000 -467.654 750.000 -467.654 l
735.000 -476.314 740.000 -467.654 l
730.000 -467.654 735.000 -476.314 l
720.000 -467.654 730.000 -467.654 l
715.000 -476.314 720.000 -467.654 l
720.000 -484.974 715.000 -476.314 l
710.000 -484.974 720.000 -484.974 l
705.000 -493.634 710.000 -484.974 l
710.000 -502.295 705.000 -493.634 l
720.000 -502.295 710.000 -502.295 l
715.000 -510.955 720.000 -502.295 l
720.000 -519.615 715.000 -510.955 l
710.000 -519.615 720.000 -519.615 l
705.000 -528.275 710.000 -519.615 l
700.000 -519.615 705.000 -528.275 l
690.000 -519.615 700.000 -519.615 l
685.000 -528.275 690.000 -519.615 l
690.000 -536.936 685.000 -528.275 l
680.000 -536.936 690.000 -536.936 l
675.000 -545.596 680.000 -536.936 l
670.000 -536.936 675.000 -545.596 l
660.000 -536.936 670.000 -536.936 l
665.000 -528.275 660.000 -536.936 l
660.000 -519.615 665.000 -528.275 l
650.000 -519.615 660.000 -519.615 l
645.000 -528.275 650.000 -519.615 l
640.000 -519.615 645.000 -528.275 l
630.000 -519.615 640.000 -519.615 l
635.000 -510.955 630.000 -519.615 l
630.000 -502.295 635.000 -510.955 l
640.000 -502.295 630.000 -502.295 l
645.000 -493.634 640.000 -502.295 l
640.000 -484.974 645.000 -493.634 l
630.000 -484.974 640.000 -484.974 l
635.000 -476.314 630.000 -484.974 l
630.000 -467.654 635.000 -476.314 l
620.000 -467.654 630.000 -467.654 l
615.000 -476.314 620.000 -467.654 l
610.000 -467.654 615.000 -476.314 l
600.000 -467.654 610.000 -467.654 l
595.000 -476.314 600.000 -467.654 l
600.000 -484.974 595.000 -476.314 l
590.000 -484.974 600.000 -484.974 l
585.000 -493.634 590.000 -484.974 l
580.000 -484.974 585.000 -493.634 l
570.000 -484.974 580.000 -484.974 l
575.000 -476.314 570.000 -484.974 l
570.000 -467.654 575.000 -476.314 l
560.000 -467.654 570.000 -467.654 l
555.000 -476.314 560.000 -467.654 l
550.000 -467.654 555.000 -476.314 l
540.000 -467.654 550.000 -467.654 l
535.000 -476.314 540.000 -467.654 l
540.000 -484.974 535.000 -476.314 l
530.000 -484.974 540.000 -484.974 l
525.000 -493.634 530.000 -484.974 l
530.000 -502.295 525.000 -493.634 l
540.000 -502.295 530.000 -502.295 l
535.000 -510.955 540.000 -502.295 l
540.000 -519.615 535.000 -510.955 l
530.000 -519.615 540.000 -519.615 l
525.000 -528.275 530.000 -519.615 l
520.000 -519.615 525.000 -528.275 l
510.000 -519.615 520.000 -519.615 l
505.000 -528.275 510.000 -519.615 l
510.000 -536.936 505.000 -528.275 l
500.000 -536.936 510.000 -536.936 l
495.000 -545.596 500.000 -536.936 l
500.000 -554.256 495.000 -545.596 l
510.000 -554.256 500.000 -554.256 l
505.000 -562.917 510.000 -554.256 l
510.000 -571.577 505.000 -562.917 l
520.000 -571.577 510.000 -571.577 l
525.000 -562.917 520.000 -571.577 l
530.000 -571.577 525.000 -562.917 l
540.000 -571.577 530.000 -571.577 l
535.000 -580.237 540.000 -571.577 l
540.000 -588.897 535.000 -580.237 l
530.000 -588.897 540.000 -588.897 l
525.000 -597.558 530.000 -588.897 l
530.000 -606.218 525.000 -597.558 l
540.000 -606.218 530.000 -606.218 l
535.000 -614.878 540.000 -606.218 l
540.000 -623.538 535.000 -614.878 l
530.000 -623.538 540.000 -623.538 l
525.000 -632.199 530.000 -623.538 l
520.000 -623.538 525.000 -632.199 l
510.000 -623.538 520.000 -623.538 l
505.000 -632.199 510.000 -623.538 l
510.000 -640.859 505.000 -632.199 l
500.000 -640.859 510.000 -640.859 l
495.000 -649.519 500.000 -640.859 l
490.000 -640.859 495.000 -649.519 l
480.000 -640.859 490.000 -640.859 l
485.000 -632.199 480.000 -640.859 l
480.000 -623.538 485.000 -632.199 l
470.000 -623.538 480.000 -623.538 l
465.000 -632.199 470.000 -623.538 l
460.000 -623.538 465.000 -632.199 l
450.000 -623.538 460.000 -623.538 l
445.000 -632.199 450.000 -623.538 l
450.000 -640.859 445.000 -632.199 l
440.000 -640.859 450.000 -640.859 l
435.000 -649.519 440.000 -640.859 l
440.000 -658.179 435.000 -649.519 l
450.000 -658.179 440.000 -658.179 l
445.000 -666.840 450.000 -658.179 l
450.000 -675.500 445.000 -666.840 l
440.000 -675.500 450.000 -675.500 l
435.000 -684.160 440.000 -675.500 l
430.000 -675.500 435.000 -684.160 l
420.000 -675.500 430.000 -675.500 l
415.000 -684.160 420.000 -675.500 l
420.000 -692.820 415.000 -684.160 l
410.000 -692.820 420.000 -692.820 l
405.000 -701.481 410.000 -692.820 l
400.000 -692.820 405.000 -701.481 l
390.000 -692.820 400.000 -692.820 l
395.000 -684.160 390.000 -692.820 l
390.000 -675.500 395.000 -684.160 l
380.000 -675.500 390.000 -675.500 l
375.000 -684.160 380.000 -675.500 l
370.000 -675.500 375.000 -684.160 l
360.000 -675.500 370.000 -675.500 l
365.000 -666.840 360.000 -675.500 l
360.000 -658.179 365.000 -666.840 l
370.000 -658.179 360.000 -658.179 l
375.000 -649.519 370.000 -658.179 l
370.000 -640.859 375.000 -649.519 l
360.000 -640.859 370.000 -640.859 l
365.000 -632.199 360.000 -640.859 l
360.000 -623.538 365.000 -632.199 l
350.000 -623.538 360.000 -623.538 l
345.000 -632.199 350.000 -623.538 l
340.000 -623.538 345.000 -632.199 l
330.000 -623.538 340.000 -623.538 l
325.000 -632.199 330.000 -623.538 l
330.000 -640.859 325.000 -632.199 l
320.000 -640.859 330.000 -640.859 l
315.000 -649.519 320.000 -640.859 l
310.000 -640.859 315.000 -649.519 l
300.000 -640.859 310.000 -640.859 l
305.000 -632.199 300.000 -640.859 l
300.000 -623.538 305.000 -632.199 l
290.000 -623.538 300.000 -623.538 l
285.000 -632.199 290.000 -623.538 l
280.000 -623.538 285.000 -632.199 l
270.000 -623.538 280.000 -623.538 l
275.000 -614.878 270.000 -623.538 l
270.000 -606.218 275.000 -614.878 l
280.000 -606.218 270.000 -606.218 l
285.000 -597.558 280.000 -606.218 l
280.000 -588.897 285.000 -597.558 l
270.000 -588.897 280.000 -588.897 l
275.000 -580.237 270.000 -588.897 l
270.000 -571.577 275.000 -580.237 l
280.000 -571.577 270.000 -571.577 l
285.000 -562.917 280.000 -571.577 l
290.000 -571.577 285.000 -562.917 l
300.000 -571.577 290.000 -571.577 l
305.000 -562.917 300.000 -571.577 l
300.000 -554.256 305.000 -562.917 l
310.000 -554.256 300.000 -554.256 l
315.000 -545.596 310.000 -554.256 l
310.000 -536.936 315.000 -545.596 l
300.000 -536.936 310.000 -536.936 l
305.000 -528.275 300.000 -536.936 l
300.000 -519.615 305.000 -528.275 l
290.000 -519.615 300.000 -519.615 l
285.000 -528.275 290.000 -519.615 l
280.000 -519.615 285.000 -528.275 l
270.000 -519.615 280.000 -519.615 l
275.000 -510.955 270.000 -519.615 l
270.000 -502.295 275.000 -510.955 l
280.000 -502.295 270.000 -502.295 l
285.000 -493.634 280.000 -502.295 l
280.000 -484.974 285.000 -493.634 l
270.000 -484.974 280.000 -484.974 l
275.000 -476.314 270.000 -484.974 l
270.000 -467.654 275.000 -476.314 l
260.000 -467.654 270.000 -467.654 l
255.000 -476.314 260.000 -467.654 l
250.000 -467.654 255.000 -476.314 l
240.000 -467.654 250.000 -467.654 l
235.000 -476.314 240.000 -467.654 l
240.000 -484.974 235.000 -476.314 l
230.000 -484.974 240.000 -484.974 l
225.000 -493.634 230.000 -484.974 l
220.000 -484.974 225.000 -493.634 l
210.000 -484.974 220.000 -484.974 l
215.000 -476.314 210.000 -484.974 l
210.000 -467.654 215.000 -476.314 l
200.000 -467.654 210.000 -467.654 l
195.000 -476.314 200.000 -467.654 l
190.000 -467.654 195.000 -476.314 l
180.000 -467.654 190.000 -467.654 l
175.000 -476.314 180.000 -467.654 l
180.000 -484.974 175.000 -476.314 l
170.000 -484.974 180.000 -484.974 l
165.000 -493.634 170.000 -484.974 l
170.000 -502.295 165.000 -493.634 l
180.000 -502.295 170.000 -502.295 l
175.000 -510.955 180.000 -502.295 l
180.000 -519.615 175.000 -510.955 l
170.000 -519.615 180.000 -519.615 l
165.000 -528.275 170.000 -519.615 l
160.000 -519.615 165.000 -528.275 l
150.000 -519.615 160.000 -519.615 l
145.000 -528.275 150.000 -519.615 l
150.000 -536.936 145.000 -528.275 l
140.000 -536.936 150.000 -536.936 l
135.000 -545.596 140.000 -536.936 l
130.000 -536.936 135.000 -545.596 l
120.000 -536.936 130.000 -536.936 l
125.000 -528.275 120.000 -536.936 l
120.000 -519.615 125.000 -528.275 l
110.000 -519.615 120.000 -519.615 l
105.000 -528.275 110.000 -519.615 l
100.000 -519.615 105.000 -528.275 l
90.000 -519.615 100.000 -519.615 l
95.000 -510.955 90.000 -519.615 l
90.000 -502.295 95.000 -510.955 l
100.000 -502.295 90.000 -502.295 l
105.000 -493.634 100.000 -502.295 l
100.000 -484.974 105.000 -493.634 l
90.000 -484.974 100.000 -484.974 l
95.000 -476.314 90.000 -484.974 l
90.000 -467.654 95.000 -476.314 l
80.000 -467.654 90.000 -467.654 l
75.000 -476.314 80.000 -467.654 l
70.000 -467.654 75.000 -476.314 l
60.000 -467.654 70.000 -467.654 l
55.000 -476.314 60.000 -467.654 l
60.000 -484.974 55.000 -476.314 l
50.000 -484.974 60.000 -484.974 l
45.000 -493.634 50.000 -484.974 l
40.000 -484.974 45.000 -493.634 l
30.000 -484.974 40.000 -484.974 l
35.000 -476.314 30.000 -484.974 l
30.000 -467.654 35.000 -476.314 l
20.000 -467.654 30.000 -467.654 l
15.000 -476.314 20.000 -467.654 l
10.000 -467.654 15.000 -476.314 l
-0.000 -467.654 10.000 -467.654 l
5.000 -458.993 -0.000 -467.654 l
-0.000 -450.333 5.000 -458.993 l
10.000 -450.333 -0.000 -450.333 l
15.000 -441.673 10.000 -450.333 l
10.000 -433.013 15.000 -441.673 l
-0.000 -433.013 10.000 -433.013 l
5.000 -424.352 -0.000 -433.013 l
-0.000 -415.692 5.000 -424.352 l
10.000 -415.692 -0.000 -415.692 l
15.000 -407.032 10.000 -415.692 l
20.000 -415.692 15.000 -407.032 l
30.000 -415.692 20.000 -415.692 l
35.000 -407.032 30.000 -415.692 l
30.000 -398.372 35.000 -407.032 l
40.000 -398.372 30.000 -398.372 l
45.000 -389.711 40.000 -398.372 l
40.000 -381.051 45.000 -389.711 l
30.000 -381.051 40.000 -381.051 l
35.000 -372.391 30.000 -381.051 l
30.000 -363.731 35.000 -372.391 l
20.000 -363.731 30.000 -363.731 l
15.000 -372.391 20.000 -363.731 l
10.000 -363.731 15.000 -372.391 l
-0.000 -363.731 10.000 -363.731 l
5.000 -355.070 -0.000 -363.731 l
-0.000 -346.410 5.000 -355.070 l
10.000 -346.410 -0.000 -346.410 l
15.000 -337.750 10.000 -346.410 l
10.000 -329.090 15.000 -337.750 l
-0.000 -329.090 10.000 -329.090 l
5.000 -320.429 -0.000 -329.090 l
-0.000 -311.769 5.000 -320.429 l
10.000 -311.769 -0.000 -311.769 l
15.000 -303.109 10.000 -311.769 l
20.000 -311.769 15.000 -303.109 l
30.000 -311.769 20.000 -311.769 l
35.000 -303.109 30.000 -311.769 l
30.000 -294.449 35.000 -303.109 l
40.000 -294.449 30.000 -294.449 l
45.000 -285.788 40.000 -294.449 l
50.000 -294.449 45.000 -285.788 l
60.000 -294.449 50.000 -294.449 l
55.000 -303.109 60.000 -294.449 l
60.000 -311.769 55.000 -303.109 l
70.000 -311.769 60.000 -311.769 l
75.000 -303.109 70.000 -311.769 l
80.000 -311.769 75.000 -303.109 l
90.000 -311.769 80.000 -311.769 l
95.000 -303.109 90.000 -311.769 l
90.000 -294.449 95.000 -303.109 l
100.000 -294.449 90.000 -294.449 l
105.000 -285.788 100.000 -294.449 l
100.000 -277.128 105.000 -285.788 l
90.000 -277.128 100.000 -277.128 l
95.000 -268.468 90.000 -277.128 l
90.000 -259.808 95.000 -268.468 l
100.000 -259.808 90.000 -259.808 l
105.000 -251.147 100.000 -259.808 l
110.000 -259.808 105.000 -251.147 l
120.000 -259.808 110.000 -259.808 l
125.000 -251.147 120.000 -259.808 l
120.000 -242.487 125.000 -251.147 l
130.000 -242.487 120.000 -242.487 l
135.000 -233.827 130.000 -242.487 l
130.000 -225.167 135.000 -233.827 l
120.000 -225.167 130.000 -225.167 l
125.000 -216.506 120.000 -225.167 l
120.000 -207.846 125.000 -216.506 l
110.000 -207.846 120.000 -207.846 l
105.000 -216.506 110.000 -207.846 l
100.000 -207.846 105.000 -216.506 l
90.000 -207.846 100.000 -207.846 l
95.000 -199.186 90.000 -207.846 l
90.000 -190.526 95.000 -199.186 l
100.000 -190.526 90.000 -190.526 l
105.000 -181.865 100.000 -190.526 l
100.000 -173.205 105.000 -181.865 l
90.000 -173.205 100.000 -173.205 l
95.000 -164.545 90.000 -173.205 l
90.000 -155.885 95.000 -164.545 l
80.000 -155.885 90.000 -155.885 l
75.000 -164.545 80.000 -155.885 l
70.000 -155.885 75.000 -164.545 l
60.000 -155.885 70.000 -155.885 l
55.000 -164.545 60.000 -155.885 l
60.000 -173.205 55.000 -164.545 l
50.000 -173.205 60.000 -173.205 l
45.000 -181.865 50.000 -173.205 l
40.000 -173.205 45.000 -181.865 l
30.000 -173.205 40.000 -173.205 l
35.000 -164.545 30.000 -173.205 l
30.000 -155.885 35.000 -164.545 l
20.000 -155.885 30.000 -155.885 l
15.000 -164.545 20.000 -155.885 l
10.000 -155.885 15.000 -164.545 l
-0.000 -155.885 10.000 -155.885 l
5.000 -147.224 -0.000 -155.885 l
-0.000 -138.564 5.000 -147.224 l
10.000 -138.564 -0.000 -138.564 l
15.000 -129.904 10.000 -138.564 l
10.000 -121.244 15.000 -129.904 l
-0.000 -121.244 10.000 -121.244 l
5.000 -112.583 -0.000 -121.244 l
-0.000 -103.923 5.000 -112.583 l
10.000 -103.923 -0.000 -103.923 l
15.000 -95.263 10.000 -103.923 l
20.000 -103.923 15.000 -95.263 l
30.000 -103.923 20.000 -103.923 l
35.000 -95.263 30.000 -103.923 l
30.000 -86.603 35.000 -95.263 l
40.000 -86.603 30.000 -86.603 l
45.000 -77.942 40.000 -86.603 l
40.000 -69.282 45.000 -77.942 l
30.000 -69.282 40.000 -69.282 l
35.000 -60.622 30.000 -69.282 l
30.000 -51.962 35.000 -60.622 l
20.000 -51.962 30.000 -51.962 l
15.000 -60.622 20.000 -51.962 l
10.000 -51.962 15.000 -60.622 l
-0.000 -51.962 10.000 -51.962 l
5.000 -43.301 -0.000 -51.962 l
-0.000 -34.641 5.000 -43.301 l
10.000 -34.641 -0.000 -34.641 l
15.000 -25.981 10.000 -34.641 l
10.000 -17.321 15.000 -25.981 l
-0.000 -17.321 10.000 -17.321 l
5.000 -8.660 -0.000 -17.321 l
-0.000 0.000 5.000 -8.660 l

showpage

restore
%%EOF
