%!PS-Adobe-3.0 EPSF-3.0
%%BoundingBox: 0 0 100.000 113.923
%%Title: L-system "Koch snowflake"
%%Creator: Python package l_system 01.00.00 --- Olivier Pirson --- http://www.opimedia.be/
%%EndComments
save

% Function
%%%%%%%%%%
/l {  % x1 y1 x0 y0
    moveto lineto stroke
} def

% Main
%%%%%%
-0.000 neg -77.942 neg translate
5.000 5.000 translate

10.000 0.000 0.000 0.000 l
15.000 8.660 10.000 0.000 l
20.000 0.000 15.000 8.660 l
30.000 0.000 20.000 0.000 l
35.000 8.660 30.000 0.000 l
30.000 17.321 35.000 8.660 l
40.000 17.321 30.000 17.321 l
45.000 25.981 40.000 17.321 l
50.000 17.321 45.000 25.981 l
60.000 17.321 50.000 17.321 l
55.000 8.660 60.000 17.321 l
60.000 0.000 55.000 8.660 l
70.000 0.000 60.000 0.000 l
75.000 8.660 70.000 0.000 l
80.000 0.000 75.000 8.660 l
90.000 0.000 80.000 0.000 l
85.000 -8.660 90.000 0.000 l
90.000 -17.321 85.000 -8.660 l
80.000 -17.321 90.000 -17.321 l
75.000 -25.981 80.000 -17.321 l
80.000 -34.641 75.000 -25.981 l
90.000 -34.641 80.000 -34.641 l
85.000 -43.301 90.000 -34.641 l
90.000 -51.962 85.000 -43.301 l
80.000 -51.962 90.000 -51.962 l
75.000 -60.622 80.000 -51.962 l
70.000 -51.962 75.000 -60.622 l
60.000 -51.962 70.000 -51.962 l
55.000 -60.622 60.000 -51.962 l
60.000 -69.282 55.000 -60.622 l
50.000 -69.282 60.000 -69.282 l
45.000 -77.942 50.000 -69.282 l
40.000 -69.282 45.000 -77.942 l
30.000 -69.282 40.000 -69.282 l
35.000 -60.622 30.000 -69.282 l
30.000 -51.962 35.000 -60.622 l
20.000 -51.962 30.000 -51.962 l
15.000 -60.622 20.000 -51.962 l
10.000 -51.962 15.000 -60.622 l
-0.000 -51.962 10.000 -51.962 l
5.000 -43.301 -0.000 -51.962 l
-0.000 -34.641 5.000 -43.301 l
10.000 -34.641 -0.000 -34.641 l
15.000 -25.981 10.000 -34.641 l
10.000 -17.321 15.000 -25.981 l
-0.000 -17.321 10.000 -17.321 l
5.000 -8.660 -0.000 -17.321 l
-0.000 0.000 5.000 -8.660 l

showpage

restore
%%EOF
