%!PS-Adobe-3.0 EPSF-3.0
%%BoundingBox: 0 0 280.000 321.769
%%Title: L-system "Koch snowflake"
%%Creator: Python package l_system 01.00.00 --- Olivier Pirson --- http://www.opimedia.be/
%%EndComments
save

% Function
%%%%%%%%%%
/l {  % x1 y1 x0 y0
    moveto lineto stroke
} def

% Main
%%%%%%
-0.000 neg -233.827 neg translate
5.000 5.000 translate

10.000 0.000 0.000 0.000 l
15.000 8.660 10.000 0.000 l
20.000 0.000 15.000 8.660 l
30.000 0.000 20.000 0.000 l
35.000 8.660 30.000 0.000 l
30.000 17.321 35.000 8.660 l
40.000 17.321 30.000 17.321 l
45.000 25.981 40.000 17.321 l
50.000 17.321 45.000 25.981 l
60.000 17.321 50.000 17.321 l
55.000 8.660 60.000 17.321 l
60.000 0.000 55.000 8.660 l
70.000 0.000 60.000 0.000 l
75.000 8.660 70.000 0.000 l
80.000 0.000 75.000 8.660 l
90.000 0.000 80.000 0.000 l
95.000 8.660 90.000 0.000 l
90.000 17.321 95.000 8.660 l
100.000 17.321 90.000 17.321 l
105.000 25.981 100.000 17.321 l
100.000 34.641 105.000 25.981 l
90.000 34.641 100.000 34.641 l
95.000 43.301 90.000 34.641 l
90.000 51.962 95.000 43.301 l
100.000 51.962 90.000 51.962 l
105.000 60.622 100.000 51.962 l
110.000 51.962 105.000 60.622 l
120.000 51.962 110.000 51.962 l
125.000 60.622 120.000 51.962 l
120.000 69.282 125.000 60.622 l
130.000 69.282 120.000 69.282 l
135.000 77.942 130.000 69.282 l
140.000 69.282 135.000 77.942 l
150.000 69.282 140.000 69.282 l
145.000 60.622 150.000 69.282 l
150.000 51.962 145.000 60.622 l
160.000 51.962 150.000 51.962 l
165.000 60.622 160.000 51.962 l
170.000 51.962 165.000 60.622 l
180.000 51.962 170.000 51.962 l
175.000 43.301 180.000 51.962 l
180.000 34.641 175.000 43.301 l
170.000 34.641 180.000 34.641 l
165.000 25.981 170.000 34.641 l
170.000 17.321 165.000 25.981 l
180.000 17.321 170.000 17.321 l
175.000 8.660 180.000 17.321 l
180.000 0.000 175.000 8.660 l
190.000 0.000 180.000 0.000 l
195.000 8.660 190.000 0.000 l
200.000 0.000 195.000 8.660 l
210.000 0.000 200.000 0.000 l
215.000 8.660 210.000 0.000 l
210.000 17.321 215.000 8.660 l
220.000 17.321 210.000 17.321 l
225.000 25.981 220.000 17.321 l
230.000 17.321 225.000 25.981 l
240.000 17.321 230.000 17.321 l
235.000 8.660 240.000 17.321 l
240.000 0.000 235.000 8.660 l
250.000 0.000 240.000 0.000 l
255.000 8.660 250.000 0.000 l
260.000 0.000 255.000 8.660 l
270.000 0.000 260.000 0.000 l
265.000 -8.660 270.000 0.000 l
270.000 -17.321 265.000 -8.660 l
260.000 -17.321 270.000 -17.321 l
255.000 -25.981 260.000 -17.321 l
260.000 -34.641 255.000 -25.981 l
270.000 -34.641 260.000 -34.641 l
265.000 -43.301 270.000 -34.641 l
270.000 -51.962 265.000 -43.301 l
260.000 -51.962 270.000 -51.962 l
255.000 -60.622 260.000 -51.962 l
250.000 -51.962 255.000 -60.622 l
240.000 -51.962 250.000 -51.962 l
235.000 -60.622 240.000 -51.962 l
240.000 -69.282 235.000 -60.622 l
230.000 -69.282 240.000 -69.282 l
225.000 -77.942 230.000 -69.282 l
230.000 -86.603 225.000 -77.942 l
240.000 -86.603 230.000 -86.603 l
235.000 -95.263 240.000 -86.603 l
240.000 -103.923 235.000 -95.263 l
250.000 -103.923 240.000 -103.923 l
255.000 -95.263 250.000 -103.923 l
260.000 -103.923 255.000 -95.263 l
270.000 -103.923 260.000 -103.923 l
265.000 -112.583 270.000 -103.923 l
270.000 -121.244 265.000 -112.583 l
260.000 -121.244 270.000 -121.244 l
255.000 -129.904 260.000 -121.244 l
260.000 -138.564 255.000 -129.904 l
270.000 -138.564 260.000 -138.564 l
265.000 -147.224 270.000 -138.564 l
270.000 -155.885 265.000 -147.224 l
260.000 -155.885 270.000 -155.885 l
255.000 -164.545 260.000 -155.885 l
250.000 -155.885 255.000 -164.545 l
240.000 -155.885 250.000 -155.885 l
235.000 -164.545 240.000 -155.885 l
240.000 -173.205 235.000 -164.545 l
230.000 -173.205 240.000 -173.205 l
225.000 -181.865 230.000 -173.205 l
220.000 -173.205 225.000 -181.865 l
210.000 -173.205 220.000 -173.205 l
215.000 -164.545 210.000 -173.205 l
210.000 -155.885 215.000 -164.545 l
200.000 -155.885 210.000 -155.885 l
195.000 -164.545 200.000 -155.885 l
190.000 -155.885 195.000 -164.545 l
180.000 -155.885 190.000 -155.885 l
175.000 -164.545 180.000 -155.885 l
180.000 -173.205 175.000 -164.545 l
170.000 -173.205 180.000 -173.205 l
165.000 -181.865 170.000 -173.205 l
170.000 -190.526 165.000 -181.865 l
180.000 -190.526 170.000 -190.526 l
175.000 -199.186 180.000 -190.526 l
180.000 -207.846 175.000 -199.186 l
170.000 -207.846 180.000 -207.846 l
165.000 -216.506 170.000 -207.846 l
160.000 -207.846 165.000 -216.506 l
150.000 -207.846 160.000 -207.846 l
145.000 -216.506 150.000 -207.846 l
150.000 -225.167 145.000 -216.506 l
140.000 -225.167 150.000 -225.167 l
135.000 -233.827 140.000 -225.167 l
130.000 -225.167 135.000 -233.827 l
120.000 -225.167 130.000 -225.167 l
125.000 -216.506 120.000 -225.167 l
120.000 -207.846 125.000 -216.506 l
110.000 -207.846 120.000 -207.846 l
105.000 -216.506 110.000 -207.846 l
100.000 -207.846 105.000 -216.506 l
90.000 -207.846 100.000 -207.846 l
95.000 -199.186 90.000 -207.846 l
90.000 -190.526 95.000 -199.186 l
100.000 -190.526 90.000 -190.526 l
105.000 -181.865 100.000 -190.526 l
100.000 -173.205 105.000 -181.865 l
90.000 -173.205 100.000 -173.205 l
95.000 -164.545 90.000 -173.205 l
90.000 -155.885 95.000 -164.545 l
80.000 -155.885 90.000 -155.885 l
75.000 -164.545 80.000 -155.885 l
70.000 -155.885 75.000 -164.545 l
60.000 -155.885 70.000 -155.885 l
55.000 -164.545 60.000 -155.885 l
60.000 -173.205 55.000 -164.545 l
50.000 -173.205 60.000 -173.205 l
45.000 -181.865 50.000 -173.205 l
40.000 -173.205 45.000 -181.865 l
30.000 -173.205 40.000 -173.205 l
35.000 -164.545 30.000 -173.205 l
30.000 -155.885 35.000 -164.545 l
20.000 -155.885 30.000 -155.885 l
15.000 -164.545 20.000 -155.885 l
10.000 -155.885 15.000 -164.545 l
-0.000 -155.885 10.000 -155.885 l
5.000 -147.224 -0.000 -155.885 l
-0.000 -138.564 5.000 -147.224 l
10.000 -138.564 -0.000 -138.564 l
15.000 -129.904 10.000 -138.564 l
10.000 -121.244 15.000 -129.904 l
-0.000 -121.244 10.000 -121.244 l
5.000 -112.583 -0.000 -121.244 l
-0.000 -103.923 5.000 -112.583 l
10.000 -103.923 -0.000 -103.923 l
15.000 -95.263 10.000 -103.923 l
20.000 -103.923 15.000 -95.263 l
30.000 -103.923 20.000 -103.923 l
35.000 -95.263 30.000 -103.923 l
30.000 -86.603 35.000 -95.263 l
40.000 -86.603 30.000 -86.603 l
45.000 -77.942 40.000 -86.603 l
40.000 -69.282 45.000 -77.942 l
30.000 -69.282 40.000 -69.282 l
35.000 -60.622 30.000 -69.282 l
30.000 -51.962 35.000 -60.622 l
20.000 -51.962 30.000 -51.962 l
15.000 -60.622 20.000 -51.962 l
10.000 -51.962 15.000 -60.622 l
-0.000 -51.962 10.000 -51.962 l
5.000 -43.301 -0.000 -51.962 l
-0.000 -34.641 5.000 -43.301 l
10.000 -34.641 -0.000 -34.641 l
15.000 -25.981 10.000 -34.641 l
10.000 -17.321 15.000 -25.981 l
-0.000 -17.321 10.000 -17.321 l
5.000 -8.660 -0.000 -17.321 l
-0.000 0.000 5.000 -8.660 l

showpage

restore
%%EOF
