%!PS-Adobe-3.0 EPSF-3.0
%%BoundingBox: 0 0 266.000 176.277
%%Title: L-system "Sierpinski arrowhead curve"
%%Creator: Python package l_system 01.00.00 --- Olivier Pirson --- http://www.opimedia.be/
%%EndComments
save

% Function
%%%%%%%%%%
/l {  % x1 y1 x0 y0
    moveto lineto stroke
} def

% Main
%%%%%%
0.000 neg 0.000 neg translate
5.000 5.000 translate

64.000 0.000 0.000 0.000 l
96.000 55.426 64.000 0.000 l
64.000 110.851 96.000 55.426 l
96.000 166.277 64.000 110.851 l
160.000 166.277 96.000 166.277 l
192.000 110.851 160.000 166.277 l
160.000 55.426 192.000 110.851 l
192.000 0.000 160.000 55.426 l
256.000 0.000 192.000 0.000 l

showpage

restore
%%EOF
