%!PS-Adobe-3.0 EPSF-3.0
%%BoundingBox: 0 0 231.703 266.000
%%Title: L-system "Sierpinski triangle"
%%Creator: Python package l_system 01.00.00 --- Olivier Pirson --- http://www.opimedia.be/
%%EndComments
save

% Function
%%%%%%%%%%
/l {  % x1 y1 x0 y0
    moveto lineto stroke
} def

% Main
%%%%%%
-0.000 neg -0.000 neg translate
5.000 5.000 translate

0.000 4.000 0.000 0.000 l
3.464 2.000 0.000 4.000 l
3.464 6.000 3.464 2.000 l
0.000 4.000 3.464 6.000 l
0.000 8.000 0.000 4.000 l
3.464 6.000 0.000 8.000 l
6.928 4.000 3.464 6.000 l
6.928 8.000 6.928 4.000 l
10.392 6.000 6.928 8.000 l
10.392 10.000 10.392 6.000 l
6.928 8.000 10.392 10.000 l
6.928 12.000 6.928 8.000 l
3.464 10.000 6.928 12.000 l
-0.000 8.000 3.464 10.000 l
-0.000 12.000 -0.000 8.000 l
3.464 10.000 -0.000 12.000 l
3.464 14.000 3.464 10.000 l
-0.000 12.000 3.464 14.000 l
-0.000 16.000 -0.000 12.000 l
3.464 14.000 -0.000 16.000 l
6.928 12.000 3.464 14.000 l
10.392 10.000 6.928 12.000 l
13.856 8.000 10.392 10.000 l
13.856 12.000 13.856 8.000 l
17.321 10.000 13.856 12.000 l
17.321 14.000 17.321 10.000 l
13.856 12.000 17.321 14.000 l
13.856 16.000 13.856 12.000 l
17.321 14.000 13.856 16.000 l
20.785 12.000 17.321 14.000 l
20.785 16.000 20.785 12.000 l
24.249 14.000 20.785 16.000 l
24.249 18.000 24.249 14.000 l
20.785 16.000 24.249 18.000 l
20.785 20.000 20.785 16.000 l
17.321 18.000 20.785 20.000 l
13.856 16.000 17.321 18.000 l
13.856 20.000 13.856 16.000 l
17.321 18.000 13.856 20.000 l
17.321 22.000 17.321 18.000 l
13.856 20.000 17.321 22.000 l
13.856 24.000 13.856 20.000 l
10.392 22.000 13.856 24.000 l
6.928 20.000 10.392 22.000 l
3.464 18.000 6.928 20.000 l
-0.000 16.000 3.464 18.000 l
-0.000 20.000 -0.000 16.000 l
3.464 18.000 -0.000 20.000 l
3.464 22.000 3.464 18.000 l
-0.000 20.000 3.464 22.000 l
-0.000 24.000 -0.000 20.000 l
3.464 22.000 -0.000 24.000 l
6.928 20.000 3.464 22.000 l
6.928 24.000 6.928 20.000 l
10.392 22.000 6.928 24.000 l
10.392 26.000 10.392 22.000 l
6.928 24.000 10.392 26.000 l
6.928 28.000 6.928 24.000 l
3.464 26.000 6.928 28.000 l
-0.000 24.000 3.464 26.000 l
-0.000 28.000 -0.000 24.000 l
3.464 26.000 -0.000 28.000 l
3.464 30.000 3.464 26.000 l
-0.000 28.000 3.464 30.000 l
-0.000 32.000 -0.000 28.000 l
3.464 30.000 -0.000 32.000 l
6.928 28.000 3.464 30.000 l
10.392 26.000 6.928 28.000 l
13.856 24.000 10.392 26.000 l
17.321 22.000 13.856 24.000 l
20.785 20.000 17.321 22.000 l
24.249 18.000 20.785 20.000 l
27.713 16.000 24.249 18.000 l
27.713 20.000 27.713 16.000 l
31.177 18.000 27.713 20.000 l
31.177 22.000 31.177 18.000 l
27.713 20.000 31.177 22.000 l
27.713 24.000 27.713 20.000 l
31.177 22.000 27.713 24.000 l
34.641 20.000 31.177 22.000 l
34.641 24.000 34.641 20.000 l
38.105 22.000 34.641 24.000 l
38.105 26.000 38.105 22.000 l
34.641 24.000 38.105 26.000 l
34.641 28.000 34.641 24.000 l
31.177 26.000 34.641 28.000 l
27.713 24.000 31.177 26.000 l
27.713 28.000 27.713 24.000 l
31.177 26.000 27.713 28.000 l
31.177 30.000 31.177 26.000 l
27.713 28.000 31.177 30.000 l
27.713 32.000 27.713 28.000 l
31.177 30.000 27.713 32.000 l
34.641 28.000 31.177 30.000 l
38.105 26.000 34.641 28.000 l
41.569 24.000 38.105 26.000 l
41.569 28.000 41.569 24.000 l
45.033 26.000 41.569 28.000 l
45.033 30.000 45.033 26.000 l
41.569 28.000 45.033 30.000 l
41.569 32.000 41.569 28.000 l
45.033 30.000 41.569 32.000 l
48.497 28.000 45.033 30.000 l
48.497 32.000 48.497 28.000 l
51.962 30.000 48.497 32.000 l
51.962 34.000 51.962 30.000 l
48.497 32.000 51.962 34.000 l
48.497 36.000 48.497 32.000 l
45.033 34.000 48.497 36.000 l
41.569 32.000 45.033 34.000 l
41.569 36.000 41.569 32.000 l
45.033 34.000 41.569 36.000 l
45.033 38.000 45.033 34.000 l
41.569 36.000 45.033 38.000 l
41.569 40.000 41.569 36.000 l
38.105 38.000 41.569 40.000 l
34.641 36.000 38.105 38.000 l
31.177 34.000 34.641 36.000 l
27.713 32.000 31.177 34.000 l
27.713 36.000 27.713 32.000 l
31.177 34.000 27.713 36.000 l
31.177 38.000 31.177 34.000 l
27.713 36.000 31.177 38.000 l
27.713 40.000 27.713 36.000 l
31.177 38.000 27.713 40.000 l
34.641 36.000 31.177 38.000 l
34.641 40.000 34.641 36.000 l
38.105 38.000 34.641 40.000 l
38.105 42.000 38.105 38.000 l
34.641 40.000 38.105 42.000 l
34.641 44.000 34.641 40.000 l
31.177 42.000 34.641 44.000 l
27.713 40.000 31.177 42.000 l
27.713 44.000 27.713 40.000 l
31.177 42.000 27.713 44.000 l
31.177 46.000 31.177 42.000 l
27.713 44.000 31.177 46.000 l
27.713 48.000 27.713 44.000 l
24.249 46.000 27.713 48.000 l
20.785 44.000 24.249 46.000 l
17.321 42.000 20.785 44.000 l
13.856 40.000 17.321 42.000 l
10.392 38.000 13.856 40.000 l
6.928 36.000 10.392 38.000 l
3.464 34.000 6.928 36.000 l
-0.000 32.000 3.464 34.000 l
-0.000 36.000 -0.000 32.000 l
3.464 34.000 -0.000 36.000 l
3.464 38.000 3.464 34.000 l
-0.000 36.000 3.464 38.000 l
-0.000 40.000 -0.000 36.000 l
3.464 38.000 -0.000 40.000 l
6.928 36.000 3.464 38.000 l
6.928 40.000 6.928 36.000 l
10.392 38.000 6.928 40.000 l
10.392 42.000 10.392 38.000 l
6.928 40.000 10.392 42.000 l
6.928 44.000 6.928 40.000 l
3.464 42.000 6.928 44.000 l
-0.000 40.000 3.464 42.000 l
-0.000 44.000 -0.000 40.000 l
3.464 42.000 -0.000 44.000 l
3.464 46.000 3.464 42.000 l
-0.000 44.000 3.464 46.000 l
-0.000 48.000 -0.000 44.000 l
3.464 46.000 -0.000 48.000 l
6.928 44.000 3.464 46.000 l
10.392 42.000 6.928 44.000 l
13.856 40.000 10.392 42.000 l
13.856 44.000 13.856 40.000 l
17.321 42.000 13.856 44.000 l
17.321 46.000 17.321 42.000 l
13.856 44.000 17.321 46.000 l
13.856 48.000 13.856 44.000 l
17.321 46.000 13.856 48.000 l
20.785 44.000 17.321 46.000 l
20.785 48.000 20.785 44.000 l
24.249 46.000 20.785 48.000 l
24.249 50.000 24.249 46.000 l
20.785 48.000 24.249 50.000 l
20.785 52.000 20.785 48.000 l
17.321 50.000 20.785 52.000 l
13.856 48.000 17.321 50.000 l
13.856 52.000 13.856 48.000 l
17.321 50.000 13.856 52.000 l
17.321 54.000 17.321 50.000 l
13.856 52.000 17.321 54.000 l
13.856 56.000 13.856 52.000 l
10.392 54.000 13.856 56.000 l
6.928 52.000 10.392 54.000 l
3.464 50.000 6.928 52.000 l
-0.000 48.000 3.464 50.000 l
-0.000 52.000 -0.000 48.000 l
3.464 50.000 -0.000 52.000 l
3.464 54.000 3.464 50.000 l
-0.000 52.000 3.464 54.000 l
-0.000 56.000 -0.000 52.000 l
3.464 54.000 -0.000 56.000 l
6.928 52.000 3.464 54.000 l
6.928 56.000 6.928 52.000 l
10.392 54.000 6.928 56.000 l
10.392 58.000 10.392 54.000 l
6.928 56.000 10.392 58.000 l
6.928 60.000 6.928 56.000 l
3.464 58.000 6.928 60.000 l
-0.000 56.000 3.464 58.000 l
-0.000 60.000 -0.000 56.000 l
3.464 58.000 -0.000 60.000 l
3.464 62.000 3.464 58.000 l
-0.000 60.000 3.464 62.000 l
-0.000 64.000 -0.000 60.000 l
3.464 62.000 -0.000 64.000 l
6.928 60.000 3.464 62.000 l
10.392 58.000 6.928 60.000 l
13.856 56.000 10.392 58.000 l
17.321 54.000 13.856 56.000 l
20.785 52.000 17.321 54.000 l
24.249 50.000 20.785 52.000 l
27.713 48.000 24.249 50.000 l
31.177 46.000 27.713 48.000 l
34.641 44.000 31.177 46.000 l
38.105 42.000 34.641 44.000 l
41.569 40.000 38.105 42.000 l
45.033 38.000 41.569 40.000 l
48.497 36.000 45.033 38.000 l
51.962 34.000 48.497 36.000 l
55.426 32.000 51.962 34.000 l
55.426 36.000 55.426 32.000 l
58.890 34.000 55.426 36.000 l
58.890 38.000 58.890 34.000 l
55.426 36.000 58.890 38.000 l
55.426 40.000 55.426 36.000 l
58.890 38.000 55.426 40.000 l
62.354 36.000 58.890 38.000 l
62.354 40.000 62.354 36.000 l
65.818 38.000 62.354 40.000 l
65.818 42.000 65.818 38.000 l
62.354 40.000 65.818 42.000 l
62.354 44.000 62.354 40.000 l
58.890 42.000 62.354 44.000 l
55.426 40.000 58.890 42.000 l
55.426 44.000 55.426 40.000 l
58.890 42.000 55.426 44.000 l
58.890 46.000 58.890 42.000 l
55.426 44.000 58.890 46.000 l
55.426 48.000 55.426 44.000 l
58.890 46.000 55.426 48.000 l
62.354 44.000 58.890 46.000 l
65.818 42.000 62.354 44.000 l
69.282 40.000 65.818 42.000 l
69.282 44.000 69.282 40.000 l
72.746 42.000 69.282 44.000 l
72.746 46.000 72.746 42.000 l
69.282 44.000 72.746 46.000 l
69.282 48.000 69.282 44.000 l
72.746 46.000 69.282 48.000 l
76.210 44.000 72.746 46.000 l
76.210 48.000 76.210 44.000 l
79.674 46.000 76.210 48.000 l
79.674 50.000 79.674 46.000 l
76.210 48.000 79.674 50.000 l
76.210 52.000 76.210 48.000 l
72.746 50.000 76.210 52.000 l
69.282 48.000 72.746 50.000 l
69.282 52.000 69.282 48.000 l
72.746 50.000 69.282 52.000 l
72.746 54.000 72.746 50.000 l
69.282 52.000 72.746 54.000 l
69.282 56.000 69.282 52.000 l
65.818 54.000 69.282 56.000 l
62.354 52.000 65.818 54.000 l
58.890 50.000 62.354 52.000 l
55.426 48.000 58.890 50.000 l
55.426 52.000 55.426 48.000 l
58.890 50.000 55.426 52.000 l
58.890 54.000 58.890 50.000 l
55.426 52.000 58.890 54.000 l
55.426 56.000 55.426 52.000 l
58.890 54.000 55.426 56.000 l
62.354 52.000 58.890 54.000 l
62.354 56.000 62.354 52.000 l
65.818 54.000 62.354 56.000 l
65.818 58.000 65.818 54.000 l
62.354 56.000 65.818 58.000 l
62.354 60.000 62.354 56.000 l
58.890 58.000 62.354 60.000 l
55.426 56.000 58.890 58.000 l
55.426 60.000 55.426 56.000 l
58.890 58.000 55.426 60.000 l
58.890 62.000 58.890 58.000 l
55.426 60.000 58.890 62.000 l
55.426 64.000 55.426 60.000 l
58.890 62.000 55.426 64.000 l
62.354 60.000 58.890 62.000 l
65.818 58.000 62.354 60.000 l
69.282 56.000 65.818 58.000 l
72.746 54.000 69.282 56.000 l
76.210 52.000 72.746 54.000 l
79.674 50.000 76.210 52.000 l
83.138 48.000 79.674 50.000 l
83.138 52.000 83.138 48.000 l
86.603 50.000 83.138 52.000 l
86.603 54.000 86.603 50.000 l
83.138 52.000 86.603 54.000 l
83.138 56.000 83.138 52.000 l
86.603 54.000 83.138 56.000 l
90.067 52.000 86.603 54.000 l
90.067 56.000 90.067 52.000 l
93.531 54.000 90.067 56.000 l
93.531 58.000 93.531 54.000 l
90.067 56.000 93.531 58.000 l
90.067 60.000 90.067 56.000 l
86.603 58.000 90.067 60.000 l
83.138 56.000 86.603 58.000 l
83.138 60.000 83.138 56.000 l
86.603 58.000 83.138 60.000 l
86.603 62.000 86.603 58.000 l
83.138 60.000 86.603 62.000 l
83.138 64.000 83.138 60.000 l
86.603 62.000 83.138 64.000 l
90.067 60.000 86.603 62.000 l
93.531 58.000 90.067 60.000 l
96.995 56.000 93.531 58.000 l
96.995 60.000 96.995 56.000 l
100.459 58.000 96.995 60.000 l
100.459 62.000 100.459 58.000 l
96.995 60.000 100.459 62.000 l
96.995 64.000 96.995 60.000 l
100.459 62.000 96.995 64.000 l
103.923 60.000 100.459 62.000 l
103.923 64.000 103.923 60.000 l
107.387 62.000 103.923 64.000 l
107.387 66.000 107.387 62.000 l
103.923 64.000 107.387 66.000 l
103.923 68.000 103.923 64.000 l
100.459 66.000 103.923 68.000 l
96.995 64.000 100.459 66.000 l
96.995 68.000 96.995 64.000 l
100.459 66.000 96.995 68.000 l
100.459 70.000 100.459 66.000 l
96.995 68.000 100.459 70.000 l
96.995 72.000 96.995 68.000 l
93.531 70.000 96.995 72.000 l
90.067 68.000 93.531 70.000 l
86.603 66.000 90.067 68.000 l
83.138 64.000 86.603 66.000 l
83.138 68.000 83.138 64.000 l
86.603 66.000 83.138 68.000 l
86.603 70.000 86.603 66.000 l
83.138 68.000 86.603 70.000 l
83.138 72.000 83.138 68.000 l
86.603 70.000 83.138 72.000 l
90.067 68.000 86.603 70.000 l
90.067 72.000 90.067 68.000 l
93.531 70.000 90.067 72.000 l
93.531 74.000 93.531 70.000 l
90.067 72.000 93.531 74.000 l
90.067 76.000 90.067 72.000 l
86.603 74.000 90.067 76.000 l
83.138 72.000 86.603 74.000 l
83.138 76.000 83.138 72.000 l
86.603 74.000 83.138 76.000 l
86.603 78.000 86.603 74.000 l
83.138 76.000 86.603 78.000 l
83.138 80.000 83.138 76.000 l
79.674 78.000 83.138 80.000 l
76.210 76.000 79.674 78.000 l
72.746 74.000 76.210 76.000 l
69.282 72.000 72.746 74.000 l
65.818 70.000 69.282 72.000 l
62.354 68.000 65.818 70.000 l
58.890 66.000 62.354 68.000 l
55.426 64.000 58.890 66.000 l
55.426 68.000 55.426 64.000 l
58.890 66.000 55.426 68.000 l
58.890 70.000 58.890 66.000 l
55.426 68.000 58.890 70.000 l
55.426 72.000 55.426 68.000 l
58.890 70.000 55.426 72.000 l
62.354 68.000 58.890 70.000 l
62.354 72.000 62.354 68.000 l
65.818 70.000 62.354 72.000 l
65.818 74.000 65.818 70.000 l
62.354 72.000 65.818 74.000 l
62.354 76.000 62.354 72.000 l
58.890 74.000 62.354 76.000 l
55.426 72.000 58.890 74.000 l
55.426 76.000 55.426 72.000 l
58.890 74.000 55.426 76.000 l
58.890 78.000 58.890 74.000 l
55.426 76.000 58.890 78.000 l
55.426 80.000 55.426 76.000 l
58.890 78.000 55.426 80.000 l
62.354 76.000 58.890 78.000 l
65.818 74.000 62.354 76.000 l
69.282 72.000 65.818 74.000 l
69.282 76.000 69.282 72.000 l
72.746 74.000 69.282 76.000 l
72.746 78.000 72.746 74.000 l
69.282 76.000 72.746 78.000 l
69.282 80.000 69.282 76.000 l
72.746 78.000 69.282 80.000 l
76.210 76.000 72.746 78.000 l
76.210 80.000 76.210 76.000 l
79.674 78.000 76.210 80.000 l
79.674 82.000 79.674 78.000 l
76.210 80.000 79.674 82.000 l
76.210 84.000 76.210 80.000 l
72.746 82.000 76.210 84.000 l
69.282 80.000 72.746 82.000 l
69.282 84.000 69.282 80.000 l
72.746 82.000 69.282 84.000 l
72.746 86.000 72.746 82.000 l
69.282 84.000 72.746 86.000 l
69.282 88.000 69.282 84.000 l
65.818 86.000 69.282 88.000 l
62.354 84.000 65.818 86.000 l
58.890 82.000 62.354 84.000 l
55.426 80.000 58.890 82.000 l
55.426 84.000 55.426 80.000 l
58.890 82.000 55.426 84.000 l
58.890 86.000 58.890 82.000 l
55.426 84.000 58.890 86.000 l
55.426 88.000 55.426 84.000 l
58.890 86.000 55.426 88.000 l
62.354 84.000 58.890 86.000 l
62.354 88.000 62.354 84.000 l
65.818 86.000 62.354 88.000 l
65.818 90.000 65.818 86.000 l
62.354 88.000 65.818 90.000 l
62.354 92.000 62.354 88.000 l
58.890 90.000 62.354 92.000 l
55.426 88.000 58.890 90.000 l
55.426 92.000 55.426 88.000 l
58.890 90.000 55.426 92.000 l
58.890 94.000 58.890 90.000 l
55.426 92.000 58.890 94.000 l
55.426 96.000 55.426 92.000 l
51.962 94.000 55.426 96.000 l
48.497 92.000 51.962 94.000 l
45.033 90.000 48.497 92.000 l
41.569 88.000 45.033 90.000 l
38.105 86.000 41.569 88.000 l
34.641 84.000 38.105 86.000 l
31.177 82.000 34.641 84.000 l
27.713 80.000 31.177 82.000 l
24.249 78.000 27.713 80.000 l
20.785 76.000 24.249 78.000 l
17.321 74.000 20.785 76.000 l
13.856 72.000 17.321 74.000 l
10.392 70.000 13.856 72.000 l
6.928 68.000 10.392 70.000 l
3.464 66.000 6.928 68.000 l
-0.000 64.000 3.464 66.000 l
-0.000 68.000 -0.000 64.000 l
3.464 66.000 -0.000 68.000 l
3.464 70.000 3.464 66.000 l
-0.000 68.000 3.464 70.000 l
-0.000 72.000 -0.000 68.000 l
3.464 70.000 -0.000 72.000 l
6.928 68.000 3.464 70.000 l
6.928 72.000 6.928 68.000 l
10.392 70.000 6.928 72.000 l
10.392 74.000 10.392 70.000 l
6.928 72.000 10.392 74.000 l
6.928 76.000 6.928 72.000 l
3.464 74.000 6.928 76.000 l
-0.000 72.000 3.464 74.000 l
-0.000 76.000 -0.000 72.000 l
3.464 74.000 -0.000 76.000 l
3.464 78.000 3.464 74.000 l
-0.000 76.000 3.464 78.000 l
-0.000 80.000 -0.000 76.000 l
3.464 78.000 -0.000 80.000 l
6.928 76.000 3.464 78.000 l
10.392 74.000 6.928 76.000 l
13.856 72.000 10.392 74.000 l
13.856 76.000 13.856 72.000 l
17.321 74.000 13.856 76.000 l
17.321 78.000 17.321 74.000 l
13.856 76.000 17.321 78.000 l
13.856 80.000 13.856 76.000 l
17.321 78.000 13.856 80.000 l
20.785 76.000 17.321 78.000 l
20.785 80.000 20.785 76.000 l
24.249 78.000 20.785 80.000 l
24.249 82.000 24.249 78.000 l
20.785 80.000 24.249 82.000 l
20.785 84.000 20.785 80.000 l
17.321 82.000 20.785 84.000 l
13.856 80.000 17.321 82.000 l
13.856 84.000 13.856 80.000 l
17.321 82.000 13.856 84.000 l
17.321 86.000 17.321 82.000 l
13.856 84.000 17.321 86.000 l
13.856 88.000 13.856 84.000 l
10.392 86.000 13.856 88.000 l
6.928 84.000 10.392 86.000 l
3.464 82.000 6.928 84.000 l
-0.000 80.000 3.464 82.000 l
-0.000 84.000 -0.000 80.000 l
3.464 82.000 -0.000 84.000 l
3.464 86.000 3.464 82.000 l
-0.000 84.000 3.464 86.000 l
-0.000 88.000 -0.000 84.000 l
3.464 86.000 -0.000 88.000 l
6.928 84.000 3.464 86.000 l
6.928 88.000 6.928 84.000 l
10.392 86.000 6.928 88.000 l
10.392 90.000 10.392 86.000 l
6.928 88.000 10.392 90.000 l
6.928 92.000 6.928 88.000 l
3.464 90.000 6.928 92.000 l
-0.000 88.000 3.464 90.000 l
-0.000 92.000 -0.000 88.000 l
3.464 90.000 -0.000 92.000 l
3.464 94.000 3.464 90.000 l
-0.000 92.000 3.464 94.000 l
-0.000 96.000 -0.000 92.000 l
3.464 94.000 -0.000 96.000 l
6.928 92.000 3.464 94.000 l
10.392 90.000 6.928 92.000 l
13.856 88.000 10.392 90.000 l
17.321 86.000 13.856 88.000 l
20.785 84.000 17.321 86.000 l
24.249 82.000 20.785 84.000 l
27.713 80.000 24.249 82.000 l
27.713 84.000 27.713 80.000 l
31.177 82.000 27.713 84.000 l
31.177 86.000 31.177 82.000 l
27.713 84.000 31.177 86.000 l
27.713 88.000 27.713 84.000 l
31.177 86.000 27.713 88.000 l
34.641 84.000 31.177 86.000 l
34.641 88.000 34.641 84.000 l
38.105 86.000 34.641 88.000 l
38.105 90.000 38.105 86.000 l
34.641 88.000 38.105 90.000 l
34.641 92.000 34.641 88.000 l
31.177 90.000 34.641 92.000 l
27.713 88.000 31.177 90.000 l
27.713 92.000 27.713 88.000 l
31.177 90.000 27.713 92.000 l
31.177 94.000 31.177 90.000 l
27.713 92.000 31.177 94.000 l
27.713 96.000 27.713 92.000 l
31.177 94.000 27.713 96.000 l
34.641 92.000 31.177 94.000 l
38.105 90.000 34.641 92.000 l
41.569 88.000 38.105 90.000 l
41.569 92.000 41.569 88.000 l
45.033 90.000 41.569 92.000 l
45.033 94.000 45.033 90.000 l
41.569 92.000 45.033 94.000 l
41.569 96.000 41.569 92.000 l
45.033 94.000 41.569 96.000 l
48.497 92.000 45.033 94.000 l
48.497 96.000 48.497 92.000 l
51.962 94.000 48.497 96.000 l
51.962 98.000 51.962 94.000 l
48.497 96.000 51.962 98.000 l
48.497 100.000 48.497 96.000 l
45.033 98.000 48.497 100.000 l
41.569 96.000 45.033 98.000 l
41.569 100.000 41.569 96.000 l
45.033 98.000 41.569 100.000 l
45.033 102.000 45.033 98.000 l
41.569 100.000 45.033 102.000 l
41.569 104.000 41.569 100.000 l
38.105 102.000 41.569 104.000 l
34.641 100.000 38.105 102.000 l
31.177 98.000 34.641 100.000 l
27.713 96.000 31.177 98.000 l
27.713 100.000 27.713 96.000 l
31.177 98.000 27.713 100.000 l
31.177 102.000 31.177 98.000 l
27.713 100.000 31.177 102.000 l
27.713 104.000 27.713 100.000 l
31.177 102.000 27.713 104.000 l
34.641 100.000 31.177 102.000 l
34.641 104.000 34.641 100.000 l
38.105 102.000 34.641 104.000 l
38.105 106.000 38.105 102.000 l
34.641 104.000 38.105 106.000 l
34.641 108.000 34.641 104.000 l
31.177 106.000 34.641 108.000 l
27.713 104.000 31.177 106.000 l
27.713 108.000 27.713 104.000 l
31.177 106.000 27.713 108.000 l
31.177 110.000 31.177 106.000 l
27.713 108.000 31.177 110.000 l
27.713 112.000 27.713 108.000 l
24.249 110.000 27.713 112.000 l
20.785 108.000 24.249 110.000 l
17.321 106.000 20.785 108.000 l
13.856 104.000 17.321 106.000 l
10.392 102.000 13.856 104.000 l
6.928 100.000 10.392 102.000 l
3.464 98.000 6.928 100.000 l
-0.000 96.000 3.464 98.000 l
-0.000 100.000 -0.000 96.000 l
3.464 98.000 -0.000 100.000 l
3.464 102.000 3.464 98.000 l
-0.000 100.000 3.464 102.000 l
-0.000 104.000 -0.000 100.000 l
3.464 102.000 -0.000 104.000 l
6.928 100.000 3.464 102.000 l
6.928 104.000 6.928 100.000 l
10.392 102.000 6.928 104.000 l
10.392 106.000 10.392 102.000 l
6.928 104.000 10.392 106.000 l
6.928 108.000 6.928 104.000 l
3.464 106.000 6.928 108.000 l
-0.000 104.000 3.464 106.000 l
-0.000 108.000 -0.000 104.000 l
3.464 106.000 -0.000 108.000 l
3.464 110.000 3.464 106.000 l
-0.000 108.000 3.464 110.000 l
-0.000 112.000 -0.000 108.000 l
3.464 110.000 -0.000 112.000 l
6.928 108.000 3.464 110.000 l
10.392 106.000 6.928 108.000 l
13.856 104.000 10.392 106.000 l
13.856 108.000 13.856 104.000 l
17.321 106.000 13.856 108.000 l
17.321 110.000 17.321 106.000 l
13.856 108.000 17.321 110.000 l
13.856 112.000 13.856 108.000 l
17.321 110.000 13.856 112.000 l
20.785 108.000 17.321 110.000 l
20.785 112.000 20.785 108.000 l
24.249 110.000 20.785 112.000 l
24.249 114.000 24.249 110.000 l
20.785 112.000 24.249 114.000 l
20.785 116.000 20.785 112.000 l
17.321 114.000 20.785 116.000 l
13.856 112.000 17.321 114.000 l
13.856 116.000 13.856 112.000 l
17.321 114.000 13.856 116.000 l
17.321 118.000 17.321 114.000 l
13.856 116.000 17.321 118.000 l
13.856 120.000 13.856 116.000 l
10.392 118.000 13.856 120.000 l
6.928 116.000 10.392 118.000 l
3.464 114.000 6.928 116.000 l
-0.000 112.000 3.464 114.000 l
-0.000 116.000 -0.000 112.000 l
3.464 114.000 -0.000 116.000 l
3.464 118.000 3.464 114.000 l
-0.000 116.000 3.464 118.000 l
-0.000 120.000 -0.000 116.000 l
3.464 118.000 -0.000 120.000 l
6.928 116.000 3.464 118.000 l
6.928 120.000 6.928 116.000 l
10.392 118.000 6.928 120.000 l
10.392 122.000 10.392 118.000 l
6.928 120.000 10.392 122.000 l
6.928 124.000 6.928 120.000 l
3.464 122.000 6.928 124.000 l
-0.000 120.000 3.464 122.000 l
-0.000 124.000 -0.000 120.000 l
3.464 122.000 -0.000 124.000 l
3.464 126.000 3.464 122.000 l
-0.000 124.000 3.464 126.000 l
-0.000 128.000 -0.000 124.000 l
3.464 126.000 -0.000 128.000 l
6.928 124.000 3.464 126.000 l
10.392 122.000 6.928 124.000 l
13.856 120.000 10.392 122.000 l
17.321 118.000 13.856 120.000 l
20.785 116.000 17.321 118.000 l
24.249 114.000 20.785 116.000 l
27.713 112.000 24.249 114.000 l
31.177 110.000 27.713 112.000 l
34.641 108.000 31.177 110.000 l
38.105 106.000 34.641 108.000 l
41.569 104.000 38.105 106.000 l
45.033 102.000 41.569 104.000 l
48.497 100.000 45.033 102.000 l
51.962 98.000 48.497 100.000 l
55.426 96.000 51.962 98.000 l
58.890 94.000 55.426 96.000 l
62.354 92.000 58.890 94.000 l
65.818 90.000 62.354 92.000 l
69.282 88.000 65.818 90.000 l
72.746 86.000 69.282 88.000 l
76.210 84.000 72.746 86.000 l
79.674 82.000 76.210 84.000 l
83.138 80.000 79.674 82.000 l
86.603 78.000 83.138 80.000 l
90.067 76.000 86.603 78.000 l
93.531 74.000 90.067 76.000 l
96.995 72.000 93.531 74.000 l
100.459 70.000 96.995 72.000 l
103.923 68.000 100.459 70.000 l
107.387 66.000 103.923 68.000 l
110.851 64.000 107.387 66.000 l
110.851 68.000 110.851 64.000 l
114.315 66.000 110.851 68.000 l
114.315 70.000 114.315 66.000 l
110.851 68.000 114.315 70.000 l
110.851 72.000 110.851 68.000 l
114.315 70.000 110.851 72.000 l
117.779 68.000 114.315 70.000 l
117.779 72.000 117.779 68.000 l
121.244 70.000 117.779 72.000 l
121.244 74.000 121.244 70.000 l
117.779 72.000 121.244 74.000 l
117.779 76.000 117.779 72.000 l
114.315 74.000 117.779 76.000 l
110.851 72.000 114.315 74.000 l
110.851 76.000 110.851 72.000 l
114.315 74.000 110.851 76.000 l
114.315 78.000 114.315 74.000 l
110.851 76.000 114.315 78.000 l
110.851 80.000 110.851 76.000 l
114.315 78.000 110.851 80.000 l
117.779 76.000 114.315 78.000 l
121.244 74.000 117.779 76.000 l
124.708 72.000 121.244 74.000 l
124.708 76.000 124.708 72.000 l
128.172 74.000 124.708 76.000 l
128.172 78.000 128.172 74.000 l
124.708 76.000 128.172 78.000 l
124.708 80.000 124.708 76.000 l
128.172 78.000 124.708 80.000 l
131.636 76.000 128.172 78.000 l
131.636 80.000 131.636 76.000 l
135.100 78.000 131.636 80.000 l
135.100 82.000 135.100 78.000 l
131.636 80.000 135.100 82.000 l
131.636 84.000 131.636 80.000 l
128.172 82.000 131.636 84.000 l
124.708 80.000 128.172 82.000 l
124.708 84.000 124.708 80.000 l
128.172 82.000 124.708 84.000 l
128.172 86.000 128.172 82.000 l
124.708 84.000 128.172 86.000 l
124.708 88.000 124.708 84.000 l
121.244 86.000 124.708 88.000 l
117.779 84.000 121.244 86.000 l
114.315 82.000 117.779 84.000 l
110.851 80.000 114.315 82.000 l
110.851 84.000 110.851 80.000 l
114.315 82.000 110.851 84.000 l
114.315 86.000 114.315 82.000 l
110.851 84.000 114.315 86.000 l
110.851 88.000 110.851 84.000 l
114.315 86.000 110.851 88.000 l
117.779 84.000 114.315 86.000 l
117.779 88.000 117.779 84.000 l
121.244 86.000 117.779 88.000 l
121.244 90.000 121.244 86.000 l
117.779 88.000 121.244 90.000 l
117.779 92.000 117.779 88.000 l
114.315 90.000 117.779 92.000 l
110.851 88.000 114.315 90.000 l
110.851 92.000 110.851 88.000 l
114.315 90.000 110.851 92.000 l
114.315 94.000 114.315 90.000 l
110.851 92.000 114.315 94.000 l
110.851 96.000 110.851 92.000 l
114.315 94.000 110.851 96.000 l
117.779 92.000 114.315 94.000 l
121.244 90.000 117.779 92.000 l
124.708 88.000 121.244 90.000 l
128.172 86.000 124.708 88.000 l
131.636 84.000 128.172 86.000 l
135.100 82.000 131.636 84.000 l
138.564 80.000 135.100 82.000 l
138.564 84.000 138.564 80.000 l
142.028 82.000 138.564 84.000 l
142.028 86.000 142.028 82.000 l
138.564 84.000 142.028 86.000 l
138.564 88.000 138.564 84.000 l
142.028 86.000 138.564 88.000 l
145.492 84.000 142.028 86.000 l
145.492 88.000 145.492 84.000 l
148.956 86.000 145.492 88.000 l
148.956 90.000 148.956 86.000 l
145.492 88.000 148.956 90.000 l
145.492 92.000 145.492 88.000 l
142.028 90.000 145.492 92.000 l
138.564 88.000 142.028 90.000 l
138.564 92.000 138.564 88.000 l
142.028 90.000 138.564 92.000 l
142.028 94.000 142.028 90.000 l
138.564 92.000 142.028 94.000 l
138.564 96.000 138.564 92.000 l
142.028 94.000 138.564 96.000 l
145.492 92.000 142.028 94.000 l
148.956 90.000 145.492 92.000 l
152.420 88.000 148.956 90.000 l
152.420 92.000 152.420 88.000 l
155.885 90.000 152.420 92.000 l
155.885 94.000 155.885 90.000 l
152.420 92.000 155.885 94.000 l
152.420 96.000 152.420 92.000 l
155.885 94.000 152.420 96.000 l
159.349 92.000 155.885 94.000 l
159.349 96.000 159.349 92.000 l
162.813 94.000 159.349 96.000 l
162.813 98.000 162.813 94.000 l
159.349 96.000 162.813 98.000 l
159.349 100.000 159.349 96.000 l
155.885 98.000 159.349 100.000 l
152.420 96.000 155.885 98.000 l
152.420 100.000 152.420 96.000 l
155.885 98.000 152.420 100.000 l
155.885 102.000 155.885 98.000 l
152.420 100.000 155.885 102.000 l
152.420 104.000 152.420 100.000 l
148.956 102.000 152.420 104.000 l
145.492 100.000 148.956 102.000 l
142.028 98.000 145.492 100.000 l
138.564 96.000 142.028 98.000 l
138.564 100.000 138.564 96.000 l
142.028 98.000 138.564 100.000 l
142.028 102.000 142.028 98.000 l
138.564 100.000 142.028 102.000 l
138.564 104.000 138.564 100.000 l
142.028 102.000 138.564 104.000 l
145.492 100.000 142.028 102.000 l
145.492 104.000 145.492 100.000 l
148.956 102.000 145.492 104.000 l
148.956 106.000 148.956 102.000 l
145.492 104.000 148.956 106.000 l
145.492 108.000 145.492 104.000 l
142.028 106.000 145.492 108.000 l
138.564 104.000 142.028 106.000 l
138.564 108.000 138.564 104.000 l
142.028 106.000 138.564 108.000 l
142.028 110.000 142.028 106.000 l
138.564 108.000 142.028 110.000 l
138.564 112.000 138.564 108.000 l
135.100 110.000 138.564 112.000 l
131.636 108.000 135.100 110.000 l
128.172 106.000 131.636 108.000 l
124.708 104.000 128.172 106.000 l
121.244 102.000 124.708 104.000 l
117.779 100.000 121.244 102.000 l
114.315 98.000 117.779 100.000 l
110.851 96.000 114.315 98.000 l
110.851 100.000 110.851 96.000 l
114.315 98.000 110.851 100.000 l
114.315 102.000 114.315 98.000 l
110.851 100.000 114.315 102.000 l
110.851 104.000 110.851 100.000 l
114.315 102.000 110.851 104.000 l
117.779 100.000 114.315 102.000 l
117.779 104.000 117.779 100.000 l
121.244 102.000 117.779 104.000 l
121.244 106.000 121.244 102.000 l
117.779 104.000 121.244 106.000 l
117.779 108.000 117.779 104.000 l
114.315 106.000 117.779 108.000 l
110.851 104.000 114.315 106.000 l
110.851 108.000 110.851 104.000 l
114.315 106.000 110.851 108.000 l
114.315 110.000 114.315 106.000 l
110.851 108.000 114.315 110.000 l
110.851 112.000 110.851 108.000 l
114.315 110.000 110.851 112.000 l
117.779 108.000 114.315 110.000 l
121.244 106.000 117.779 108.000 l
124.708 104.000 121.244 106.000 l
124.708 108.000 124.708 104.000 l
128.172 106.000 124.708 108.000 l
128.172 110.000 128.172 106.000 l
124.708 108.000 128.172 110.000 l
124.708 112.000 124.708 108.000 l
128.172 110.000 124.708 112.000 l
131.636 108.000 128.172 110.000 l
131.636 112.000 131.636 108.000 l
135.100 110.000 131.636 112.000 l
135.100 114.000 135.100 110.000 l
131.636 112.000 135.100 114.000 l
131.636 116.000 131.636 112.000 l
128.172 114.000 131.636 116.000 l
124.708 112.000 128.172 114.000 l
124.708 116.000 124.708 112.000 l
128.172 114.000 124.708 116.000 l
128.172 118.000 128.172 114.000 l
124.708 116.000 128.172 118.000 l
124.708 120.000 124.708 116.000 l
121.244 118.000 124.708 120.000 l
117.779 116.000 121.244 118.000 l
114.315 114.000 117.779 116.000 l
110.851 112.000 114.315 114.000 l
110.851 116.000 110.851 112.000 l
114.315 114.000 110.851 116.000 l
114.315 118.000 114.315 114.000 l
110.851 116.000 114.315 118.000 l
110.851 120.000 110.851 116.000 l
114.315 118.000 110.851 120.000 l
117.779 116.000 114.315 118.000 l
117.779 120.000 117.779 116.000 l
121.244 118.000 117.779 120.000 l
121.244 122.000 121.244 118.000 l
117.779 120.000 121.244 122.000 l
117.779 124.000 117.779 120.000 l
114.315 122.000 117.779 124.000 l
110.851 120.000 114.315 122.000 l
110.851 124.000 110.851 120.000 l
114.315 122.000 110.851 124.000 l
114.315 126.000 114.315 122.000 l
110.851 124.000 114.315 126.000 l
110.851 128.000 110.851 124.000 l
114.315 126.000 110.851 128.000 l
117.779 124.000 114.315 126.000 l
121.244 122.000 117.779 124.000 l
124.708 120.000 121.244 122.000 l
128.172 118.000 124.708 120.000 l
131.636 116.000 128.172 118.000 l
135.100 114.000 131.636 116.000 l
138.564 112.000 135.100 114.000 l
142.028 110.000 138.564 112.000 l
145.492 108.000 142.028 110.000 l
148.956 106.000 145.492 108.000 l
152.420 104.000 148.956 106.000 l
155.885 102.000 152.420 104.000 l
159.349 100.000 155.885 102.000 l
162.813 98.000 159.349 100.000 l
166.277 96.000 162.813 98.000 l
166.277 100.000 166.277 96.000 l
169.741 98.000 166.277 100.000 l
169.741 102.000 169.741 98.000 l
166.277 100.000 169.741 102.000 l
166.277 104.000 166.277 100.000 l
169.741 102.000 166.277 104.000 l
173.205 100.000 169.741 102.000 l
173.205 104.000 173.205 100.000 l
176.669 102.000 173.205 104.000 l
176.669 106.000 176.669 102.000 l
173.205 104.000 176.669 106.000 l
173.205 108.000 173.205 104.000 l
169.741 106.000 173.205 108.000 l
166.277 104.000 169.741 106.000 l
166.277 108.000 166.277 104.000 l
169.741 106.000 166.277 108.000 l
169.741 110.000 169.741 106.000 l
166.277 108.000 169.741 110.000 l
166.277 112.000 166.277 108.000 l
169.741 110.000 166.277 112.000 l
173.205 108.000 169.741 110.000 l
176.669 106.000 173.205 108.000 l
180.133 104.000 176.669 106.000 l
180.133 108.000 180.133 104.000 l
183.597 106.000 180.133 108.000 l
183.597 110.000 183.597 106.000 l
180.133 108.000 183.597 110.000 l
180.133 112.000 180.133 108.000 l
183.597 110.000 180.133 112.000 l
187.061 108.000 183.597 110.000 l
187.061 112.000 187.061 108.000 l
190.526 110.000 187.061 112.000 l
190.526 114.000 190.526 110.000 l
187.061 112.000 190.526 114.000 l
187.061 116.000 187.061 112.000 l
183.597 114.000 187.061 116.000 l
180.133 112.000 183.597 114.000 l
180.133 116.000 180.133 112.000 l
183.597 114.000 180.133 116.000 l
183.597 118.000 183.597 114.000 l
180.133 116.000 183.597 118.000 l
180.133 120.000 180.133 116.000 l
176.669 118.000 180.133 120.000 l
173.205 116.000 176.669 118.000 l
169.741 114.000 173.205 116.000 l
166.277 112.000 169.741 114.000 l
166.277 116.000 166.277 112.000 l
169.741 114.000 166.277 116.000 l
169.741 118.000 169.741 114.000 l
166.277 116.000 169.741 118.000 l
166.277 120.000 166.277 116.000 l
169.741 118.000 166.277 120.000 l
173.205 116.000 169.741 118.000 l
173.205 120.000 173.205 116.000 l
176.669 118.000 173.205 120.000 l
176.669 122.000 176.669 118.000 l
173.205 120.000 176.669 122.000 l
173.205 124.000 173.205 120.000 l
169.741 122.000 173.205 124.000 l
166.277 120.000 169.741 122.000 l
166.277 124.000 166.277 120.000 l
169.741 122.000 166.277 124.000 l
169.741 126.000 169.741 122.000 l
166.277 124.000 169.741 126.000 l
166.277 128.000 166.277 124.000 l
169.741 126.000 166.277 128.000 l
173.205 124.000 169.741 126.000 l
176.669 122.000 173.205 124.000 l
180.133 120.000 176.669 122.000 l
183.597 118.000 180.133 120.000 l
187.061 116.000 183.597 118.000 l
190.526 114.000 187.061 116.000 l
193.990 112.000 190.526 114.000 l
193.990 116.000 193.990 112.000 l
197.454 114.000 193.990 116.000 l
197.454 118.000 197.454 114.000 l
193.990 116.000 197.454 118.000 l
193.990 120.000 193.990 116.000 l
197.454 118.000 193.990 120.000 l
200.918 116.000 197.454 118.000 l
200.918 120.000 200.918 116.000 l
204.382 118.000 200.918 120.000 l
204.382 122.000 204.382 118.000 l
200.918 120.000 204.382 122.000 l
200.918 124.000 200.918 120.000 l
197.454 122.000 200.918 124.000 l
193.990 120.000 197.454 122.000 l
193.990 124.000 193.990 120.000 l
197.454 122.000 193.990 124.000 l
197.454 126.000 197.454 122.000 l
193.990 124.000 197.454 126.000 l
193.990 128.000 193.990 124.000 l
197.454 126.000 193.990 128.000 l
200.918 124.000 197.454 126.000 l
204.382 122.000 200.918 124.000 l
207.846 120.000 204.382 122.000 l
207.846 124.000 207.846 120.000 l
211.310 122.000 207.846 124.000 l
211.310 126.000 211.310 122.000 l
207.846 124.000 211.310 126.000 l
207.846 128.000 207.846 124.000 l
211.310 126.000 207.846 128.000 l
214.774 124.000 211.310 126.000 l
214.774 128.000 214.774 124.000 l
218.238 126.000 214.774 128.000 l
218.238 130.000 218.238 126.000 l
214.774 128.000 218.238 130.000 l
214.774 132.000 214.774 128.000 l
211.310 130.000 214.774 132.000 l
207.846 128.000 211.310 130.000 l
207.846 132.000 207.846 128.000 l
211.310 130.000 207.846 132.000 l
211.310 134.000 211.310 130.000 l
207.846 132.000 211.310 134.000 l
207.846 136.000 207.846 132.000 l
204.382 134.000 207.846 136.000 l
200.918 132.000 204.382 134.000 l
197.454 130.000 200.918 132.000 l
193.990 128.000 197.454 130.000 l
193.990 132.000 193.990 128.000 l
197.454 130.000 193.990 132.000 l
197.454 134.000 197.454 130.000 l
193.990 132.000 197.454 134.000 l
193.990 136.000 193.990 132.000 l
197.454 134.000 193.990 136.000 l
200.918 132.000 197.454 134.000 l
200.918 136.000 200.918 132.000 l
204.382 134.000 200.918 136.000 l
204.382 138.000 204.382 134.000 l
200.918 136.000 204.382 138.000 l
200.918 140.000 200.918 136.000 l
197.454 138.000 200.918 140.000 l
193.990 136.000 197.454 138.000 l
193.990 140.000 193.990 136.000 l
197.454 138.000 193.990 140.000 l
197.454 142.000 197.454 138.000 l
193.990 140.000 197.454 142.000 l
193.990 144.000 193.990 140.000 l
190.526 142.000 193.990 144.000 l
187.061 140.000 190.526 142.000 l
183.597 138.000 187.061 140.000 l
180.133 136.000 183.597 138.000 l
176.669 134.000 180.133 136.000 l
173.205 132.000 176.669 134.000 l
169.741 130.000 173.205 132.000 l
166.277 128.000 169.741 130.000 l
166.277 132.000 166.277 128.000 l
169.741 130.000 166.277 132.000 l
169.741 134.000 169.741 130.000 l
166.277 132.000 169.741 134.000 l
166.277 136.000 166.277 132.000 l
169.741 134.000 166.277 136.000 l
173.205 132.000 169.741 134.000 l
173.205 136.000 173.205 132.000 l
176.669 134.000 173.205 136.000 l
176.669 138.000 176.669 134.000 l
173.205 136.000 176.669 138.000 l
173.205 140.000 173.205 136.000 l
169.741 138.000 173.205 140.000 l
166.277 136.000 169.741 138.000 l
166.277 140.000 166.277 136.000 l
169.741 138.000 166.277 140.000 l
169.741 142.000 169.741 138.000 l
166.277 140.000 169.741 142.000 l
166.277 144.000 166.277 140.000 l
169.741 142.000 166.277 144.000 l
173.205 140.000 169.741 142.000 l
176.669 138.000 173.205 140.000 l
180.133 136.000 176.669 138.000 l
180.133 140.000 180.133 136.000 l
183.597 138.000 180.133 140.000 l
183.597 142.000 183.597 138.000 l
180.133 140.000 183.597 142.000 l
180.133 144.000 180.133 140.000 l
183.597 142.000 180.133 144.000 l
187.061 140.000 183.597 142.000 l
187.061 144.000 187.061 140.000 l
190.526 142.000 187.061 144.000 l
190.526 146.000 190.526 142.000 l
187.061 144.000 190.526 146.000 l
187.061 148.000 187.061 144.000 l
183.597 146.000 187.061 148.000 l
180.133 144.000 183.597 146.000 l
180.133 148.000 180.133 144.000 l
183.597 146.000 180.133 148.000 l
183.597 150.000 183.597 146.000 l
180.133 148.000 183.597 150.000 l
180.133 152.000 180.133 148.000 l
176.669 150.000 180.133 152.000 l
173.205 148.000 176.669 150.000 l
169.741 146.000 173.205 148.000 l
166.277 144.000 169.741 146.000 l
166.277 148.000 166.277 144.000 l
169.741 146.000 166.277 148.000 l
169.741 150.000 169.741 146.000 l
166.277 148.000 169.741 150.000 l
166.277 152.000 166.277 148.000 l
169.741 150.000 166.277 152.000 l
173.205 148.000 169.741 150.000 l
173.205 152.000 173.205 148.000 l
176.669 150.000 173.205 152.000 l
176.669 154.000 176.669 150.000 l
173.205 152.000 176.669 154.000 l
173.205 156.000 173.205 152.000 l
169.741 154.000 173.205 156.000 l
166.277 152.000 169.741 154.000 l
166.277 156.000 166.277 152.000 l
169.741 154.000 166.277 156.000 l
169.741 158.000 169.741 154.000 l
166.277 156.000 169.741 158.000 l
166.277 160.000 166.277 156.000 l
162.813 158.000 166.277 160.000 l
159.349 156.000 162.813 158.000 l
155.885 154.000 159.349 156.000 l
152.420 152.000 155.885 154.000 l
148.956 150.000 152.420 152.000 l
145.492 148.000 148.956 150.000 l
142.028 146.000 145.492 148.000 l
138.564 144.000 142.028 146.000 l
135.100 142.000 138.564 144.000 l
131.636 140.000 135.100 142.000 l
128.172 138.000 131.636 140.000 l
124.708 136.000 128.172 138.000 l
121.244 134.000 124.708 136.000 l
117.779 132.000 121.244 134.000 l
114.315 130.000 117.779 132.000 l
110.851 128.000 114.315 130.000 l
110.851 132.000 110.851 128.000 l
114.315 130.000 110.851 132.000 l
114.315 134.000 114.315 130.000 l
110.851 132.000 114.315 134.000 l
110.851 136.000 110.851 132.000 l
114.315 134.000 110.851 136.000 l
117.779 132.000 114.315 134.000 l
117.779 136.000 117.779 132.000 l
121.244 134.000 117.779 136.000 l
121.244 138.000 121.244 134.000 l
117.779 136.000 121.244 138.000 l
117.779 140.000 117.779 136.000 l
114.315 138.000 117.779 140.000 l
110.851 136.000 114.315 138.000 l
110.851 140.000 110.851 136.000 l
114.315 138.000 110.851 140.000 l
114.315 142.000 114.315 138.000 l
110.851 140.000 114.315 142.000 l
110.851 144.000 110.851 140.000 l
114.315 142.000 110.851 144.000 l
117.779 140.000 114.315 142.000 l
121.244 138.000 117.779 140.000 l
124.708 136.000 121.244 138.000 l
124.708 140.000 124.708 136.000 l
128.172 138.000 124.708 140.000 l
128.172 142.000 128.172 138.000 l
124.708 140.000 128.172 142.000 l
124.708 144.000 124.708 140.000 l
128.172 142.000 124.708 144.000 l
131.636 140.000 128.172 142.000 l
131.636 144.000 131.636 140.000 l
135.100 142.000 131.636 144.000 l
135.100 146.000 135.100 142.000 l
131.636 144.000 135.100 146.000 l
131.636 148.000 131.636 144.000 l
128.172 146.000 131.636 148.000 l
124.708 144.000 128.172 146.000 l
124.708 148.000 124.708 144.000 l
128.172 146.000 124.708 148.000 l
128.172 150.000 128.172 146.000 l
124.708 148.000 128.172 150.000 l
124.708 152.000 124.708 148.000 l
121.244 150.000 124.708 152.000 l
117.779 148.000 121.244 150.000 l
114.315 146.000 117.779 148.000 l
110.851 144.000 114.315 146.000 l
110.851 148.000 110.851 144.000 l
114.315 146.000 110.851 148.000 l
114.315 150.000 114.315 146.000 l
110.851 148.000 114.315 150.000 l
110.851 152.000 110.851 148.000 l
114.315 150.000 110.851 152.000 l
117.779 148.000 114.315 150.000 l
117.779 152.000 117.779 148.000 l
121.244 150.000 117.779 152.000 l
121.244 154.000 121.244 150.000 l
117.779 152.000 121.244 154.000 l
117.779 156.000 117.779 152.000 l
114.315 154.000 117.779 156.000 l
110.851 152.000 114.315 154.000 l
110.851 156.000 110.851 152.000 l
114.315 154.000 110.851 156.000 l
114.315 158.000 114.315 154.000 l
110.851 156.000 114.315 158.000 l
110.851 160.000 110.851 156.000 l
114.315 158.000 110.851 160.000 l
117.779 156.000 114.315 158.000 l
121.244 154.000 117.779 156.000 l
124.708 152.000 121.244 154.000 l
128.172 150.000 124.708 152.000 l
131.636 148.000 128.172 150.000 l
135.100 146.000 131.636 148.000 l
138.564 144.000 135.100 146.000 l
138.564 148.000 138.564 144.000 l
142.028 146.000 138.564 148.000 l
142.028 150.000 142.028 146.000 l
138.564 148.000 142.028 150.000 l
138.564 152.000 138.564 148.000 l
142.028 150.000 138.564 152.000 l
145.492 148.000 142.028 150.000 l
145.492 152.000 145.492 148.000 l
148.956 150.000 145.492 152.000 l
148.956 154.000 148.956 150.000 l
145.492 152.000 148.956 154.000 l
145.492 156.000 145.492 152.000 l
142.028 154.000 145.492 156.000 l
138.564 152.000 142.028 154.000 l
138.564 156.000 138.564 152.000 l
142.028 154.000 138.564 156.000 l
142.028 158.000 142.028 154.000 l
138.564 156.000 142.028 158.000 l
138.564 160.000 138.564 156.000 l
142.028 158.000 138.564 160.000 l
145.492 156.000 142.028 158.000 l
148.956 154.000 145.492 156.000 l
152.420 152.000 148.956 154.000 l
152.420 156.000 152.420 152.000 l
155.885 154.000 152.420 156.000 l
155.885 158.000 155.885 154.000 l
152.420 156.000 155.885 158.000 l
152.420 160.000 152.420 156.000 l
155.885 158.000 152.420 160.000 l
159.349 156.000 155.885 158.000 l
159.349 160.000 159.349 156.000 l
162.813 158.000 159.349 160.000 l
162.813 162.000 162.813 158.000 l
159.349 160.000 162.813 162.000 l
159.349 164.000 159.349 160.000 l
155.885 162.000 159.349 164.000 l
152.420 160.000 155.885 162.000 l
152.420 164.000 152.420 160.000 l
155.885 162.000 152.420 164.000 l
155.885 166.000 155.885 162.000 l
152.420 164.000 155.885 166.000 l
152.420 168.000 152.420 164.000 l
148.956 166.000 152.420 168.000 l
145.492 164.000 148.956 166.000 l
142.028 162.000 145.492 164.000 l
138.564 160.000 142.028 162.000 l
138.564 164.000 138.564 160.000 l
142.028 162.000 138.564 164.000 l
142.028 166.000 142.028 162.000 l
138.564 164.000 142.028 166.000 l
138.564 168.000 138.564 164.000 l
142.028 166.000 138.564 168.000 l
145.492 164.000 142.028 166.000 l
145.492 168.000 145.492 164.000 l
148.956 166.000 145.492 168.000 l
148.956 170.000 148.956 166.000 l
145.492 168.000 148.956 170.000 l
145.492 172.000 145.492 168.000 l
142.028 170.000 145.492 172.000 l
138.564 168.000 142.028 170.000 l
138.564 172.000 138.564 168.000 l
142.028 170.000 138.564 172.000 l
142.028 174.000 142.028 170.000 l
138.564 172.000 142.028 174.000 l
138.564 176.000 138.564 172.000 l
135.100 174.000 138.564 176.000 l
131.636 172.000 135.100 174.000 l
128.172 170.000 131.636 172.000 l
124.708 168.000 128.172 170.000 l
121.244 166.000 124.708 168.000 l
117.779 164.000 121.244 166.000 l
114.315 162.000 117.779 164.000 l
110.851 160.000 114.315 162.000 l
110.851 164.000 110.851 160.000 l
114.315 162.000 110.851 164.000 l
114.315 166.000 114.315 162.000 l
110.851 164.000 114.315 166.000 l
110.851 168.000 110.851 164.000 l
114.315 166.000 110.851 168.000 l
117.779 164.000 114.315 166.000 l
117.779 168.000 117.779 164.000 l
121.244 166.000 117.779 168.000 l
121.244 170.000 121.244 166.000 l
117.779 168.000 121.244 170.000 l
117.779 172.000 117.779 168.000 l
114.315 170.000 117.779 172.000 l
110.851 168.000 114.315 170.000 l
110.851 172.000 110.851 168.000 l
114.315 170.000 110.851 172.000 l
114.315 174.000 114.315 170.000 l
110.851 172.000 114.315 174.000 l
110.851 176.000 110.851 172.000 l
114.315 174.000 110.851 176.000 l
117.779 172.000 114.315 174.000 l
121.244 170.000 117.779 172.000 l
124.708 168.000 121.244 170.000 l
124.708 172.000 124.708 168.000 l
128.172 170.000 124.708 172.000 l
128.172 174.000 128.172 170.000 l
124.708 172.000 128.172 174.000 l
124.708 176.000 124.708 172.000 l
128.172 174.000 124.708 176.000 l
131.636 172.000 128.172 174.000 l
131.636 176.000 131.636 172.000 l
135.100 174.000 131.636 176.000 l
135.100 178.000 135.100 174.000 l
131.636 176.000 135.100 178.000 l
131.636 180.000 131.636 176.000 l
128.172 178.000 131.636 180.000 l
124.708 176.000 128.172 178.000 l
124.708 180.000 124.708 176.000 l
128.172 178.000 124.708 180.000 l
128.172 182.000 128.172 178.000 l
124.708 180.000 128.172 182.000 l
124.708 184.000 124.708 180.000 l
121.244 182.000 124.708 184.000 l
117.779 180.000 121.244 182.000 l
114.315 178.000 117.779 180.000 l
110.851 176.000 114.315 178.000 l
110.851 180.000 110.851 176.000 l
114.315 178.000 110.851 180.000 l
114.315 182.000 114.315 178.000 l
110.851 180.000 114.315 182.000 l
110.851 184.000 110.851 180.000 l
114.315 182.000 110.851 184.000 l
117.779 180.000 114.315 182.000 l
117.779 184.000 117.779 180.000 l
121.244 182.000 117.779 184.000 l
121.244 186.000 121.244 182.000 l
117.779 184.000 121.244 186.000 l
117.779 188.000 117.779 184.000 l
114.315 186.000 117.779 188.000 l
110.851 184.000 114.315 186.000 l
110.851 188.000 110.851 184.000 l
114.315 186.000 110.851 188.000 l
114.315 190.000 114.315 186.000 l
110.851 188.000 114.315 190.000 l
110.851 192.000 110.851 188.000 l
107.387 190.000 110.851 192.000 l
103.923 188.000 107.387 190.000 l
100.459 186.000 103.923 188.000 l
96.995 184.000 100.459 186.000 l
93.531 182.000 96.995 184.000 l
90.067 180.000 93.531 182.000 l
86.603 178.000 90.067 180.000 l
83.138 176.000 86.603 178.000 l
79.674 174.000 83.138 176.000 l
76.210 172.000 79.674 174.000 l
72.746 170.000 76.210 172.000 l
69.282 168.000 72.746 170.000 l
65.818 166.000 69.282 168.000 l
62.354 164.000 65.818 166.000 l
58.890 162.000 62.354 164.000 l
55.426 160.000 58.890 162.000 l
51.962 158.000 55.426 160.000 l
48.497 156.000 51.962 158.000 l
45.033 154.000 48.497 156.000 l
41.569 152.000 45.033 154.000 l
38.105 150.000 41.569 152.000 l
34.641 148.000 38.105 150.000 l
31.177 146.000 34.641 148.000 l
27.713 144.000 31.177 146.000 l
24.249 142.000 27.713 144.000 l
20.785 140.000 24.249 142.000 l
17.321 138.000 20.785 140.000 l
13.856 136.000 17.321 138.000 l
10.392 134.000 13.856 136.000 l
6.928 132.000 10.392 134.000 l
3.464 130.000 6.928 132.000 l
-0.000 128.000 3.464 130.000 l
-0.000 132.000 -0.000 128.000 l
3.464 130.000 -0.000 132.000 l
3.464 134.000 3.464 130.000 l
-0.000 132.000 3.464 134.000 l
-0.000 136.000 -0.000 132.000 l
3.464 134.000 -0.000 136.000 l
6.928 132.000 3.464 134.000 l
6.928 136.000 6.928 132.000 l
10.392 134.000 6.928 136.000 l
10.392 138.000 10.392 134.000 l
6.928 136.000 10.392 138.000 l
6.928 140.000 6.928 136.000 l
3.464 138.000 6.928 140.000 l
-0.000 136.000 3.464 138.000 l
-0.000 140.000 -0.000 136.000 l
3.464 138.000 -0.000 140.000 l
3.464 142.000 3.464 138.000 l
-0.000 140.000 3.464 142.000 l
-0.000 144.000 -0.000 140.000 l
3.464 142.000 -0.000 144.000 l
6.928 140.000 3.464 142.000 l
10.392 138.000 6.928 140.000 l
13.856 136.000 10.392 138.000 l
13.856 140.000 13.856 136.000 l
17.321 138.000 13.856 140.000 l
17.321 142.000 17.321 138.000 l
13.856 140.000 17.321 142.000 l
13.856 144.000 13.856 140.000 l
17.321 142.000 13.856 144.000 l
20.785 140.000 17.321 142.000 l
20.785 144.000 20.785 140.000 l
24.249 142.000 20.785 144.000 l
24.249 146.000 24.249 142.000 l
20.785 144.000 24.249 146.000 l
20.785 148.000 20.785 144.000 l
17.321 146.000 20.785 148.000 l
13.856 144.000 17.321 146.000 l
13.856 148.000 13.856 144.000 l
17.321 146.000 13.856 148.000 l
17.321 150.000 17.321 146.000 l
13.856 148.000 17.321 150.000 l
13.856 152.000 13.856 148.000 l
10.392 150.000 13.856 152.000 l
6.928 148.000 10.392 150.000 l
3.464 146.000 6.928 148.000 l
-0.000 144.000 3.464 146.000 l
-0.000 148.000 -0.000 144.000 l
3.464 146.000 -0.000 148.000 l
3.464 150.000 3.464 146.000 l
-0.000 148.000 3.464 150.000 l
-0.000 152.000 -0.000 148.000 l
3.464 150.000 -0.000 152.000 l
6.928 148.000 3.464 150.000 l
6.928 152.000 6.928 148.000 l
10.392 150.000 6.928 152.000 l
10.392 154.000 10.392 150.000 l
6.928 152.000 10.392 154.000 l
6.928 156.000 6.928 152.000 l
3.464 154.000 6.928 156.000 l
-0.000 152.000 3.464 154.000 l
-0.000 156.000 -0.000 152.000 l
3.464 154.000 -0.000 156.000 l
3.464 158.000 3.464 154.000 l
-0.000 156.000 3.464 158.000 l
-0.000 160.000 -0.000 156.000 l
3.464 158.000 -0.000 160.000 l
6.928 156.000 3.464 158.000 l
10.392 154.000 6.928 156.000 l
13.856 152.000 10.392 154.000 l
17.321 150.000 13.856 152.000 l
20.785 148.000 17.321 150.000 l
24.249 146.000 20.785 148.000 l
27.713 144.000 24.249 146.000 l
27.713 148.000 27.713 144.000 l
31.177 146.000 27.713 148.000 l
31.177 150.000 31.177 146.000 l
27.713 148.000 31.177 150.000 l
27.713 152.000 27.713 148.000 l
31.177 150.000 27.713 152.000 l
34.641 148.000 31.177 150.000 l
34.641 152.000 34.641 148.000 l
38.105 150.000 34.641 152.000 l
38.105 154.000 38.105 150.000 l
34.641 152.000 38.105 154.000 l
34.641 156.000 34.641 152.000 l
31.177 154.000 34.641 156.000 l
27.713 152.000 31.177 154.000 l
27.713 156.000 27.713 152.000 l
31.177 154.000 27.713 156.000 l
31.177 158.000 31.177 154.000 l
27.713 156.000 31.177 158.000 l
27.713 160.000 27.713 156.000 l
31.177 158.000 27.713 160.000 l
34.641 156.000 31.177 158.000 l
38.105 154.000 34.641 156.000 l
41.569 152.000 38.105 154.000 l
41.569 156.000 41.569 152.000 l
45.033 154.000 41.569 156.000 l
45.033 158.000 45.033 154.000 l
41.569 156.000 45.033 158.000 l
41.569 160.000 41.569 156.000 l
45.033 158.000 41.569 160.000 l
48.497 156.000 45.033 158.000 l
48.497 160.000 48.497 156.000 l
51.962 158.000 48.497 160.000 l
51.962 162.000 51.962 158.000 l
48.497 160.000 51.962 162.000 l
48.497 164.000 48.497 160.000 l
45.033 162.000 48.497 164.000 l
41.569 160.000 45.033 162.000 l
41.569 164.000 41.569 160.000 l
45.033 162.000 41.569 164.000 l
45.033 166.000 45.033 162.000 l
41.569 164.000 45.033 166.000 l
41.569 168.000 41.569 164.000 l
38.105 166.000 41.569 168.000 l
34.641 164.000 38.105 166.000 l
31.177 162.000 34.641 164.000 l
27.713 160.000 31.177 162.000 l
27.713 164.000 27.713 160.000 l
31.177 162.000 27.713 164.000 l
31.177 166.000 31.177 162.000 l
27.713 164.000 31.177 166.000 l
27.713 168.000 27.713 164.000 l
31.177 166.000 27.713 168.000 l
34.641 164.000 31.177 166.000 l
34.641 168.000 34.641 164.000 l
38.105 166.000 34.641 168.000 l
38.105 170.000 38.105 166.000 l
34.641 168.000 38.105 170.000 l
34.641 172.000 34.641 168.000 l
31.177 170.000 34.641 172.000 l
27.713 168.000 31.177 170.000 l
27.713 172.000 27.713 168.000 l
31.177 170.000 27.713 172.000 l
31.177 174.000 31.177 170.000 l
27.713 172.000 31.177 174.000 l
27.713 176.000 27.713 172.000 l
24.249 174.000 27.713 176.000 l
20.785 172.000 24.249 174.000 l
17.321 170.000 20.785 172.000 l
13.856 168.000 17.321 170.000 l
10.392 166.000 13.856 168.000 l
6.928 164.000 10.392 166.000 l
3.464 162.000 6.928 164.000 l
-0.000 160.000 3.464 162.000 l
-0.000 164.000 -0.000 160.000 l
3.464 162.000 -0.000 164.000 l
3.464 166.000 3.464 162.000 l
-0.000 164.000 3.464 166.000 l
-0.000 168.000 -0.000 164.000 l
3.464 166.000 -0.000 168.000 l
6.928 164.000 3.464 166.000 l
6.928 168.000 6.928 164.000 l
10.392 166.000 6.928 168.000 l
10.392 170.000 10.392 166.000 l
6.928 168.000 10.392 170.000 l
6.928 172.000 6.928 168.000 l
3.464 170.000 6.928 172.000 l
-0.000 168.000 3.464 170.000 l
-0.000 172.000 -0.000 168.000 l
3.464 170.000 -0.000 172.000 l
3.464 174.000 3.464 170.000 l
-0.000 172.000 3.464 174.000 l
-0.000 176.000 -0.000 172.000 l
3.464 174.000 -0.000 176.000 l
6.928 172.000 3.464 174.000 l
10.392 170.000 6.928 172.000 l
13.856 168.000 10.392 170.000 l
13.856 172.000 13.856 168.000 l
17.321 170.000 13.856 172.000 l
17.321 174.000 17.321 170.000 l
13.856 172.000 17.321 174.000 l
13.856 176.000 13.856 172.000 l
17.321 174.000 13.856 176.000 l
20.785 172.000 17.321 174.000 l
20.785 176.000 20.785 172.000 l
24.249 174.000 20.785 176.000 l
24.249 178.000 24.249 174.000 l
20.785 176.000 24.249 178.000 l
20.785 180.000 20.785 176.000 l
17.321 178.000 20.785 180.000 l
13.856 176.000 17.321 178.000 l
13.856 180.000 13.856 176.000 l
17.321 178.000 13.856 180.000 l
17.321 182.000 17.321 178.000 l
13.856 180.000 17.321 182.000 l
13.856 184.000 13.856 180.000 l
10.392 182.000 13.856 184.000 l
6.928 180.000 10.392 182.000 l
3.464 178.000 6.928 180.000 l
-0.000 176.000 3.464 178.000 l
-0.000 180.000 -0.000 176.000 l
3.464 178.000 -0.000 180.000 l
3.464 182.000 3.464 178.000 l
-0.000 180.000 3.464 182.000 l
-0.000 184.000 -0.000 180.000 l
3.464 182.000 -0.000 184.000 l
6.928 180.000 3.464 182.000 l
6.928 184.000 6.928 180.000 l
10.392 182.000 6.928 184.000 l
10.392 186.000 10.392 182.000 l
6.928 184.000 10.392 186.000 l
6.928 188.000 6.928 184.000 l
3.464 186.000 6.928 188.000 l
-0.000 184.000 3.464 186.000 l
-0.000 188.000 -0.000 184.000 l
3.464 186.000 -0.000 188.000 l
3.464 190.000 3.464 186.000 l
-0.000 188.000 3.464 190.000 l
-0.000 192.000 -0.000 188.000 l
3.464 190.000 -0.000 192.000 l
6.928 188.000 3.464 190.000 l
10.392 186.000 6.928 188.000 l
13.856 184.000 10.392 186.000 l
17.321 182.000 13.856 184.000 l
20.785 180.000 17.321 182.000 l
24.249 178.000 20.785 180.000 l
27.713 176.000 24.249 178.000 l
31.177 174.000 27.713 176.000 l
34.641 172.000 31.177 174.000 l
38.105 170.000 34.641 172.000 l
41.569 168.000 38.105 170.000 l
45.033 166.000 41.569 168.000 l
48.497 164.000 45.033 166.000 l
51.962 162.000 48.497 164.000 l
55.426 160.000 51.962 162.000 l
55.426 164.000 55.426 160.000 l
58.890 162.000 55.426 164.000 l
58.890 166.000 58.890 162.000 l
55.426 164.000 58.890 166.000 l
55.426 168.000 55.426 164.000 l
58.890 166.000 55.426 168.000 l
62.354 164.000 58.890 166.000 l
62.354 168.000 62.354 164.000 l
65.818 166.000 62.354 168.000 l
65.818 170.000 65.818 166.000 l
62.354 168.000 65.818 170.000 l
62.354 172.000 62.354 168.000 l
58.890 170.000 62.354 172.000 l
55.426 168.000 58.890 170.000 l
55.426 172.000 55.426 168.000 l
58.890 170.000 55.426 172.000 l
58.890 174.000 58.890 170.000 l
55.426 172.000 58.890 174.000 l
55.426 176.000 55.426 172.000 l
58.890 174.000 55.426 176.000 l
62.354 172.000 58.890 174.000 l
65.818 170.000 62.354 172.000 l
69.282 168.000 65.818 170.000 l
69.282 172.000 69.282 168.000 l
72.746 170.000 69.282 172.000 l
72.746 174.000 72.746 170.000 l
69.282 172.000 72.746 174.000 l
69.282 176.000 69.282 172.000 l
72.746 174.000 69.282 176.000 l
76.210 172.000 72.746 174.000 l
76.210 176.000 76.210 172.000 l
79.674 174.000 76.210 176.000 l
79.674 178.000 79.674 174.000 l
76.210 176.000 79.674 178.000 l
76.210 180.000 76.210 176.000 l
72.746 178.000 76.210 180.000 l
69.282 176.000 72.746 178.000 l
69.282 180.000 69.282 176.000 l
72.746 178.000 69.282 180.000 l
72.746 182.000 72.746 178.000 l
69.282 180.000 72.746 182.000 l
69.282 184.000 69.282 180.000 l
65.818 182.000 69.282 184.000 l
62.354 180.000 65.818 182.000 l
58.890 178.000 62.354 180.000 l
55.426 176.000 58.890 178.000 l
55.426 180.000 55.426 176.000 l
58.890 178.000 55.426 180.000 l
58.890 182.000 58.890 178.000 l
55.426 180.000 58.890 182.000 l
55.426 184.000 55.426 180.000 l
58.890 182.000 55.426 184.000 l
62.354 180.000 58.890 182.000 l
62.354 184.000 62.354 180.000 l
65.818 182.000 62.354 184.000 l
65.818 186.000 65.818 182.000 l
62.354 184.000 65.818 186.000 l
62.354 188.000 62.354 184.000 l
58.890 186.000 62.354 188.000 l
55.426 184.000 58.890 186.000 l
55.426 188.000 55.426 184.000 l
58.890 186.000 55.426 188.000 l
58.890 190.000 58.890 186.000 l
55.426 188.000 58.890 190.000 l
55.426 192.000 55.426 188.000 l
58.890 190.000 55.426 192.000 l
62.354 188.000 58.890 190.000 l
65.818 186.000 62.354 188.000 l
69.282 184.000 65.818 186.000 l
72.746 182.000 69.282 184.000 l
76.210 180.000 72.746 182.000 l
79.674 178.000 76.210 180.000 l
83.138 176.000 79.674 178.000 l
83.138 180.000 83.138 176.000 l
86.603 178.000 83.138 180.000 l
86.603 182.000 86.603 178.000 l
83.138 180.000 86.603 182.000 l
83.138 184.000 83.138 180.000 l
86.603 182.000 83.138 184.000 l
90.067 180.000 86.603 182.000 l
90.067 184.000 90.067 180.000 l
93.531 182.000 90.067 184.000 l
93.531 186.000 93.531 182.000 l
90.067 184.000 93.531 186.000 l
90.067 188.000 90.067 184.000 l
86.603 186.000 90.067 188.000 l
83.138 184.000 86.603 186.000 l
83.138 188.000 83.138 184.000 l
86.603 186.000 83.138 188.000 l
86.603 190.000 86.603 186.000 l
83.138 188.000 86.603 190.000 l
83.138 192.000 83.138 188.000 l
86.603 190.000 83.138 192.000 l
90.067 188.000 86.603 190.000 l
93.531 186.000 90.067 188.000 l
96.995 184.000 93.531 186.000 l
96.995 188.000 96.995 184.000 l
100.459 186.000 96.995 188.000 l
100.459 190.000 100.459 186.000 l
96.995 188.000 100.459 190.000 l
96.995 192.000 96.995 188.000 l
100.459 190.000 96.995 192.000 l
103.923 188.000 100.459 190.000 l
103.923 192.000 103.923 188.000 l
107.387 190.000 103.923 192.000 l
107.387 194.000 107.387 190.000 l
103.923 192.000 107.387 194.000 l
103.923 196.000 103.923 192.000 l
100.459 194.000 103.923 196.000 l
96.995 192.000 100.459 194.000 l
96.995 196.000 96.995 192.000 l
100.459 194.000 96.995 196.000 l
100.459 198.000 100.459 194.000 l
96.995 196.000 100.459 198.000 l
96.995 200.000 96.995 196.000 l
93.531 198.000 96.995 200.000 l
90.067 196.000 93.531 198.000 l
86.603 194.000 90.067 196.000 l
83.138 192.000 86.603 194.000 l
83.138 196.000 83.138 192.000 l
86.603 194.000 83.138 196.000 l
86.603 198.000 86.603 194.000 l
83.138 196.000 86.603 198.000 l
83.138 200.000 83.138 196.000 l
86.603 198.000 83.138 200.000 l
90.067 196.000 86.603 198.000 l
90.067 200.000 90.067 196.000 l
93.531 198.000 90.067 200.000 l
93.531 202.000 93.531 198.000 l
90.067 200.000 93.531 202.000 l
90.067 204.000 90.067 200.000 l
86.603 202.000 90.067 204.000 l
83.138 200.000 86.603 202.000 l
83.138 204.000 83.138 200.000 l
86.603 202.000 83.138 204.000 l
86.603 206.000 86.603 202.000 l
83.138 204.000 86.603 206.000 l
83.138 208.000 83.138 204.000 l
79.674 206.000 83.138 208.000 l
76.210 204.000 79.674 206.000 l
72.746 202.000 76.210 204.000 l
69.282 200.000 72.746 202.000 l
65.818 198.000 69.282 200.000 l
62.354 196.000 65.818 198.000 l
58.890 194.000 62.354 196.000 l
55.426 192.000 58.890 194.000 l
55.426 196.000 55.426 192.000 l
58.890 194.000 55.426 196.000 l
58.890 198.000 58.890 194.000 l
55.426 196.000 58.890 198.000 l
55.426 200.000 55.426 196.000 l
58.890 198.000 55.426 200.000 l
62.354 196.000 58.890 198.000 l
62.354 200.000 62.354 196.000 l
65.818 198.000 62.354 200.000 l
65.818 202.000 65.818 198.000 l
62.354 200.000 65.818 202.000 l
62.354 204.000 62.354 200.000 l
58.890 202.000 62.354 204.000 l
55.426 200.000 58.890 202.000 l
55.426 204.000 55.426 200.000 l
58.890 202.000 55.426 204.000 l
58.890 206.000 58.890 202.000 l
55.426 204.000 58.890 206.000 l
55.426 208.000 55.426 204.000 l
58.890 206.000 55.426 208.000 l
62.354 204.000 58.890 206.000 l
65.818 202.000 62.354 204.000 l
69.282 200.000 65.818 202.000 l
69.282 204.000 69.282 200.000 l
72.746 202.000 69.282 204.000 l
72.746 206.000 72.746 202.000 l
69.282 204.000 72.746 206.000 l
69.282 208.000 69.282 204.000 l
72.746 206.000 69.282 208.000 l
76.210 204.000 72.746 206.000 l
76.210 208.000 76.210 204.000 l
79.674 206.000 76.210 208.000 l
79.674 210.000 79.674 206.000 l
76.210 208.000 79.674 210.000 l
76.210 212.000 76.210 208.000 l
72.746 210.000 76.210 212.000 l
69.282 208.000 72.746 210.000 l
69.282 212.000 69.282 208.000 l
72.746 210.000 69.282 212.000 l
72.746 214.000 72.746 210.000 l
69.282 212.000 72.746 214.000 l
69.282 216.000 69.282 212.000 l
65.818 214.000 69.282 216.000 l
62.354 212.000 65.818 214.000 l
58.890 210.000 62.354 212.000 l
55.426 208.000 58.890 210.000 l
55.426 212.000 55.426 208.000 l
58.890 210.000 55.426 212.000 l
58.890 214.000 58.890 210.000 l
55.426 212.000 58.890 214.000 l
55.426 216.000 55.426 212.000 l
58.890 214.000 55.426 216.000 l
62.354 212.000 58.890 214.000 l
62.354 216.000 62.354 212.000 l
65.818 214.000 62.354 216.000 l
65.818 218.000 65.818 214.000 l
62.354 216.000 65.818 218.000 l
62.354 220.000 62.354 216.000 l
58.890 218.000 62.354 220.000 l
55.426 216.000 58.890 218.000 l
55.426 220.000 55.426 216.000 l
58.890 218.000 55.426 220.000 l
58.890 222.000 58.890 218.000 l
55.426 220.000 58.890 222.000 l
55.426 224.000 55.426 220.000 l
51.962 222.000 55.426 224.000 l
48.497 220.000 51.962 222.000 l
45.033 218.000 48.497 220.000 l
41.569 216.000 45.033 218.000 l
38.105 214.000 41.569 216.000 l
34.641 212.000 38.105 214.000 l
31.177 210.000 34.641 212.000 l
27.713 208.000 31.177 210.000 l
24.249 206.000 27.713 208.000 l
20.785 204.000 24.249 206.000 l
17.321 202.000 20.785 204.000 l
13.856 200.000 17.321 202.000 l
10.392 198.000 13.856 200.000 l
6.928 196.000 10.392 198.000 l
3.464 194.000 6.928 196.000 l
-0.000 192.000 3.464 194.000 l
-0.000 196.000 -0.000 192.000 l
3.464 194.000 -0.000 196.000 l
3.464 198.000 3.464 194.000 l
-0.000 196.000 3.464 198.000 l
-0.000 200.000 -0.000 196.000 l
3.464 198.000 -0.000 200.000 l
6.928 196.000 3.464 198.000 l
6.928 200.000 6.928 196.000 l
10.392 198.000 6.928 200.000 l
10.392 202.000 10.392 198.000 l
6.928 200.000 10.392 202.000 l
6.928 204.000 6.928 200.000 l
3.464 202.000 6.928 204.000 l
-0.000 200.000 3.464 202.000 l
-0.000 204.000 -0.000 200.000 l
3.464 202.000 -0.000 204.000 l
3.464 206.000 3.464 202.000 l
-0.000 204.000 3.464 206.000 l
-0.000 208.000 -0.000 204.000 l
3.464 206.000 -0.000 208.000 l
6.928 204.000 3.464 206.000 l
10.392 202.000 6.928 204.000 l
13.856 200.000 10.392 202.000 l
13.856 204.000 13.856 200.000 l
17.321 202.000 13.856 204.000 l
17.321 206.000 17.321 202.000 l
13.856 204.000 17.321 206.000 l
13.856 208.000 13.856 204.000 l
17.321 206.000 13.856 208.000 l
20.785 204.000 17.321 206.000 l
20.785 208.000 20.785 204.000 l
24.249 206.000 20.785 208.000 l
24.249 210.000 24.249 206.000 l
20.785 208.000 24.249 210.000 l
20.785 212.000 20.785 208.000 l
17.321 210.000 20.785 212.000 l
13.856 208.000 17.321 210.000 l
13.856 212.000 13.856 208.000 l
17.321 210.000 13.856 212.000 l
17.321 214.000 17.321 210.000 l
13.856 212.000 17.321 214.000 l
13.856 216.000 13.856 212.000 l
10.392 214.000 13.856 216.000 l
6.928 212.000 10.392 214.000 l
3.464 210.000 6.928 212.000 l
-0.000 208.000 3.464 210.000 l
-0.000 212.000 -0.000 208.000 l
3.464 210.000 -0.000 212.000 l
3.464 214.000 3.464 210.000 l
-0.000 212.000 3.464 214.000 l
-0.000 216.000 -0.000 212.000 l
3.464 214.000 -0.000 216.000 l
6.928 212.000 3.464 214.000 l
6.928 216.000 6.928 212.000 l
10.392 214.000 6.928 216.000 l
10.392 218.000 10.392 214.000 l
6.928 216.000 10.392 218.000 l
6.928 220.000 6.928 216.000 l
3.464 218.000 6.928 220.000 l
-0.000 216.000 3.464 218.000 l
-0.000 220.000 -0.000 216.000 l
3.464 218.000 -0.000 220.000 l
3.464 222.000 3.464 218.000 l
-0.000 220.000 3.464 222.000 l
-0.000 224.000 -0.000 220.000 l
3.464 222.000 -0.000 224.000 l
6.928 220.000 3.464 222.000 l
10.392 218.000 6.928 220.000 l
13.856 216.000 10.392 218.000 l
17.321 214.000 13.856 216.000 l
20.785 212.000 17.321 214.000 l
24.249 210.000 20.785 212.000 l
27.713 208.000 24.249 210.000 l
27.713 212.000 27.713 208.000 l
31.177 210.000 27.713 212.000 l
31.177 214.000 31.177 210.000 l
27.713 212.000 31.177 214.000 l
27.713 216.000 27.713 212.000 l
31.177 214.000 27.713 216.000 l
34.641 212.000 31.177 214.000 l
34.641 216.000 34.641 212.000 l
38.105 214.000 34.641 216.000 l
38.105 218.000 38.105 214.000 l
34.641 216.000 38.105 218.000 l
34.641 220.000 34.641 216.000 l
31.177 218.000 34.641 220.000 l
27.713 216.000 31.177 218.000 l
27.713 220.000 27.713 216.000 l
31.177 218.000 27.713 220.000 l
31.177 222.000 31.177 218.000 l
27.713 220.000 31.177 222.000 l
27.713 224.000 27.713 220.000 l
31.177 222.000 27.713 224.000 l
34.641 220.000 31.177 222.000 l
38.105 218.000 34.641 220.000 l
41.569 216.000 38.105 218.000 l
41.569 220.000 41.569 216.000 l
45.033 218.000 41.569 220.000 l
45.033 222.000 45.033 218.000 l
41.569 220.000 45.033 222.000 l
41.569 224.000 41.569 220.000 l
45.033 222.000 41.569 224.000 l
48.497 220.000 45.033 222.000 l
48.497 224.000 48.497 220.000 l
51.962 222.000 48.497 224.000 l
51.962 226.000 51.962 222.000 l
48.497 224.000 51.962 226.000 l
48.497 228.000 48.497 224.000 l
45.033 226.000 48.497 228.000 l
41.569 224.000 45.033 226.000 l
41.569 228.000 41.569 224.000 l
45.033 226.000 41.569 228.000 l
45.033 230.000 45.033 226.000 l
41.569 228.000 45.033 230.000 l
41.569 232.000 41.569 228.000 l
38.105 230.000 41.569 232.000 l
34.641 228.000 38.105 230.000 l
31.177 226.000 34.641 228.000 l
27.713 224.000 31.177 226.000 l
27.713 228.000 27.713 224.000 l
31.177 226.000 27.713 228.000 l
31.177 230.000 31.177 226.000 l
27.713 228.000 31.177 230.000 l
27.713 232.000 27.713 228.000 l
31.177 230.000 27.713 232.000 l
34.641 228.000 31.177 230.000 l
34.641 232.000 34.641 228.000 l
38.105 230.000 34.641 232.000 l
38.105 234.000 38.105 230.000 l
34.641 232.000 38.105 234.000 l
34.641 236.000 34.641 232.000 l
31.177 234.000 34.641 236.000 l
27.713 232.000 31.177 234.000 l
27.713 236.000 27.713 232.000 l
31.177 234.000 27.713 236.000 l
31.177 238.000 31.177 234.000 l
27.713 236.000 31.177 238.000 l
27.713 240.000 27.713 236.000 l
24.249 238.000 27.713 240.000 l
20.785 236.000 24.249 238.000 l
17.321 234.000 20.785 236.000 l
13.856 232.000 17.321 234.000 l
10.392 230.000 13.856 232.000 l
6.928 228.000 10.392 230.000 l
3.464 226.000 6.928 228.000 l
-0.000 224.000 3.464 226.000 l
-0.000 228.000 -0.000 224.000 l
3.464 226.000 -0.000 228.000 l
3.464 230.000 3.464 226.000 l
-0.000 228.000 3.464 230.000 l
-0.000 232.000 -0.000 228.000 l
3.464 230.000 -0.000 232.000 l
6.928 228.000 3.464 230.000 l
6.928 232.000 6.928 228.000 l
10.392 230.000 6.928 232.000 l
10.392 234.000 10.392 230.000 l
6.928 232.000 10.392 234.000 l
6.928 236.000 6.928 232.000 l
3.464 234.000 6.928 236.000 l
-0.000 232.000 3.464 234.000 l
-0.000 236.000 -0.000 232.000 l
3.464 234.000 -0.000 236.000 l
3.464 238.000 3.464 234.000 l
-0.000 236.000 3.464 238.000 l
-0.000 240.000 -0.000 236.000 l
3.464 238.000 -0.000 240.000 l
6.928 236.000 3.464 238.000 l
10.392 234.000 6.928 236.000 l
13.856 232.000 10.392 234.000 l
13.856 236.000 13.856 232.000 l
17.321 234.000 13.856 236.000 l
17.321 238.000 17.321 234.000 l
13.856 236.000 17.321 238.000 l
13.856 240.000 13.856 236.000 l
17.321 238.000 13.856 240.000 l
20.785 236.000 17.321 238.000 l
20.785 240.000 20.785 236.000 l
24.249 238.000 20.785 240.000 l
24.249 242.000 24.249 238.000 l
20.785 240.000 24.249 242.000 l
20.785 244.000 20.785 240.000 l
17.321 242.000 20.785 244.000 l
13.856 240.000 17.321 242.000 l
13.856 244.000 13.856 240.000 l
17.321 242.000 13.856 244.000 l
17.321 246.000 17.321 242.000 l
13.856 244.000 17.321 246.000 l
13.856 248.000 13.856 244.000 l
10.392 246.000 13.856 248.000 l
6.928 244.000 10.392 246.000 l
3.464 242.000 6.928 244.000 l
-0.000 240.000 3.464 242.000 l
-0.000 244.000 -0.000 240.000 l
3.464 242.000 -0.000 244.000 l
3.464 246.000 3.464 242.000 l
-0.000 244.000 3.464 246.000 l
-0.000 248.000 -0.000 244.000 l
3.464 246.000 -0.000 248.000 l
6.928 244.000 3.464 246.000 l
6.928 248.000 6.928 244.000 l
10.392 246.000 6.928 248.000 l
10.392 250.000 10.392 246.000 l
6.928 248.000 10.392 250.000 l
6.928 252.000 6.928 248.000 l
3.464 250.000 6.928 252.000 l
-0.000 248.000 3.464 250.000 l
-0.000 252.000 -0.000 248.000 l
3.464 250.000 -0.000 252.000 l
3.464 254.000 3.464 250.000 l
-0.000 252.000 3.464 254.000 l
-0.000 256.000 -0.000 252.000 l
3.464 254.000 -0.000 256.000 l
6.928 252.000 3.464 254.000 l
10.392 250.000 6.928 252.000 l
13.856 248.000 10.392 250.000 l
17.321 246.000 13.856 248.000 l
20.785 244.000 17.321 246.000 l
24.249 242.000 20.785 244.000 l
27.713 240.000 24.249 242.000 l
31.177 238.000 27.713 240.000 l
34.641 236.000 31.177 238.000 l
38.105 234.000 34.641 236.000 l
41.569 232.000 38.105 234.000 l
45.033 230.000 41.569 232.000 l
48.497 228.000 45.033 230.000 l
51.962 226.000 48.497 228.000 l
55.426 224.000 51.962 226.000 l
58.890 222.000 55.426 224.000 l
62.354 220.000 58.890 222.000 l
65.818 218.000 62.354 220.000 l
69.282 216.000 65.818 218.000 l
72.746 214.000 69.282 216.000 l
76.210 212.000 72.746 214.000 l
79.674 210.000 76.210 212.000 l
83.138 208.000 79.674 210.000 l
86.603 206.000 83.138 208.000 l
90.067 204.000 86.603 206.000 l
93.531 202.000 90.067 204.000 l
96.995 200.000 93.531 202.000 l
100.459 198.000 96.995 200.000 l
103.923 196.000 100.459 198.000 l
107.387 194.000 103.923 196.000 l
110.851 192.000 107.387 194.000 l
114.315 190.000 110.851 192.000 l
117.779 188.000 114.315 190.000 l
121.244 186.000 117.779 188.000 l
124.708 184.000 121.244 186.000 l
128.172 182.000 124.708 184.000 l
131.636 180.000 128.172 182.000 l
135.100 178.000 131.636 180.000 l
138.564 176.000 135.100 178.000 l
142.028 174.000 138.564 176.000 l
145.492 172.000 142.028 174.000 l
148.956 170.000 145.492 172.000 l
152.420 168.000 148.956 170.000 l
155.885 166.000 152.420 168.000 l
159.349 164.000 155.885 166.000 l
162.813 162.000 159.349 164.000 l
166.277 160.000 162.813 162.000 l
169.741 158.000 166.277 160.000 l
173.205 156.000 169.741 158.000 l
176.669 154.000 173.205 156.000 l
180.133 152.000 176.669 154.000 l
183.597 150.000 180.133 152.000 l
187.061 148.000 183.597 150.000 l
190.526 146.000 187.061 148.000 l
193.990 144.000 190.526 146.000 l
197.454 142.000 193.990 144.000 l
200.918 140.000 197.454 142.000 l
204.382 138.000 200.918 140.000 l
207.846 136.000 204.382 138.000 l
211.310 134.000 207.846 136.000 l
214.774 132.000 211.310 134.000 l
218.238 130.000 214.774 132.000 l
221.703 128.000 218.238 130.000 l
218.238 126.000 221.703 128.000 l
214.774 124.000 218.238 126.000 l
211.310 122.000 214.774 124.000 l
207.846 120.000 211.310 122.000 l
204.382 118.000 207.846 120.000 l
200.918 116.000 204.382 118.000 l
197.454 114.000 200.918 116.000 l
193.990 112.000 197.454 114.000 l
190.526 110.000 193.990 112.000 l
187.061 108.000 190.526 110.000 l
183.597 106.000 187.061 108.000 l
180.133 104.000 183.597 106.000 l
176.669 102.000 180.133 104.000 l
173.205 100.000 176.669 102.000 l
169.741 98.000 173.205 100.000 l
166.277 96.000 169.741 98.000 l
162.813 94.000 166.277 96.000 l
159.349 92.000 162.813 94.000 l
155.885 90.000 159.349 92.000 l
152.420 88.000 155.885 90.000 l
148.956 86.000 152.420 88.000 l
145.492 84.000 148.956 86.000 l
142.028 82.000 145.492 84.000 l
138.564 80.000 142.028 82.000 l
135.100 78.000 138.564 80.000 l
131.636 76.000 135.100 78.000 l
128.172 74.000 131.636 76.000 l
124.708 72.000 128.172 74.000 l
121.244 70.000 124.708 72.000 l
117.779 68.000 121.244 70.000 l
114.315 66.000 117.779 68.000 l
110.851 64.000 114.315 66.000 l
107.387 62.000 110.851 64.000 l
103.923 60.000 107.387 62.000 l
100.459 58.000 103.923 60.000 l
96.995 56.000 100.459 58.000 l
93.531 54.000 96.995 56.000 l
90.067 52.000 93.531 54.000 l
86.603 50.000 90.067 52.000 l
83.138 48.000 86.603 50.000 l
79.674 46.000 83.138 48.000 l
76.210 44.000 79.674 46.000 l
72.746 42.000 76.210 44.000 l
69.282 40.000 72.746 42.000 l
65.818 38.000 69.282 40.000 l
62.354 36.000 65.818 38.000 l
58.890 34.000 62.354 36.000 l
55.426 32.000 58.890 34.000 l
51.962 30.000 55.426 32.000 l
48.497 28.000 51.962 30.000 l
45.033 26.000 48.497 28.000 l
41.569 24.000 45.033 26.000 l
38.105 22.000 41.569 24.000 l
34.641 20.000 38.105 22.000 l
31.177 18.000 34.641 20.000 l
27.713 16.000 31.177 18.000 l
24.249 14.000 27.713 16.000 l
20.785 12.000 24.249 14.000 l
17.321 10.000 20.785 12.000 l
13.856 8.000 17.321 10.000 l
10.392 6.000 13.856 8.000 l
6.928 4.000 10.392 6.000 l
3.464 2.000 6.928 4.000 l
-0.000 -0.000 3.464 2.000 l

showpage

restore
%%EOF
