%!PS-Adobe-3.0 EPSF-3.0
%%BoundingBox: 0 0 231.703 266.000
%%Title: L-system "Sierpinski triangle"
%%Creator: Python package l_system 01.00.00 --- Olivier Pirson --- http://www.opimedia.be/
%%EndComments
save

% Function
%%%%%%%%%%
/l {  % x1 y1 x0 y0
    moveto lineto stroke
} def

% Main
%%%%%%
-0.000 neg -0.000 neg translate
5.000 5.000 translate

0.000 64.000 0.000 0.000 l
55.426 32.000 0.000 64.000 l
55.426 96.000 55.426 32.000 l
0.000 64.000 55.426 96.000 l
0.000 128.000 0.000 64.000 l
55.426 96.000 0.000 128.000 l
110.851 64.000 55.426 96.000 l
110.851 128.000 110.851 64.000 l
166.277 96.000 110.851 128.000 l
166.277 160.000 166.277 96.000 l
110.851 128.000 166.277 160.000 l
110.851 192.000 110.851 128.000 l
55.426 160.000 110.851 192.000 l
-0.000 128.000 55.426 160.000 l
-0.000 192.000 -0.000 128.000 l
55.426 160.000 -0.000 192.000 l
55.426 224.000 55.426 160.000 l
-0.000 192.000 55.426 224.000 l
-0.000 256.000 -0.000 192.000 l
55.426 224.000 -0.000 256.000 l
110.851 192.000 55.426 224.000 l
166.277 160.000 110.851 192.000 l
221.703 128.000 166.277 160.000 l
166.277 96.000 221.703 128.000 l
110.851 64.000 166.277 96.000 l
55.426 32.000 110.851 64.000 l
-0.000 -0.000 55.426 32.000 l

showpage

restore
%%EOF
