%!PS-Adobe-3.0 EPSF-3.0
%%BoundingBox: 0 0 266.000 228.238
%%Title: L-system "Sierpinski arrowhead curve"
%%Creator: Python package l_system 01.00.00 --- Olivier Pirson --- http://www.opimedia.be/
%%EndComments
save

% Function
%%%%%%%%%%
/l {  % x1 y1 x0 y0
    moveto lineto stroke
} def

% Main
%%%%%%
0.000 neg 0.000 neg translate
5.000 5.000 translate

4.000 0.000 0.000 0.000 l
6.000 3.464 4.000 0.000 l
4.000 6.928 6.000 3.464 l
6.000 10.392 4.000 6.928 l
10.000 10.392 6.000 10.392 l
12.000 6.928 10.000 10.392 l
10.000 3.464 12.000 6.928 l
12.000 0.000 10.000 3.464 l
16.000 0.000 12.000 0.000 l
18.000 3.464 16.000 0.000 l
22.000 3.464 18.000 3.464 l
24.000 0.000 22.000 3.464 l
28.000 0.000 24.000 0.000 l
30.000 3.464 28.000 0.000 l
28.000 6.928 30.000 3.464 l
24.000 6.928 28.000 6.928 l
22.000 10.392 24.000 6.928 l
24.000 13.856 22.000 10.392 l
22.000 17.321 24.000 13.856 l
18.000 17.321 22.000 17.321 l
16.000 13.856 18.000 17.321 l
12.000 13.856 16.000 13.856 l
10.000 17.321 12.000 13.856 l
12.000 20.785 10.000 17.321 l
16.000 20.785 12.000 20.785 l
18.000 24.249 16.000 20.785 l
16.000 27.713 18.000 24.249 l
18.000 31.177 16.000 27.713 l
22.000 31.177 18.000 31.177 l
24.000 27.713 22.000 31.177 l
28.000 27.713 24.000 27.713 l
30.000 31.177 28.000 27.713 l
28.000 34.641 30.000 31.177 l
24.000 34.641 28.000 34.641 l
22.000 38.105 24.000 34.641 l
24.000 41.569 22.000 38.105 l
28.000 41.569 24.000 41.569 l
30.000 45.033 28.000 41.569 l
28.000 48.497 30.000 45.033 l
30.000 51.962 28.000 48.497 l
34.000 51.962 30.000 51.962 l
36.000 48.497 34.000 51.962 l
34.000 45.033 36.000 48.497 l
36.000 41.569 34.000 45.033 l
40.000 41.569 36.000 41.569 l
42.000 38.105 40.000 41.569 l
40.000 34.641 42.000 38.105 l
36.000 34.641 40.000 34.641 l
34.000 31.177 36.000 34.641 l
36.000 27.713 34.000 31.177 l
40.000 27.713 36.000 27.713 l
42.000 31.177 40.000 27.713 l
46.000 31.177 42.000 31.177 l
48.000 27.713 46.000 31.177 l
46.000 24.249 48.000 27.713 l
48.000 20.785 46.000 24.249 l
52.000 20.785 48.000 20.785 l
54.000 17.321 52.000 20.785 l
52.000 13.856 54.000 17.321 l
48.000 13.856 52.000 13.856 l
46.000 17.321 48.000 13.856 l
42.000 17.321 46.000 17.321 l
40.000 13.856 42.000 17.321 l
42.000 10.392 40.000 13.856 l
40.000 6.928 42.000 10.392 l
36.000 6.928 40.000 6.928 l
34.000 3.464 36.000 6.928 l
36.000 0.000 34.000 3.464 l
40.000 0.000 36.000 0.000 l
42.000 3.464 40.000 0.000 l
46.000 3.464 42.000 3.464 l
48.000 0.000 46.000 3.464 l
52.000 0.000 48.000 0.000 l
54.000 3.464 52.000 0.000 l
52.000 6.928 54.000 3.464 l
54.000 10.392 52.000 6.928 l
58.000 10.392 54.000 10.392 l
60.000 6.928 58.000 10.392 l
58.000 3.464 60.000 6.928 l
60.000 0.000 58.000 3.464 l
64.000 0.000 60.000 0.000 l
66.000 3.464 64.000 0.000 l
70.000 3.464 66.000 3.464 l
72.000 0.000 70.000 3.464 l
76.000 0.000 72.000 0.000 l
78.000 3.464 76.000 0.000 l
76.000 6.928 78.000 3.464 l
72.000 6.928 76.000 6.928 l
70.000 10.392 72.000 6.928 l
72.000 13.856 70.000 10.392 l
76.000 13.856 72.000 13.856 l
78.000 17.321 76.000 13.856 l
76.000 20.785 78.000 17.321 l
78.000 24.249 76.000 20.785 l
82.000 24.249 78.000 24.249 l
84.000 20.785 82.000 24.249 l
82.000 17.321 84.000 20.785 l
84.000 13.856 82.000 17.321 l
88.000 13.856 84.000 13.856 l
90.000 10.392 88.000 13.856 l
88.000 6.928 90.000 10.392 l
84.000 6.928 88.000 6.928 l
82.000 3.464 84.000 6.928 l
84.000 0.000 82.000 3.464 l
88.000 0.000 84.000 0.000 l
90.000 3.464 88.000 0.000 l
94.000 3.464 90.000 3.464 l
96.000 0.000 94.000 3.464 l
100.000 0.000 96.000 0.000 l
102.000 3.464 100.000 0.000 l
100.000 6.928 102.000 3.464 l
102.000 10.392 100.000 6.928 l
106.000 10.392 102.000 10.392 l
108.000 6.928 106.000 10.392 l
106.000 3.464 108.000 6.928 l
108.000 0.000 106.000 3.464 l
112.000 0.000 108.000 0.000 l
114.000 3.464 112.000 0.000 l
118.000 3.464 114.000 3.464 l
120.000 0.000 118.000 3.464 l
124.000 0.000 120.000 0.000 l
126.000 3.464 124.000 0.000 l
124.000 6.928 126.000 3.464 l
120.000 6.928 124.000 6.928 l
118.000 10.392 120.000 6.928 l
120.000 13.856 118.000 10.392 l
118.000 17.321 120.000 13.856 l
114.000 17.321 118.000 17.321 l
112.000 13.856 114.000 17.321 l
108.000 13.856 112.000 13.856 l
106.000 17.321 108.000 13.856 l
108.000 20.785 106.000 17.321 l
112.000 20.785 108.000 20.785 l
114.000 24.249 112.000 20.785 l
112.000 27.713 114.000 24.249 l
108.000 27.713 112.000 27.713 l
106.000 31.177 108.000 27.713 l
108.000 34.641 106.000 31.177 l
106.000 38.105 108.000 34.641 l
102.000 38.105 106.000 38.105 l
100.000 34.641 102.000 38.105 l
102.000 31.177 100.000 34.641 l
100.000 27.713 102.000 31.177 l
96.000 27.713 100.000 27.713 l
94.000 31.177 96.000 27.713 l
90.000 31.177 94.000 31.177 l
88.000 27.713 90.000 31.177 l
84.000 27.713 88.000 27.713 l
82.000 31.177 84.000 27.713 l
84.000 34.641 82.000 31.177 l
88.000 34.641 84.000 34.641 l
90.000 38.105 88.000 34.641 l
88.000 41.569 90.000 38.105 l
90.000 45.033 88.000 41.569 l
94.000 45.033 90.000 45.033 l
96.000 41.569 94.000 45.033 l
100.000 41.569 96.000 41.569 l
102.000 45.033 100.000 41.569 l
100.000 48.497 102.000 45.033 l
96.000 48.497 100.000 48.497 l
94.000 51.962 96.000 48.497 l
96.000 55.426 94.000 51.962 l
94.000 58.890 96.000 55.426 l
90.000 58.890 94.000 58.890 l
88.000 55.426 90.000 58.890 l
84.000 55.426 88.000 55.426 l
82.000 58.890 84.000 55.426 l
84.000 62.354 82.000 58.890 l
88.000 62.354 84.000 62.354 l
90.000 65.818 88.000 62.354 l
88.000 69.282 90.000 65.818 l
84.000 69.282 88.000 69.282 l
82.000 72.746 84.000 69.282 l
84.000 76.210 82.000 72.746 l
82.000 79.674 84.000 76.210 l
78.000 79.674 82.000 79.674 l
76.000 76.210 78.000 79.674 l
78.000 72.746 76.000 76.210 l
76.000 69.282 78.000 72.746 l
72.000 69.282 76.000 69.282 l
70.000 65.818 72.000 69.282 l
72.000 62.354 70.000 65.818 l
76.000 62.354 72.000 62.354 l
78.000 58.890 76.000 62.354 l
76.000 55.426 78.000 58.890 l
72.000 55.426 76.000 55.426 l
70.000 58.890 72.000 55.426 l
66.000 58.890 70.000 58.890 l
64.000 55.426 66.000 58.890 l
60.000 55.426 64.000 55.426 l
58.000 58.890 60.000 55.426 l
60.000 62.354 58.000 58.890 l
58.000 65.818 60.000 62.354 l
54.000 65.818 58.000 65.818 l
52.000 62.354 54.000 65.818 l
54.000 58.890 52.000 62.354 l
52.000 55.426 54.000 58.890 l
48.000 55.426 52.000 55.426 l
46.000 58.890 48.000 55.426 l
42.000 58.890 46.000 58.890 l
40.000 55.426 42.000 58.890 l
36.000 55.426 40.000 55.426 l
34.000 58.890 36.000 55.426 l
36.000 62.354 34.000 58.890 l
40.000 62.354 36.000 62.354 l
42.000 65.818 40.000 62.354 l
40.000 69.282 42.000 65.818 l
42.000 72.746 40.000 69.282 l
46.000 72.746 42.000 72.746 l
48.000 69.282 46.000 72.746 l
52.000 69.282 48.000 69.282 l
54.000 72.746 52.000 69.282 l
52.000 76.210 54.000 72.746 l
48.000 76.210 52.000 76.210 l
46.000 79.674 48.000 76.210 l
48.000 83.138 46.000 79.674 l
52.000 83.138 48.000 83.138 l
54.000 86.603 52.000 83.138 l
52.000 90.067 54.000 86.603 l
54.000 93.531 52.000 90.067 l
58.000 93.531 54.000 93.531 l
60.000 90.067 58.000 93.531 l
58.000 86.603 60.000 90.067 l
60.000 83.138 58.000 86.603 l
64.000 83.138 60.000 83.138 l
66.000 86.603 64.000 83.138 l
70.000 86.603 66.000 86.603 l
72.000 83.138 70.000 86.603 l
76.000 83.138 72.000 83.138 l
78.000 86.603 76.000 83.138 l
76.000 90.067 78.000 86.603 l
72.000 90.067 76.000 90.067 l
70.000 93.531 72.000 90.067 l
72.000 96.995 70.000 93.531 l
70.000 100.459 72.000 96.995 l
66.000 100.459 70.000 100.459 l
64.000 96.995 66.000 100.459 l
60.000 96.995 64.000 96.995 l
58.000 100.459 60.000 96.995 l
60.000 103.923 58.000 100.459 l
64.000 103.923 60.000 103.923 l
66.000 107.387 64.000 103.923 l
64.000 110.851 66.000 107.387 l
66.000 114.315 64.000 110.851 l
70.000 114.315 66.000 114.315 l
72.000 110.851 70.000 114.315 l
76.000 110.851 72.000 110.851 l
78.000 114.315 76.000 110.851 l
76.000 117.779 78.000 114.315 l
72.000 117.779 76.000 117.779 l
70.000 121.244 72.000 117.779 l
72.000 124.708 70.000 121.244 l
76.000 124.708 72.000 124.708 l
78.000 128.172 76.000 124.708 l
76.000 131.636 78.000 128.172 l
78.000 135.100 76.000 131.636 l
82.000 135.100 78.000 135.100 l
84.000 131.636 82.000 135.100 l
82.000 128.172 84.000 131.636 l
84.000 124.708 82.000 128.172 l
88.000 124.708 84.000 124.708 l
90.000 121.244 88.000 124.708 l
88.000 117.779 90.000 121.244 l
84.000 117.779 88.000 117.779 l
82.000 114.315 84.000 117.779 l
84.000 110.851 82.000 114.315 l
88.000 110.851 84.000 110.851 l
90.000 114.315 88.000 110.851 l
94.000 114.315 90.000 114.315 l
96.000 110.851 94.000 114.315 l
100.000 110.851 96.000 110.851 l
102.000 114.315 100.000 110.851 l
100.000 117.779 102.000 114.315 l
102.000 121.244 100.000 117.779 l
106.000 121.244 102.000 121.244 l
108.000 117.779 106.000 121.244 l
106.000 114.315 108.000 117.779 l
108.000 110.851 106.000 114.315 l
112.000 110.851 108.000 110.851 l
114.000 114.315 112.000 110.851 l
118.000 114.315 114.000 114.315 l
120.000 110.851 118.000 114.315 l
124.000 110.851 120.000 110.851 l
126.000 114.315 124.000 110.851 l
124.000 117.779 126.000 114.315 l
120.000 117.779 124.000 117.779 l
118.000 121.244 120.000 117.779 l
120.000 124.708 118.000 121.244 l
118.000 128.172 120.000 124.708 l
114.000 128.172 118.000 128.172 l
112.000 124.708 114.000 128.172 l
108.000 124.708 112.000 124.708 l
106.000 128.172 108.000 124.708 l
108.000 131.636 106.000 128.172 l
112.000 131.636 108.000 131.636 l
114.000 135.100 112.000 131.636 l
112.000 138.564 114.000 135.100 l
108.000 138.564 112.000 138.564 l
106.000 142.028 108.000 138.564 l
108.000 145.492 106.000 142.028 l
106.000 148.956 108.000 145.492 l
102.000 148.956 106.000 148.956 l
100.000 145.492 102.000 148.956 l
102.000 142.028 100.000 145.492 l
100.000 138.564 102.000 142.028 l
96.000 138.564 100.000 138.564 l
94.000 142.028 96.000 138.564 l
90.000 142.028 94.000 142.028 l
88.000 138.564 90.000 142.028 l
84.000 138.564 88.000 138.564 l
82.000 142.028 84.000 138.564 l
84.000 145.492 82.000 142.028 l
88.000 145.492 84.000 145.492 l
90.000 148.956 88.000 145.492 l
88.000 152.420 90.000 148.956 l
90.000 155.885 88.000 152.420 l
94.000 155.885 90.000 155.885 l
96.000 152.420 94.000 155.885 l
100.000 152.420 96.000 152.420 l
102.000 155.885 100.000 152.420 l
100.000 159.349 102.000 155.885 l
96.000 159.349 100.000 159.349 l
94.000 162.813 96.000 159.349 l
96.000 166.277 94.000 162.813 l
100.000 166.277 96.000 166.277 l
102.000 169.741 100.000 166.277 l
100.000 173.205 102.000 169.741 l
102.000 176.669 100.000 173.205 l
106.000 176.669 102.000 176.669 l
108.000 173.205 106.000 176.669 l
106.000 169.741 108.000 173.205 l
108.000 166.277 106.000 169.741 l
112.000 166.277 108.000 166.277 l
114.000 169.741 112.000 166.277 l
118.000 169.741 114.000 169.741 l
120.000 166.277 118.000 169.741 l
124.000 166.277 120.000 166.277 l
126.000 169.741 124.000 166.277 l
124.000 173.205 126.000 169.741 l
120.000 173.205 124.000 173.205 l
118.000 176.669 120.000 173.205 l
120.000 180.133 118.000 176.669 l
118.000 183.597 120.000 180.133 l
114.000 183.597 118.000 183.597 l
112.000 180.133 114.000 183.597 l
108.000 180.133 112.000 180.133 l
106.000 183.597 108.000 180.133 l
108.000 187.061 106.000 183.597 l
112.000 187.061 108.000 187.061 l
114.000 190.526 112.000 187.061 l
112.000 193.990 114.000 190.526 l
114.000 197.454 112.000 193.990 l
118.000 197.454 114.000 197.454 l
120.000 193.990 118.000 197.454 l
124.000 193.990 120.000 193.990 l
126.000 197.454 124.000 193.990 l
124.000 200.918 126.000 197.454 l
120.000 200.918 124.000 200.918 l
118.000 204.382 120.000 200.918 l
120.000 207.846 118.000 204.382 l
124.000 207.846 120.000 207.846 l
126.000 211.310 124.000 207.846 l
124.000 214.774 126.000 211.310 l
126.000 218.238 124.000 214.774 l
130.000 218.238 126.000 218.238 l
132.000 214.774 130.000 218.238 l
130.000 211.310 132.000 214.774 l
132.000 207.846 130.000 211.310 l
136.000 207.846 132.000 207.846 l
138.000 204.382 136.000 207.846 l
136.000 200.918 138.000 204.382 l
132.000 200.918 136.000 200.918 l
130.000 197.454 132.000 200.918 l
132.000 193.990 130.000 197.454 l
136.000 193.990 132.000 193.990 l
138.000 197.454 136.000 193.990 l
142.000 197.454 138.000 197.454 l
144.000 193.990 142.000 197.454 l
142.000 190.526 144.000 193.990 l
144.000 187.061 142.000 190.526 l
148.000 187.061 144.000 187.061 l
150.000 183.597 148.000 187.061 l
148.000 180.133 150.000 183.597 l
144.000 180.133 148.000 180.133 l
142.000 183.597 144.000 180.133 l
138.000 183.597 142.000 183.597 l
136.000 180.133 138.000 183.597 l
138.000 176.669 136.000 180.133 l
136.000 173.205 138.000 176.669 l
132.000 173.205 136.000 173.205 l
130.000 169.741 132.000 173.205 l
132.000 166.277 130.000 169.741 l
136.000 166.277 132.000 166.277 l
138.000 169.741 136.000 166.277 l
142.000 169.741 138.000 169.741 l
144.000 166.277 142.000 169.741 l
148.000 166.277 144.000 166.277 l
150.000 169.741 148.000 166.277 l
148.000 173.205 150.000 169.741 l
150.000 176.669 148.000 173.205 l
154.000 176.669 150.000 176.669 l
156.000 173.205 154.000 176.669 l
154.000 169.741 156.000 173.205 l
156.000 166.277 154.000 169.741 l
160.000 166.277 156.000 166.277 l
162.000 162.813 160.000 166.277 l
160.000 159.349 162.000 162.813 l
156.000 159.349 160.000 159.349 l
154.000 155.885 156.000 159.349 l
156.000 152.420 154.000 155.885 l
160.000 152.420 156.000 152.420 l
162.000 155.885 160.000 152.420 l
166.000 155.885 162.000 155.885 l
168.000 152.420 166.000 155.885 l
166.000 148.956 168.000 152.420 l
168.000 145.492 166.000 148.956 l
172.000 145.492 168.000 145.492 l
174.000 142.028 172.000 145.492 l
172.000 138.564 174.000 142.028 l
168.000 138.564 172.000 138.564 l
166.000 142.028 168.000 138.564 l
162.000 142.028 166.000 142.028 l
160.000 138.564 162.000 142.028 l
156.000 138.564 160.000 138.564 l
154.000 142.028 156.000 138.564 l
156.000 145.492 154.000 142.028 l
154.000 148.956 156.000 145.492 l
150.000 148.956 154.000 148.956 l
148.000 145.492 150.000 148.956 l
150.000 142.028 148.000 145.492 l
148.000 138.564 150.000 142.028 l
144.000 138.564 148.000 138.564 l
142.000 135.100 144.000 138.564 l
144.000 131.636 142.000 135.100 l
148.000 131.636 144.000 131.636 l
150.000 128.172 148.000 131.636 l
148.000 124.708 150.000 128.172 l
144.000 124.708 148.000 124.708 l
142.000 128.172 144.000 124.708 l
138.000 128.172 142.000 128.172 l
136.000 124.708 138.000 128.172 l
138.000 121.244 136.000 124.708 l
136.000 117.779 138.000 121.244 l
132.000 117.779 136.000 117.779 l
130.000 114.315 132.000 117.779 l
132.000 110.851 130.000 114.315 l
136.000 110.851 132.000 110.851 l
138.000 114.315 136.000 110.851 l
142.000 114.315 138.000 114.315 l
144.000 110.851 142.000 114.315 l
148.000 110.851 144.000 110.851 l
150.000 114.315 148.000 110.851 l
148.000 117.779 150.000 114.315 l
150.000 121.244 148.000 117.779 l
154.000 121.244 150.000 121.244 l
156.000 117.779 154.000 121.244 l
154.000 114.315 156.000 117.779 l
156.000 110.851 154.000 114.315 l
160.000 110.851 156.000 110.851 l
162.000 114.315 160.000 110.851 l
166.000 114.315 162.000 114.315 l
168.000 110.851 166.000 114.315 l
172.000 110.851 168.000 110.851 l
174.000 114.315 172.000 110.851 l
172.000 117.779 174.000 114.315 l
168.000 117.779 172.000 117.779 l
166.000 121.244 168.000 117.779 l
168.000 124.708 166.000 121.244 l
172.000 124.708 168.000 124.708 l
174.000 128.172 172.000 124.708 l
172.000 131.636 174.000 128.172 l
174.000 135.100 172.000 131.636 l
178.000 135.100 174.000 135.100 l
180.000 131.636 178.000 135.100 l
178.000 128.172 180.000 131.636 l
180.000 124.708 178.000 128.172 l
184.000 124.708 180.000 124.708 l
186.000 121.244 184.000 124.708 l
184.000 117.779 186.000 121.244 l
180.000 117.779 184.000 117.779 l
178.000 114.315 180.000 117.779 l
180.000 110.851 178.000 114.315 l
184.000 110.851 180.000 110.851 l
186.000 114.315 184.000 110.851 l
190.000 114.315 186.000 114.315 l
192.000 110.851 190.000 114.315 l
190.000 107.387 192.000 110.851 l
192.000 103.923 190.000 107.387 l
196.000 103.923 192.000 103.923 l
198.000 100.459 196.000 103.923 l
196.000 96.995 198.000 100.459 l
192.000 96.995 196.000 96.995 l
190.000 100.459 192.000 96.995 l
186.000 100.459 190.000 100.459 l
184.000 96.995 186.000 100.459 l
186.000 93.531 184.000 96.995 l
184.000 90.067 186.000 93.531 l
180.000 90.067 184.000 90.067 l
178.000 86.603 180.000 90.067 l
180.000 83.138 178.000 86.603 l
184.000 83.138 180.000 83.138 l
186.000 86.603 184.000 83.138 l
190.000 86.603 186.000 86.603 l
192.000 83.138 190.000 86.603 l
196.000 83.138 192.000 83.138 l
198.000 86.603 196.000 83.138 l
196.000 90.067 198.000 86.603 l
198.000 93.531 196.000 90.067 l
202.000 93.531 198.000 93.531 l
204.000 90.067 202.000 93.531 l
202.000 86.603 204.000 90.067 l
204.000 83.138 202.000 86.603 l
208.000 83.138 204.000 83.138 l
210.000 79.674 208.000 83.138 l
208.000 76.210 210.000 79.674 l
204.000 76.210 208.000 76.210 l
202.000 72.746 204.000 76.210 l
204.000 69.282 202.000 72.746 l
208.000 69.282 204.000 69.282 l
210.000 72.746 208.000 69.282 l
214.000 72.746 210.000 72.746 l
216.000 69.282 214.000 72.746 l
214.000 65.818 216.000 69.282 l
216.000 62.354 214.000 65.818 l
220.000 62.354 216.000 62.354 l
222.000 58.890 220.000 62.354 l
220.000 55.426 222.000 58.890 l
216.000 55.426 220.000 55.426 l
214.000 58.890 216.000 55.426 l
210.000 58.890 214.000 58.890 l
208.000 55.426 210.000 58.890 l
204.000 55.426 208.000 55.426 l
202.000 58.890 204.000 55.426 l
204.000 62.354 202.000 58.890 l
202.000 65.818 204.000 62.354 l
198.000 65.818 202.000 65.818 l
196.000 62.354 198.000 65.818 l
198.000 58.890 196.000 62.354 l
196.000 55.426 198.000 58.890 l
192.000 55.426 196.000 55.426 l
190.000 58.890 192.000 55.426 l
186.000 58.890 190.000 58.890 l
184.000 55.426 186.000 58.890 l
180.000 55.426 184.000 55.426 l
178.000 58.890 180.000 55.426 l
180.000 62.354 178.000 58.890 l
184.000 62.354 180.000 62.354 l
186.000 65.818 184.000 62.354 l
184.000 69.282 186.000 65.818 l
180.000 69.282 184.000 69.282 l
178.000 72.746 180.000 69.282 l
180.000 76.210 178.000 72.746 l
178.000 79.674 180.000 76.210 l
174.000 79.674 178.000 79.674 l
172.000 76.210 174.000 79.674 l
174.000 72.746 172.000 76.210 l
172.000 69.282 174.000 72.746 l
168.000 69.282 172.000 69.282 l
166.000 65.818 168.000 69.282 l
168.000 62.354 166.000 65.818 l
172.000 62.354 168.000 62.354 l
174.000 58.890 172.000 62.354 l
172.000 55.426 174.000 58.890 l
168.000 55.426 172.000 55.426 l
166.000 58.890 168.000 55.426 l
162.000 58.890 166.000 58.890 l
160.000 55.426 162.000 58.890 l
162.000 51.962 160.000 55.426 l
160.000 48.497 162.000 51.962 l
156.000 48.497 160.000 48.497 l
154.000 45.033 156.000 48.497 l
156.000 41.569 154.000 45.033 l
160.000 41.569 156.000 41.569 l
162.000 45.033 160.000 41.569 l
166.000 45.033 162.000 45.033 l
168.000 41.569 166.000 45.033 l
166.000 38.105 168.000 41.569 l
168.000 34.641 166.000 38.105 l
172.000 34.641 168.000 34.641 l
174.000 31.177 172.000 34.641 l
172.000 27.713 174.000 31.177 l
168.000 27.713 172.000 27.713 l
166.000 31.177 168.000 27.713 l
162.000 31.177 166.000 31.177 l
160.000 27.713 162.000 31.177 l
156.000 27.713 160.000 27.713 l
154.000 31.177 156.000 27.713 l
156.000 34.641 154.000 31.177 l
154.000 38.105 156.000 34.641 l
150.000 38.105 154.000 38.105 l
148.000 34.641 150.000 38.105 l
150.000 31.177 148.000 34.641 l
148.000 27.713 150.000 31.177 l
144.000 27.713 148.000 27.713 l
142.000 24.249 144.000 27.713 l
144.000 20.785 142.000 24.249 l
148.000 20.785 144.000 20.785 l
150.000 17.321 148.000 20.785 l
148.000 13.856 150.000 17.321 l
144.000 13.856 148.000 13.856 l
142.000 17.321 144.000 13.856 l
138.000 17.321 142.000 17.321 l
136.000 13.856 138.000 17.321 l
138.000 10.392 136.000 13.856 l
136.000 6.928 138.000 10.392 l
132.000 6.928 136.000 6.928 l
130.000 3.464 132.000 6.928 l
132.000 0.000 130.000 3.464 l
136.000 0.000 132.000 0.000 l
138.000 3.464 136.000 0.000 l
142.000 3.464 138.000 3.464 l
144.000 0.000 142.000 3.464 l
148.000 0.000 144.000 0.000 l
150.000 3.464 148.000 0.000 l
148.000 6.928 150.000 3.464 l
150.000 10.392 148.000 6.928 l
154.000 10.392 150.000 10.392 l
156.000 6.928 154.000 10.392 l
154.000 3.464 156.000 6.928 l
156.000 0.000 154.000 3.464 l
160.000 0.000 156.000 0.000 l
162.000 3.464 160.000 0.000 l
166.000 3.464 162.000 3.464 l
168.000 0.000 166.000 3.464 l
172.000 0.000 168.000 0.000 l
174.000 3.464 172.000 0.000 l
172.000 6.928 174.000 3.464 l
168.000 6.928 172.000 6.928 l
166.000 10.392 168.000 6.928 l
168.000 13.856 166.000 10.392 l
172.000 13.856 168.000 13.856 l
174.000 17.321 172.000 13.856 l
172.000 20.785 174.000 17.321 l
174.000 24.249 172.000 20.785 l
178.000 24.249 174.000 24.249 l
180.000 20.785 178.000 24.249 l
178.000 17.321 180.000 20.785 l
180.000 13.856 178.000 17.321 l
184.000 13.856 180.000 13.856 l
186.000 10.392 184.000 13.856 l
184.000 6.928 186.000 10.392 l
180.000 6.928 184.000 6.928 l
178.000 3.464 180.000 6.928 l
180.000 0.000 178.000 3.464 l
184.000 0.000 180.000 0.000 l
186.000 3.464 184.000 0.000 l
190.000 3.464 186.000 3.464 l
192.000 0.000 190.000 3.464 l
196.000 0.000 192.000 0.000 l
198.000 3.464 196.000 0.000 l
196.000 6.928 198.000 3.464 l
198.000 10.392 196.000 6.928 l
202.000 10.392 198.000 10.392 l
204.000 6.928 202.000 10.392 l
202.000 3.464 204.000 6.928 l
204.000 0.000 202.000 3.464 l
208.000 0.000 204.000 0.000 l
210.000 3.464 208.000 0.000 l
214.000 3.464 210.000 3.464 l
216.000 0.000 214.000 3.464 l
220.000 0.000 216.000 0.000 l
222.000 3.464 220.000 0.000 l
220.000 6.928 222.000 3.464 l
216.000 6.928 220.000 6.928 l
214.000 10.392 216.000 6.928 l
216.000 13.856 214.000 10.392 l
214.000 17.321 216.000 13.856 l
210.000 17.321 214.000 17.321 l
208.000 13.856 210.000 17.321 l
204.000 13.856 208.000 13.856 l
202.000 17.321 204.000 13.856 l
204.000 20.785 202.000 17.321 l
208.000 20.785 204.000 20.785 l
210.000 24.249 208.000 20.785 l
208.000 27.713 210.000 24.249 l
210.000 31.177 208.000 27.713 l
214.000 31.177 210.000 31.177 l
216.000 27.713 214.000 31.177 l
220.000 27.713 216.000 27.713 l
222.000 31.177 220.000 27.713 l
220.000 34.641 222.000 31.177 l
216.000 34.641 220.000 34.641 l
214.000 38.105 216.000 34.641 l
216.000 41.569 214.000 38.105 l
220.000 41.569 216.000 41.569 l
222.000 45.033 220.000 41.569 l
220.000 48.497 222.000 45.033 l
222.000 51.962 220.000 48.497 l
226.000 51.962 222.000 51.962 l
228.000 48.497 226.000 51.962 l
226.000 45.033 228.000 48.497 l
228.000 41.569 226.000 45.033 l
232.000 41.569 228.000 41.569 l
234.000 38.105 232.000 41.569 l
232.000 34.641 234.000 38.105 l
228.000 34.641 232.000 34.641 l
226.000 31.177 228.000 34.641 l
228.000 27.713 226.000 31.177 l
232.000 27.713 228.000 27.713 l
234.000 31.177 232.000 27.713 l
238.000 31.177 234.000 31.177 l
240.000 27.713 238.000 31.177 l
238.000 24.249 240.000 27.713 l
240.000 20.785 238.000 24.249 l
244.000 20.785 240.000 20.785 l
246.000 17.321 244.000 20.785 l
244.000 13.856 246.000 17.321 l
240.000 13.856 244.000 13.856 l
238.000 17.321 240.000 13.856 l
234.000 17.321 238.000 17.321 l
232.000 13.856 234.000 17.321 l
234.000 10.392 232.000 13.856 l
232.000 6.928 234.000 10.392 l
228.000 6.928 232.000 6.928 l
226.000 3.464 228.000 6.928 l
228.000 0.000 226.000 3.464 l
232.000 0.000 228.000 0.000 l
234.000 3.464 232.000 0.000 l
238.000 3.464 234.000 3.464 l
240.000 0.000 238.000 3.464 l
244.000 0.000 240.000 0.000 l
246.000 3.464 244.000 0.000 l
244.000 6.928 246.000 3.464 l
246.000 10.392 244.000 6.928 l
250.000 10.392 246.000 10.392 l
252.000 6.928 250.000 10.392 l
250.000 3.464 252.000 6.928 l
252.000 0.000 250.000 3.464 l
256.000 0.000 252.000 0.000 l

showpage

restore
%%EOF
