Python version: 2.7.13 (default, Nov 24 2017, 17:33:09)  [GCC 6.3.0 20170516]
l_system version: 01.00.00 --- Implementation used: LSystem and TurtleBitmap
Name: fractal binary tree
Alphabet: 01[]
Axiom: 0
Production rules:
  0: 1[0]0
  1: 11
Number of steps: 5
Size of each step: 1
Rule maximum number of variables: 3
Rule maximum number of constants: 2
Rule maximum size: 5
Axiom number of variables: 1
Axiom number of constants: 0
Axiom size: 1
Upper bounds for expansion of one production rule ...:
#it:     #var. +   #const. =      size (factor) <= (rule maximum size)^#it
                                 ... and for expansion of the axiom ---     #var. +   #const. =      size (factor) <= (axiom size)*(rule maximum size)^#it
  0:         1 +         0 =         1          <=                1 ---         1 +         0 =         1          <=                1
  1:         3 +         2 =         5 ( 5    ) <=                5 ---         3 +         2 =         5 ( 5    ) <=                5
  2:         9 +         8 =        17 ( 3.400) <=               25 ---         9 +         8 =        17 ( 3.400) <=               25
  3:        27 +        26 =        53 ( 3.118) <=              125 ---        27 +        26 =        53 ( 3.118) <=              125
  4:        81 +        80 =       161 ( 3.038) <=              625 ---        81 +        80 =       161 ( 3.038) <=              625
  5:       243 +       242 =       485 ( 3.012) <=             3125 ---       243 +       242 =       485 ( 3.012) <=             3125
Expansion of the axiom:
#it:      size result
  0:         1 0
  1:         5 1[0]0
  2:        14 11[1[0]0]1[0]0
  3:        34 1111[11[1[0]0]1[0]0]11[1[0]0]1[0]0
  4:        78 11111111[1111[11[1[0]0]1[0]0]11[1[0]0]1[0]0]1111[11[1[0]0]1[0]0]11[1[0]0]1[0]0
  5:       174 1111111111111111[11111111[1111[11[1[0]0]1[0]0]11[1[0]0]1[0]0]1111[11[1[0]0]1[0]0]11[1[0]0]1[0]0]11111111[1111[11[1[0]0]1[0]0]11[1[0]0]1[0]0]1111[11[1[0]0]1[0]0]11[1[0]0]1[0]0
Calculation time: 0.000 s
Check: Comparison of iteration 5 with FastLSystem succeed.
Angle increment: 45.0
Turtle mapping:
  0: F
  1: F
  [: [+
  ]: ]-
Min (5.000, 5.000) to max (260.563, 292.782) Size (265.563, 297.782) (266, 298) Current (236.421, 190.355) 225.000
Calculation time: 0.020 s
