Python version: 2.7.13 (default, Nov 24 2017, 17:33:09)  [GCC 6.3.0 20170516]
l_system version: 01.00.00 --- Implementation used: LSystem and TurtleBitmap
Name: fractal binary tree
Alphabet: 01[]
Axiom: 0
Production rules:
  0: 1[0]0
  1: 11
Number of steps: 0
Size of each step: 1
Rule maximum number of variables: 3
Rule maximum number of constants: 2
Rule maximum size: 5
Axiom number of variables: 1
Axiom number of constants: 0
Axiom size: 1
Upper bounds for expansion of one production rule ...:
#it:     #var. +   #const. =      size (factor) <= (rule maximum size)^#it
                                 ... and for expansion of the axiom ---     #var. +   #const. =      size (factor) <= (axiom size)*(rule maximum size)^#it
  0:         1 +         0 =         1          <=                1 ---         1 +         0 =         1          <=                1
Expansion of the axiom:
#it:      size result
  0:         1 0
Calculation time: 0.000 s
Check: Comparison of iteration 0 with FastLSystem succeed.
Angle increment: 45.0
Turtle mapping:
  0: F
  1: F
  [: [+
  ]: ]-
Min (5.000, 5.000) to max (5.000, 15.000) Size (10.000, 20.000) (10, 20) Current (5.000, 15.000) 90.000
Calculation time: 0.019 s
