%!PS-Adobe-3.0 EPSF-3.0
%%BoundingBox: 0 0 145.000 10.000
%%Title: L-system "Cantor set"
%%Creator: Python package l_system 01.00.00 --- Olivier Pirson --- http://www.opimedia.be/
%%EndComments
save

% Function
%%%%%%%%%%
/l {  % x1 y1 x0 y0
    moveto lineto stroke
} def

% Main
%%%%%%
0.000 neg 0.000 neg translate
5.000 5.000 translate

5.000 0.000 0.000 0.000 l
15.000 0.000 10.000 0.000 l
35.000 0.000 30.000 0.000 l
45.000 0.000 40.000 0.000 l
95.000 0.000 90.000 0.000 l
105.000 0.000 100.000 0.000 l
125.000 0.000 120.000 0.000 l
135.000 0.000 130.000 0.000 l

showpage

restore
%%EOF
