%!PS-Adobe-3.0 EPSF-3.0
%%BoundingBox: 0 0 266.000 231.703
%%Title: L-system "Sierpinski triangle"
%%Creator: l_system.py 01.00.00 --- Olivier Pirson --- http://www.opimedia.be/
%%EndComments
save

% Function
%%%%%%%%%%
/l {  % x1 y1 x0 y0
    moveto lineto stroke
} def

% Main
%%%%%%
-256.000 neg 0.000 neg translate
5.000 5.000 translate

-4.000 0.000 0.000 0.000 l
-2.000 3.464 -4.000 0.000 l
-6.000 3.464 -2.000 3.464 l
-4.000 0.000 -6.000 3.464 l
-8.000 0.000 -4.000 0.000 l
-6.000 3.464 -8.000 0.000 l
-4.000 6.928 -6.000 3.464 l
-8.000 6.928 -4.000 6.928 l
-6.000 10.392 -8.000 6.928 l
-10.000 10.392 -6.000 10.392 l
-8.000 6.928 -10.000 10.392 l
-12.000 6.928 -8.000 6.928 l
-10.000 3.464 -12.000 6.928 l
-8.000 0.000 -10.000 3.464 l
-12.000 0.000 -8.000 0.000 l
-10.000 3.464 -12.000 0.000 l
-14.000 3.464 -10.000 3.464 l
-12.000 0.000 -14.000 3.464 l
-16.000 0.000 -12.000 0.000 l
-14.000 3.464 -16.000 0.000 l
-12.000 6.928 -14.000 3.464 l
-10.000 10.392 -12.000 6.928 l
-8.000 13.856 -10.000 10.392 l
-12.000 13.856 -8.000 13.856 l
-10.000 17.321 -12.000 13.856 l
-14.000 17.321 -10.000 17.321 l
-12.000 13.856 -14.000 17.321 l
-16.000 13.856 -12.000 13.856 l
-14.000 17.321 -16.000 13.856 l
-12.000 20.785 -14.000 17.321 l
-16.000 20.785 -12.000 20.785 l
-14.000 24.249 -16.000 20.785 l
-18.000 24.249 -14.000 24.249 l
-16.000 20.785 -18.000 24.249 l
-20.000 20.785 -16.000 20.785 l
-18.000 17.321 -20.000 20.785 l
-16.000 13.856 -18.000 17.321 l
-20.000 13.856 -16.000 13.856 l
-18.000 17.321 -20.000 13.856 l
-22.000 17.321 -18.000 17.321 l
-20.000 13.856 -22.000 17.321 l
-24.000 13.856 -20.000 13.856 l
-22.000 10.392 -24.000 13.856 l
-20.000 6.928 -22.000 10.392 l
-18.000 3.464 -20.000 6.928 l
-16.000 0.000 -18.000 3.464 l
-20.000 0.000 -16.000 0.000 l
-18.000 3.464 -20.000 0.000 l
-22.000 3.464 -18.000 3.464 l
-20.000 0.000 -22.000 3.464 l
-24.000 0.000 -20.000 0.000 l
-22.000 3.464 -24.000 0.000 l
-20.000 6.928 -22.000 3.464 l
-24.000 6.928 -20.000 6.928 l
-22.000 10.392 -24.000 6.928 l
-26.000 10.392 -22.000 10.392 l
-24.000 6.928 -26.000 10.392 l
-28.000 6.928 -24.000 6.928 l
-26.000 3.464 -28.000 6.928 l
-24.000 0.000 -26.000 3.464 l
-28.000 0.000 -24.000 0.000 l
-26.000 3.464 -28.000 0.000 l
-30.000 3.464 -26.000 3.464 l
-28.000 0.000 -30.000 3.464 l
-32.000 0.000 -28.000 0.000 l
-30.000 3.464 -32.000 0.000 l
-28.000 6.928 -30.000 3.464 l
-26.000 10.392 -28.000 6.928 l
-24.000 13.856 -26.000 10.392 l
-22.000 17.321 -24.000 13.856 l
-20.000 20.785 -22.000 17.321 l
-18.000 24.249 -20.000 20.785 l
-16.000 27.713 -18.000 24.249 l
-20.000 27.713 -16.000 27.713 l
-18.000 31.177 -20.000 27.713 l
-22.000 31.177 -18.000 31.177 l
-20.000 27.713 -22.000 31.177 l
-24.000 27.713 -20.000 27.713 l
-22.000 31.177 -24.000 27.713 l
-20.000 34.641 -22.000 31.177 l
-24.000 34.641 -20.000 34.641 l
-22.000 38.105 -24.000 34.641 l
-26.000 38.105 -22.000 38.105 l
-24.000 34.641 -26.000 38.105 l
-28.000 34.641 -24.000 34.641 l
-26.000 31.177 -28.000 34.641 l
-24.000 27.713 -26.000 31.177 l
-28.000 27.713 -24.000 27.713 l
-26.000 31.177 -28.000 27.713 l
-30.000 31.177 -26.000 31.177 l
-28.000 27.713 -30.000 31.177 l
-32.000 27.713 -28.000 27.713 l
-30.000 31.177 -32.000 27.713 l
-28.000 34.641 -30.000 31.177 l
-26.000 38.105 -28.000 34.641 l
-24.000 41.569 -26.000 38.105 l
-28.000 41.569 -24.000 41.569 l
-26.000 45.033 -28.000 41.569 l
-30.000 45.033 -26.000 45.033 l
-28.000 41.569 -30.000 45.033 l
-32.000 41.569 -28.000 41.569 l
-30.000 45.033 -32.000 41.569 l
-28.000 48.497 -30.000 45.033 l
-32.000 48.497 -28.000 48.497 l
-30.000 51.962 -32.000 48.497 l
-34.000 51.962 -30.000 51.962 l
-32.000 48.497 -34.000 51.962 l
-36.000 48.497 -32.000 48.497 l
-34.000 45.033 -36.000 48.497 l
-32.000 41.569 -34.000 45.033 l
-36.000 41.569 -32.000 41.569 l
-34.000 45.033 -36.000 41.569 l
-38.000 45.033 -34.000 45.033 l
-36.000 41.569 -38.000 45.033 l
-40.000 41.569 -36.000 41.569 l
-38.000 38.105 -40.000 41.569 l
-36.000 34.641 -38.000 38.105 l
-34.000 31.177 -36.000 34.641 l
-32.000 27.713 -34.000 31.177 l
-36.000 27.713 -32.000 27.713 l
-34.000 31.177 -36.000 27.713 l
-38.000 31.177 -34.000 31.177 l
-36.000 27.713 -38.000 31.177 l
-40.000 27.713 -36.000 27.713 l
-38.000 31.177 -40.000 27.713 l
-36.000 34.641 -38.000 31.177 l
-40.000 34.641 -36.000 34.641 l
-38.000 38.105 -40.000 34.641 l
-42.000 38.105 -38.000 38.105 l
-40.000 34.641 -42.000 38.105 l
-44.000 34.641 -40.000 34.641 l
-42.000 31.177 -44.000 34.641 l
-40.000 27.713 -42.000 31.177 l
-44.000 27.713 -40.000 27.713 l
-42.000 31.177 -44.000 27.713 l
-46.000 31.177 -42.000 31.177 l
-44.000 27.713 -46.000 31.177 l
-48.000 27.713 -44.000 27.713 l
-46.000 24.249 -48.000 27.713 l
-44.000 20.785 -46.000 24.249 l
-42.000 17.321 -44.000 20.785 l
-40.000 13.856 -42.000 17.321 l
-38.000 10.392 -40.000 13.856 l
-36.000 6.928 -38.000 10.392 l
-34.000 3.464 -36.000 6.928 l
-32.000 0.000 -34.000 3.464 l
-36.000 0.000 -32.000 0.000 l
-34.000 3.464 -36.000 0.000 l
-38.000 3.464 -34.000 3.464 l
-36.000 0.000 -38.000 3.464 l
-40.000 0.000 -36.000 0.000 l
-38.000 3.464 -40.000 0.000 l
-36.000 6.928 -38.000 3.464 l
-40.000 6.928 -36.000 6.928 l
-38.000 10.392 -40.000 6.928 l
-42.000 10.392 -38.000 10.392 l
-40.000 6.928 -42.000 10.392 l
-44.000 6.928 -40.000 6.928 l
-42.000 3.464 -44.000 6.928 l
-40.000 0.000 -42.000 3.464 l
-44.000 0.000 -40.000 0.000 l
-42.000 3.464 -44.000 0.000 l
-46.000 3.464 -42.000 3.464 l
-44.000 0.000 -46.000 3.464 l
-48.000 0.000 -44.000 0.000 l
-46.000 3.464 -48.000 0.000 l
-44.000 6.928 -46.000 3.464 l
-42.000 10.392 -44.000 6.928 l
-40.000 13.856 -42.000 10.392 l
-44.000 13.856 -40.000 13.856 l
-42.000 17.321 -44.000 13.856 l
-46.000 17.321 -42.000 17.321 l
-44.000 13.856 -46.000 17.321 l
-48.000 13.856 -44.000 13.856 l
-46.000 17.321 -48.000 13.856 l
-44.000 20.785 -46.000 17.321 l
-48.000 20.785 -44.000 20.785 l
-46.000 24.249 -48.000 20.785 l
-50.000 24.249 -46.000 24.249 l
-48.000 20.785 -50.000 24.249 l
-52.000 20.785 -48.000 20.785 l
-50.000 17.321 -52.000 20.785 l
-48.000 13.856 -50.000 17.321 l
-52.000 13.856 -48.000 13.856 l
-50.000 17.321 -52.000 13.856 l
-54.000 17.321 -50.000 17.321 l
-52.000 13.856 -54.000 17.321 l
-56.000 13.856 -52.000 13.856 l
-54.000 10.392 -56.000 13.856 l
-52.000 6.928 -54.000 10.392 l
-50.000 3.464 -52.000 6.928 l
-48.000 0.000 -50.000 3.464 l
-52.000 0.000 -48.000 0.000 l
-50.000 3.464 -52.000 0.000 l
-54.000 3.464 -50.000 3.464 l
-52.000 0.000 -54.000 3.464 l
-56.000 0.000 -52.000 0.000 l
-54.000 3.464 -56.000 0.000 l
-52.000 6.928 -54.000 3.464 l
-56.000 6.928 -52.000 6.928 l
-54.000 10.392 -56.000 6.928 l
-58.000 10.392 -54.000 10.392 l
-56.000 6.928 -58.000 10.392 l
-60.000 6.928 -56.000 6.928 l
-58.000 3.464 -60.000 6.928 l
-56.000 0.000 -58.000 3.464 l
-60.000 0.000 -56.000 0.000 l
-58.000 3.464 -60.000 0.000 l
-62.000 3.464 -58.000 3.464 l
-60.000 0.000 -62.000 3.464 l
-64.000 0.000 -60.000 0.000 l
-62.000 3.464 -64.000 0.000 l
-60.000 6.928 -62.000 3.464 l
-58.000 10.392 -60.000 6.928 l
-56.000 13.856 -58.000 10.392 l
-54.000 17.321 -56.000 13.856 l
-52.000 20.785 -54.000 17.321 l
-50.000 24.249 -52.000 20.785 l
-48.000 27.713 -50.000 24.249 l
-46.000 31.177 -48.000 27.713 l
-44.000 34.641 -46.000 31.177 l
-42.000 38.105 -44.000 34.641 l
-40.000 41.569 -42.000 38.105 l
-38.000 45.033 -40.000 41.569 l
-36.000 48.497 -38.000 45.033 l
-34.000 51.962 -36.000 48.497 l
-32.000 55.426 -34.000 51.962 l
-36.000 55.426 -32.000 55.426 l
-34.000 58.890 -36.000 55.426 l
-38.000 58.890 -34.000 58.890 l
-36.000 55.426 -38.000 58.890 l
-40.000 55.426 -36.000 55.426 l
-38.000 58.890 -40.000 55.426 l
-36.000 62.354 -38.000 58.890 l
-40.000 62.354 -36.000 62.354 l
-38.000 65.818 -40.000 62.354 l
-42.000 65.818 -38.000 65.818 l
-40.000 62.354 -42.000 65.818 l
-44.000 62.354 -40.000 62.354 l
-42.000 58.890 -44.000 62.354 l
-40.000 55.426 -42.000 58.890 l
-44.000 55.426 -40.000 55.426 l
-42.000 58.890 -44.000 55.426 l
-46.000 58.890 -42.000 58.890 l
-44.000 55.426 -46.000 58.890 l
-48.000 55.426 -44.000 55.426 l
-46.000 58.890 -48.000 55.426 l
-44.000 62.354 -46.000 58.890 l
-42.000 65.818 -44.000 62.354 l
-40.000 69.282 -42.000 65.818 l
-44.000 69.282 -40.000 69.282 l
-42.000 72.746 -44.000 69.282 l
-46.000 72.746 -42.000 72.746 l
-44.000 69.282 -46.000 72.746 l
-48.000 69.282 -44.000 69.282 l
-46.000 72.746 -48.000 69.282 l
-44.000 76.210 -46.000 72.746 l
-48.000 76.210 -44.000 76.210 l
-46.000 79.674 -48.000 76.210 l
-50.000 79.674 -46.000 79.674 l
-48.000 76.210 -50.000 79.674 l
-52.000 76.210 -48.000 76.210 l
-50.000 72.746 -52.000 76.210 l
-48.000 69.282 -50.000 72.746 l
-52.000 69.282 -48.000 69.282 l
-50.000 72.746 -52.000 69.282 l
-54.000 72.746 -50.000 72.746 l
-52.000 69.282 -54.000 72.746 l
-56.000 69.282 -52.000 69.282 l
-54.000 65.818 -56.000 69.282 l
-52.000 62.354 -54.000 65.818 l
-50.000 58.890 -52.000 62.354 l
-48.000 55.426 -50.000 58.890 l
-52.000 55.426 -48.000 55.426 l
-50.000 58.890 -52.000 55.426 l
-54.000 58.890 -50.000 58.890 l
-52.000 55.426 -54.000 58.890 l
-56.000 55.426 -52.000 55.426 l
-54.000 58.890 -56.000 55.426 l
-52.000 62.354 -54.000 58.890 l
-56.000 62.354 -52.000 62.354 l
-54.000 65.818 -56.000 62.354 l
-58.000 65.818 -54.000 65.818 l
-56.000 62.354 -58.000 65.818 l
-60.000 62.354 -56.000 62.354 l
-58.000 58.890 -60.000 62.354 l
-56.000 55.426 -58.000 58.890 l
-60.000 55.426 -56.000 55.426 l
-58.000 58.890 -60.000 55.426 l
-62.000 58.890 -58.000 58.890 l
-60.000 55.426 -62.000 58.890 l
-64.000 55.426 -60.000 55.426 l
-62.000 58.890 -64.000 55.426 l
-60.000 62.354 -62.000 58.890 l
-58.000 65.818 -60.000 62.354 l
-56.000 69.282 -58.000 65.818 l
-54.000 72.746 -56.000 69.282 l
-52.000 76.210 -54.000 72.746 l
-50.000 79.674 -52.000 76.210 l
-48.000 83.138 -50.000 79.674 l
-52.000 83.138 -48.000 83.138 l
-50.000 86.603 -52.000 83.138 l
-54.000 86.603 -50.000 86.603 l
-52.000 83.138 -54.000 86.603 l
-56.000 83.138 -52.000 83.138 l
-54.000 86.603 -56.000 83.138 l
-52.000 90.067 -54.000 86.603 l
-56.000 90.067 -52.000 90.067 l
-54.000 93.531 -56.000 90.067 l
-58.000 93.531 -54.000 93.531 l
-56.000 90.067 -58.000 93.531 l
-60.000 90.067 -56.000 90.067 l
-58.000 86.603 -60.000 90.067 l
-56.000 83.138 -58.000 86.603 l
-60.000 83.138 -56.000 83.138 l
-58.000 86.603 -60.000 83.138 l
-62.000 86.603 -58.000 86.603 l
-60.000 83.138 -62.000 86.603 l
-64.000 83.138 -60.000 83.138 l
-62.000 86.603 -64.000 83.138 l
-60.000 90.067 -62.000 86.603 l
-58.000 93.531 -60.000 90.067 l
-56.000 96.995 -58.000 93.531 l
-60.000 96.995 -56.000 96.995 l
-58.000 100.459 -60.000 96.995 l
-62.000 100.459 -58.000 100.459 l
-60.000 96.995 -62.000 100.459 l
-64.000 96.995 -60.000 96.995 l
-62.000 100.459 -64.000 96.995 l
-60.000 103.923 -62.000 100.459 l
-64.000 103.923 -60.000 103.923 l
-62.000 107.387 -64.000 103.923 l
-66.000 107.387 -62.000 107.387 l
-64.000 103.923 -66.000 107.387 l
-68.000 103.923 -64.000 103.923 l
-66.000 100.459 -68.000 103.923 l
-64.000 96.995 -66.000 100.459 l
-68.000 96.995 -64.000 96.995 l
-66.000 100.459 -68.000 96.995 l
-70.000 100.459 -66.000 100.459 l
-68.000 96.995 -70.000 100.459 l
-72.000 96.995 -68.000 96.995 l
-70.000 93.531 -72.000 96.995 l
-68.000 90.067 -70.000 93.531 l
-66.000 86.603 -68.000 90.067 l
-64.000 83.138 -66.000 86.603 l
-68.000 83.138 -64.000 83.138 l
-66.000 86.603 -68.000 83.138 l
-70.000 86.603 -66.000 86.603 l
-68.000 83.138 -70.000 86.603 l
-72.000 83.138 -68.000 83.138 l
-70.000 86.603 -72.000 83.138 l
-68.000 90.067 -70.000 86.603 l
-72.000 90.067 -68.000 90.067 l
-70.000 93.531 -72.000 90.067 l
-74.000 93.531 -70.000 93.531 l
-72.000 90.067 -74.000 93.531 l
-76.000 90.067 -72.000 90.067 l
-74.000 86.603 -76.000 90.067 l
-72.000 83.138 -74.000 86.603 l
-76.000 83.138 -72.000 83.138 l
-74.000 86.603 -76.000 83.138 l
-78.000 86.603 -74.000 86.603 l
-76.000 83.138 -78.000 86.603 l
-80.000 83.138 -76.000 83.138 l
-78.000 79.674 -80.000 83.138 l
-76.000 76.210 -78.000 79.674 l
-74.000 72.746 -76.000 76.210 l
-72.000 69.282 -74.000 72.746 l
-70.000 65.818 -72.000 69.282 l
-68.000 62.354 -70.000 65.818 l
-66.000 58.890 -68.000 62.354 l
-64.000 55.426 -66.000 58.890 l
-68.000 55.426 -64.000 55.426 l
-66.000 58.890 -68.000 55.426 l
-70.000 58.890 -66.000 58.890 l
-68.000 55.426 -70.000 58.890 l
-72.000 55.426 -68.000 55.426 l
-70.000 58.890 -72.000 55.426 l
-68.000 62.354 -70.000 58.890 l
-72.000 62.354 -68.000 62.354 l
-70.000 65.818 -72.000 62.354 l
-74.000 65.818 -70.000 65.818 l
-72.000 62.354 -74.000 65.818 l
-76.000 62.354 -72.000 62.354 l
-74.000 58.890 -76.000 62.354 l
-72.000 55.426 -74.000 58.890 l
-76.000 55.426 -72.000 55.426 l
-74.000 58.890 -76.000 55.426 l
-78.000 58.890 -74.000 58.890 l
-76.000 55.426 -78.000 58.890 l
-80.000 55.426 -76.000 55.426 l
-78.000 58.890 -80.000 55.426 l
-76.000 62.354 -78.000 58.890 l
-74.000 65.818 -76.000 62.354 l
-72.000 69.282 -74.000 65.818 l
-76.000 69.282 -72.000 69.282 l
-74.000 72.746 -76.000 69.282 l
-78.000 72.746 -74.000 72.746 l
-76.000 69.282 -78.000 72.746 l
-80.000 69.282 -76.000 69.282 l
-78.000 72.746 -80.000 69.282 l
-76.000 76.210 -78.000 72.746 l
-80.000 76.210 -76.000 76.210 l
-78.000 79.674 -80.000 76.210 l
-82.000 79.674 -78.000 79.674 l
-80.000 76.210 -82.000 79.674 l
-84.000 76.210 -80.000 76.210 l
-82.000 72.746 -84.000 76.210 l
-80.000 69.282 -82.000 72.746 l
-84.000 69.282 -80.000 69.282 l
-82.000 72.746 -84.000 69.282 l
-86.000 72.746 -82.000 72.746 l
-84.000 69.282 -86.000 72.746 l
-88.000 69.282 -84.000 69.282 l
-86.000 65.818 -88.000 69.282 l
-84.000 62.354 -86.000 65.818 l
-82.000 58.890 -84.000 62.354 l
-80.000 55.426 -82.000 58.890 l
-84.000 55.426 -80.000 55.426 l
-82.000 58.890 -84.000 55.426 l
-86.000 58.890 -82.000 58.890 l
-84.000 55.426 -86.000 58.890 l
-88.000 55.426 -84.000 55.426 l
-86.000 58.890 -88.000 55.426 l
-84.000 62.354 -86.000 58.890 l
-88.000 62.354 -84.000 62.354 l
-86.000 65.818 -88.000 62.354 l
-90.000 65.818 -86.000 65.818 l
-88.000 62.354 -90.000 65.818 l
-92.000 62.354 -88.000 62.354 l
-90.000 58.890 -92.000 62.354 l
-88.000 55.426 -90.000 58.890 l
-92.000 55.426 -88.000 55.426 l
-90.000 58.890 -92.000 55.426 l
-94.000 58.890 -90.000 58.890 l
-92.000 55.426 -94.000 58.890 l
-96.000 55.426 -92.000 55.426 l
-94.000 51.962 -96.000 55.426 l
-92.000 48.497 -94.000 51.962 l
-90.000 45.033 -92.000 48.497 l
-88.000 41.569 -90.000 45.033 l
-86.000 38.105 -88.000 41.569 l
-84.000 34.641 -86.000 38.105 l
-82.000 31.177 -84.000 34.641 l
-80.000 27.713 -82.000 31.177 l
-78.000 24.249 -80.000 27.713 l
-76.000 20.785 -78.000 24.249 l
-74.000 17.321 -76.000 20.785 l
-72.000 13.856 -74.000 17.321 l
-70.000 10.392 -72.000 13.856 l
-68.000 6.928 -70.000 10.392 l
-66.000 3.464 -68.000 6.928 l
-64.000 0.000 -66.000 3.464 l
-68.000 0.000 -64.000 0.000 l
-66.000 3.464 -68.000 0.000 l
-70.000 3.464 -66.000 3.464 l
-68.000 0.000 -70.000 3.464 l
-72.000 0.000 -68.000 0.000 l
-70.000 3.464 -72.000 0.000 l
-68.000 6.928 -70.000 3.464 l
-72.000 6.928 -68.000 6.928 l
-70.000 10.392 -72.000 6.928 l
-74.000 10.392 -70.000 10.392 l
-72.000 6.928 -74.000 10.392 l
-76.000 6.928 -72.000 6.928 l
-74.000 3.464 -76.000 6.928 l
-72.000 0.000 -74.000 3.464 l
-76.000 0.000 -72.000 0.000 l
-74.000 3.464 -76.000 0.000 l
-78.000 3.464 -74.000 3.464 l
-76.000 0.000 -78.000 3.464 l
-80.000 0.000 -76.000 0.000 l
-78.000 3.464 -80.000 0.000 l
-76.000 6.928 -78.000 3.464 l
-74.000 10.392 -76.000 6.928 l
-72.000 13.856 -74.000 10.392 l
-76.000 13.856 -72.000 13.856 l
-74.000 17.321 -76.000 13.856 l
-78.000 17.321 -74.000 17.321 l
-76.000 13.856 -78.000 17.321 l
-80.000 13.856 -76.000 13.856 l
-78.000 17.321 -80.000 13.856 l
-76.000 20.785 -78.000 17.321 l
-80.000 20.785 -76.000 20.785 l
-78.000 24.249 -80.000 20.785 l
-82.000 24.249 -78.000 24.249 l
-80.000 20.785 -82.000 24.249 l
-84.000 20.785 -80.000 20.785 l
-82.000 17.321 -84.000 20.785 l
-80.000 13.856 -82.000 17.321 l
-84.000 13.856 -80.000 13.856 l
-82.000 17.321 -84.000 13.856 l
-86.000 17.321 -82.000 17.321 l
-84.000 13.856 -86.000 17.321 l
-88.000 13.856 -84.000 13.856 l
-86.000 10.392 -88.000 13.856 l
-84.000 6.928 -86.000 10.392 l
-82.000 3.464 -84.000 6.928 l
-80.000 0.000 -82.000 3.464 l
-84.000 0.000 -80.000 0.000 l
-82.000 3.464 -84.000 0.000 l
-86.000 3.464 -82.000 3.464 l
-84.000 0.000 -86.000 3.464 l
-88.000 0.000 -84.000 0.000 l
-86.000 3.464 -88.000 0.000 l
-84.000 6.928 -86.000 3.464 l
-88.000 6.928 -84.000 6.928 l
-86.000 10.392 -88.000 6.928 l
-90.000 10.392 -86.000 10.392 l
-88.000 6.928 -90.000 10.392 l
-92.000 6.928 -88.000 6.928 l
-90.000 3.464 -92.000 6.928 l
-88.000 0.000 -90.000 3.464 l
-92.000 0.000 -88.000 0.000 l
-90.000 3.464 -92.000 0.000 l
-94.000 3.464 -90.000 3.464 l
-92.000 0.000 -94.000 3.464 l
-96.000 0.000 -92.000 0.000 l
-94.000 3.464 -96.000 0.000 l
-92.000 6.928 -94.000 3.464 l
-90.000 10.392 -92.000 6.928 l
-88.000 13.856 -90.000 10.392 l
-86.000 17.321 -88.000 13.856 l
-84.000 20.785 -86.000 17.321 l
-82.000 24.249 -84.000 20.785 l
-80.000 27.713 -82.000 24.249 l
-84.000 27.713 -80.000 27.713 l
-82.000 31.177 -84.000 27.713 l
-86.000 31.177 -82.000 31.177 l
-84.000 27.713 -86.000 31.177 l
-88.000 27.713 -84.000 27.713 l
-86.000 31.177 -88.000 27.713 l
-84.000 34.641 -86.000 31.177 l
-88.000 34.641 -84.000 34.641 l
-86.000 38.105 -88.000 34.641 l
-90.000 38.105 -86.000 38.105 l
-88.000 34.641 -90.000 38.105 l
-92.000 34.641 -88.000 34.641 l
-90.000 31.177 -92.000 34.641 l
-88.000 27.713 -90.000 31.177 l
-92.000 27.713 -88.000 27.713 l
-90.000 31.177 -92.000 27.713 l
-94.000 31.177 -90.000 31.177 l
-92.000 27.713 -94.000 31.177 l
-96.000 27.713 -92.000 27.713 l
-94.000 31.177 -96.000 27.713 l
-92.000 34.641 -94.000 31.177 l
-90.000 38.105 -92.000 34.641 l
-88.000 41.569 -90.000 38.105 l
-92.000 41.569 -88.000 41.569 l
-90.000 45.033 -92.000 41.569 l
-94.000 45.033 -90.000 45.033 l
-92.000 41.569 -94.000 45.033 l
-96.000 41.569 -92.000 41.569 l
-94.000 45.033 -96.000 41.569 l
-92.000 48.497 -94.000 45.033 l
-96.000 48.497 -92.000 48.497 l
-94.000 51.962 -96.000 48.497 l
-98.000 51.962 -94.000 51.962 l
-96.000 48.497 -98.000 51.962 l
-100.000 48.497 -96.000 48.497 l
-98.000 45.033 -100.000 48.497 l
-96.000 41.569 -98.000 45.033 l
-100.000 41.569 -96.000 41.569 l
-98.000 45.033 -100.000 41.569 l
-102.000 45.033 -98.000 45.033 l
-100.000 41.569 -102.000 45.033 l
-104.000 41.569 -100.000 41.569 l
-102.000 38.105 -104.000 41.569 l
-100.000 34.641 -102.000 38.105 l
-98.000 31.177 -100.000 34.641 l
-96.000 27.713 -98.000 31.177 l
-100.000 27.713 -96.000 27.713 l
-98.000 31.177 -100.000 27.713 l
-102.000 31.177 -98.000 31.177 l
-100.000 27.713 -102.000 31.177 l
-104.000 27.713 -100.000 27.713 l
-102.000 31.177 -104.000 27.713 l
-100.000 34.641 -102.000 31.177 l
-104.000 34.641 -100.000 34.641 l
-102.000 38.105 -104.000 34.641 l
-106.000 38.105 -102.000 38.105 l
-104.000 34.641 -106.000 38.105 l
-108.000 34.641 -104.000 34.641 l
-106.000 31.177 -108.000 34.641 l
-104.000 27.713 -106.000 31.177 l
-108.000 27.713 -104.000 27.713 l
-106.000 31.177 -108.000 27.713 l
-110.000 31.177 -106.000 31.177 l
-108.000 27.713 -110.000 31.177 l
-112.000 27.713 -108.000 27.713 l
-110.000 24.249 -112.000 27.713 l
-108.000 20.785 -110.000 24.249 l
-106.000 17.321 -108.000 20.785 l
-104.000 13.856 -106.000 17.321 l
-102.000 10.392 -104.000 13.856 l
-100.000 6.928 -102.000 10.392 l
-98.000 3.464 -100.000 6.928 l
-96.000 0.000 -98.000 3.464 l
-100.000 0.000 -96.000 0.000 l
-98.000 3.464 -100.000 0.000 l
-102.000 3.464 -98.000 3.464 l
-100.000 0.000 -102.000 3.464 l
-104.000 0.000 -100.000 0.000 l
-102.000 3.464 -104.000 0.000 l
-100.000 6.928 -102.000 3.464 l
-104.000 6.928 -100.000 6.928 l
-102.000 10.392 -104.000 6.928 l
-106.000 10.392 -102.000 10.392 l
-104.000 6.928 -106.000 10.392 l
-108.000 6.928 -104.000 6.928 l
-106.000 3.464 -108.000 6.928 l
-104.000 0.000 -106.000 3.464 l
-108.000 0.000 -104.000 0.000 l
-106.000 3.464 -108.000 0.000 l
-110.000 3.464 -106.000 3.464 l
-108.000 0.000 -110.000 3.464 l
-112.000 0.000 -108.000 0.000 l
-110.000 3.464 -112.000 0.000 l
-108.000 6.928 -110.000 3.464 l
-106.000 10.392 -108.000 6.928 l
-104.000 13.856 -106.000 10.392 l
-108.000 13.856 -104.000 13.856 l
-106.000 17.321 -108.000 13.856 l
-110.000 17.321 -106.000 17.321 l
-108.000 13.856 -110.000 17.321 l
-112.000 13.856 -108.000 13.856 l
-110.000 17.321 -112.000 13.856 l
-108.000 20.785 -110.000 17.321 l
-112.000 20.785 -108.000 20.785 l
-110.000 24.249 -112.000 20.785 l
-114.000 24.249 -110.000 24.249 l
-112.000 20.785 -114.000 24.249 l
-116.000 20.785 -112.000 20.785 l
-114.000 17.321 -116.000 20.785 l
-112.000 13.856 -114.000 17.321 l
-116.000 13.856 -112.000 13.856 l
-114.000 17.321 -116.000 13.856 l
-118.000 17.321 -114.000 17.321 l
-116.000 13.856 -118.000 17.321 l
-120.000 13.856 -116.000 13.856 l
-118.000 10.392 -120.000 13.856 l
-116.000 6.928 -118.000 10.392 l
-114.000 3.464 -116.000 6.928 l
-112.000 0.000 -114.000 3.464 l
-116.000 0.000 -112.000 0.000 l
-114.000 3.464 -116.000 0.000 l
-118.000 3.464 -114.000 3.464 l
-116.000 0.000 -118.000 3.464 l
-120.000 0.000 -116.000 0.000 l
-118.000 3.464 -120.000 0.000 l
-116.000 6.928 -118.000 3.464 l
-120.000 6.928 -116.000 6.928 l
-118.000 10.392 -120.000 6.928 l
-122.000 10.392 -118.000 10.392 l
-120.000 6.928 -122.000 10.392 l
-124.000 6.928 -120.000 6.928 l
-122.000 3.464 -124.000 6.928 l
-120.000 0.000 -122.000 3.464 l
-124.000 0.000 -120.000 0.000 l
-122.000 3.464 -124.000 0.000 l
-126.000 3.464 -122.000 3.464 l
-124.000 0.000 -126.000 3.464 l
-128.000 0.000 -124.000 0.000 l
-126.000 3.464 -128.000 0.000 l
-124.000 6.928 -126.000 3.464 l
-122.000 10.392 -124.000 6.928 l
-120.000 13.856 -122.000 10.392 l
-118.000 17.321 -120.000 13.856 l
-116.000 20.785 -118.000 17.321 l
-114.000 24.249 -116.000 20.785 l
-112.000 27.713 -114.000 24.249 l
-110.000 31.177 -112.000 27.713 l
-108.000 34.641 -110.000 31.177 l
-106.000 38.105 -108.000 34.641 l
-104.000 41.569 -106.000 38.105 l
-102.000 45.033 -104.000 41.569 l
-100.000 48.497 -102.000 45.033 l
-98.000 51.962 -100.000 48.497 l
-96.000 55.426 -98.000 51.962 l
-94.000 58.890 -96.000 55.426 l
-92.000 62.354 -94.000 58.890 l
-90.000 65.818 -92.000 62.354 l
-88.000 69.282 -90.000 65.818 l
-86.000 72.746 -88.000 69.282 l
-84.000 76.210 -86.000 72.746 l
-82.000 79.674 -84.000 76.210 l
-80.000 83.138 -82.000 79.674 l
-78.000 86.603 -80.000 83.138 l
-76.000 90.067 -78.000 86.603 l
-74.000 93.531 -76.000 90.067 l
-72.000 96.995 -74.000 93.531 l
-70.000 100.459 -72.000 96.995 l
-68.000 103.923 -70.000 100.459 l
-66.000 107.387 -68.000 103.923 l
-64.000 110.851 -66.000 107.387 l
-68.000 110.851 -64.000 110.851 l
-66.000 114.315 -68.000 110.851 l
-70.000 114.315 -66.000 114.315 l
-68.000 110.851 -70.000 114.315 l
-72.000 110.851 -68.000 110.851 l
-70.000 114.315 -72.000 110.851 l
-68.000 117.779 -70.000 114.315 l
-72.000 117.779 -68.000 117.779 l
-70.000 121.244 -72.000 117.779 l
-74.000 121.244 -70.000 121.244 l
-72.000 117.779 -74.000 121.244 l
-76.000 117.779 -72.000 117.779 l
-74.000 114.315 -76.000 117.779 l
-72.000 110.851 -74.000 114.315 l
-76.000 110.851 -72.000 110.851 l
-74.000 114.315 -76.000 110.851 l
-78.000 114.315 -74.000 114.315 l
-76.000 110.851 -78.000 114.315 l
-80.000 110.851 -76.000 110.851 l
-78.000 114.315 -80.000 110.851 l
-76.000 117.779 -78.000 114.315 l
-74.000 121.244 -76.000 117.779 l
-72.000 124.708 -74.000 121.244 l
-76.000 124.708 -72.000 124.708 l
-74.000 128.172 -76.000 124.708 l
-78.000 128.172 -74.000 128.172 l
-76.000 124.708 -78.000 128.172 l
-80.000 124.708 -76.000 124.708 l
-78.000 128.172 -80.000 124.708 l
-76.000 131.636 -78.000 128.172 l
-80.000 131.636 -76.000 131.636 l
-78.000 135.100 -80.000 131.636 l
-82.000 135.100 -78.000 135.100 l
-80.000 131.636 -82.000 135.100 l
-84.000 131.636 -80.000 131.636 l
-82.000 128.172 -84.000 131.636 l
-80.000 124.708 -82.000 128.172 l
-84.000 124.708 -80.000 124.708 l
-82.000 128.172 -84.000 124.708 l
-86.000 128.172 -82.000 128.172 l
-84.000 124.708 -86.000 128.172 l
-88.000 124.708 -84.000 124.708 l
-86.000 121.244 -88.000 124.708 l
-84.000 117.779 -86.000 121.244 l
-82.000 114.315 -84.000 117.779 l
-80.000 110.851 -82.000 114.315 l
-84.000 110.851 -80.000 110.851 l
-82.000 114.315 -84.000 110.851 l
-86.000 114.315 -82.000 114.315 l
-84.000 110.851 -86.000 114.315 l
-88.000 110.851 -84.000 110.851 l
-86.000 114.315 -88.000 110.851 l
-84.000 117.779 -86.000 114.315 l
-88.000 117.779 -84.000 117.779 l
-86.000 121.244 -88.000 117.779 l
-90.000 121.244 -86.000 121.244 l
-88.000 117.779 -90.000 121.244 l
-92.000 117.779 -88.000 117.779 l
-90.000 114.315 -92.000 117.779 l
-88.000 110.851 -90.000 114.315 l
-92.000 110.851 -88.000 110.851 l
-90.000 114.315 -92.000 110.851 l
-94.000 114.315 -90.000 114.315 l
-92.000 110.851 -94.000 114.315 l
-96.000 110.851 -92.000 110.851 l
-94.000 114.315 -96.000 110.851 l
-92.000 117.779 -94.000 114.315 l
-90.000 121.244 -92.000 117.779 l
-88.000 124.708 -90.000 121.244 l
-86.000 128.172 -88.000 124.708 l
-84.000 131.636 -86.000 128.172 l
-82.000 135.100 -84.000 131.636 l
-80.000 138.564 -82.000 135.100 l
-84.000 138.564 -80.000 138.564 l
-82.000 142.028 -84.000 138.564 l
-86.000 142.028 -82.000 142.028 l
-84.000 138.564 -86.000 142.028 l
-88.000 138.564 -84.000 138.564 l
-86.000 142.028 -88.000 138.564 l
-84.000 145.492 -86.000 142.028 l
-88.000 145.492 -84.000 145.492 l
-86.000 148.956 -88.000 145.492 l
-90.000 148.956 -86.000 148.956 l
-88.000 145.492 -90.000 148.956 l
-92.000 145.492 -88.000 145.492 l
-90.000 142.028 -92.000 145.492 l
-88.000 138.564 -90.000 142.028 l
-92.000 138.564 -88.000 138.564 l
-90.000 142.028 -92.000 138.564 l
-94.000 142.028 -90.000 142.028 l
-92.000 138.564 -94.000 142.028 l
-96.000 138.564 -92.000 138.564 l
-94.000 142.028 -96.000 138.564 l
-92.000 145.492 -94.000 142.028 l
-90.000 148.956 -92.000 145.492 l
-88.000 152.420 -90.000 148.956 l
-92.000 152.420 -88.000 152.420 l
-90.000 155.885 -92.000 152.420 l
-94.000 155.885 -90.000 155.885 l
-92.000 152.420 -94.000 155.885 l
-96.000 152.420 -92.000 152.420 l
-94.000 155.885 -96.000 152.420 l
-92.000 159.349 -94.000 155.885 l
-96.000 159.349 -92.000 159.349 l
-94.000 162.813 -96.000 159.349 l
-98.000 162.813 -94.000 162.813 l
-96.000 159.349 -98.000 162.813 l
-100.000 159.349 -96.000 159.349 l
-98.000 155.885 -100.000 159.349 l
-96.000 152.420 -98.000 155.885 l
-100.000 152.420 -96.000 152.420 l
-98.000 155.885 -100.000 152.420 l
-102.000 155.885 -98.000 155.885 l
-100.000 152.420 -102.000 155.885 l
-104.000 152.420 -100.000 152.420 l
-102.000 148.956 -104.000 152.420 l
-100.000 145.492 -102.000 148.956 l
-98.000 142.028 -100.000 145.492 l
-96.000 138.564 -98.000 142.028 l
-100.000 138.564 -96.000 138.564 l
-98.000 142.028 -100.000 138.564 l
-102.000 142.028 -98.000 142.028 l
-100.000 138.564 -102.000 142.028 l
-104.000 138.564 -100.000 138.564 l
-102.000 142.028 -104.000 138.564 l
-100.000 145.492 -102.000 142.028 l
-104.000 145.492 -100.000 145.492 l
-102.000 148.956 -104.000 145.492 l
-106.000 148.956 -102.000 148.956 l
-104.000 145.492 -106.000 148.956 l
-108.000 145.492 -104.000 145.492 l
-106.000 142.028 -108.000 145.492 l
-104.000 138.564 -106.000 142.028 l
-108.000 138.564 -104.000 138.564 l
-106.000 142.028 -108.000 138.564 l
-110.000 142.028 -106.000 142.028 l
-108.000 138.564 -110.000 142.028 l
-112.000 138.564 -108.000 138.564 l
-110.000 135.100 -112.000 138.564 l
-108.000 131.636 -110.000 135.100 l
-106.000 128.172 -108.000 131.636 l
-104.000 124.708 -106.000 128.172 l
-102.000 121.244 -104.000 124.708 l
-100.000 117.779 -102.000 121.244 l
-98.000 114.315 -100.000 117.779 l
-96.000 110.851 -98.000 114.315 l
-100.000 110.851 -96.000 110.851 l
-98.000 114.315 -100.000 110.851 l
-102.000 114.315 -98.000 114.315 l
-100.000 110.851 -102.000 114.315 l
-104.000 110.851 -100.000 110.851 l
-102.000 114.315 -104.000 110.851 l
-100.000 117.779 -102.000 114.315 l
-104.000 117.779 -100.000 117.779 l
-102.000 121.244 -104.000 117.779 l
-106.000 121.244 -102.000 121.244 l
-104.000 117.779 -106.000 121.244 l
-108.000 117.779 -104.000 117.779 l
-106.000 114.315 -108.000 117.779 l
-104.000 110.851 -106.000 114.315 l
-108.000 110.851 -104.000 110.851 l
-106.000 114.315 -108.000 110.851 l
-110.000 114.315 -106.000 114.315 l
-108.000 110.851 -110.000 114.315 l
-112.000 110.851 -108.000 110.851 l
-110.000 114.315 -112.000 110.851 l
-108.000 117.779 -110.000 114.315 l
-106.000 121.244 -108.000 117.779 l
-104.000 124.708 -106.000 121.244 l
-108.000 124.708 -104.000 124.708 l
-106.000 128.172 -108.000 124.708 l
-110.000 128.172 -106.000 128.172 l
-108.000 124.708 -110.000 128.172 l
-112.000 124.708 -108.000 124.708 l
-110.000 128.172 -112.000 124.708 l
-108.000 131.636 -110.000 128.172 l
-112.000 131.636 -108.000 131.636 l
-110.000 135.100 -112.000 131.636 l
-114.000 135.100 -110.000 135.100 l
-112.000 131.636 -114.000 135.100 l
-116.000 131.636 -112.000 131.636 l
-114.000 128.172 -116.000 131.636 l
-112.000 124.708 -114.000 128.172 l
-116.000 124.708 -112.000 124.708 l
-114.000 128.172 -116.000 124.708 l
-118.000 128.172 -114.000 128.172 l
-116.000 124.708 -118.000 128.172 l
-120.000 124.708 -116.000 124.708 l
-118.000 121.244 -120.000 124.708 l
-116.000 117.779 -118.000 121.244 l
-114.000 114.315 -116.000 117.779 l
-112.000 110.851 -114.000 114.315 l
-116.000 110.851 -112.000 110.851 l
-114.000 114.315 -116.000 110.851 l
-118.000 114.315 -114.000 114.315 l
-116.000 110.851 -118.000 114.315 l
-120.000 110.851 -116.000 110.851 l
-118.000 114.315 -120.000 110.851 l
-116.000 117.779 -118.000 114.315 l
-120.000 117.779 -116.000 117.779 l
-118.000 121.244 -120.000 117.779 l
-122.000 121.244 -118.000 121.244 l
-120.000 117.779 -122.000 121.244 l
-124.000 117.779 -120.000 117.779 l
-122.000 114.315 -124.000 117.779 l
-120.000 110.851 -122.000 114.315 l
-124.000 110.851 -120.000 110.851 l
-122.000 114.315 -124.000 110.851 l
-126.000 114.315 -122.000 114.315 l
-124.000 110.851 -126.000 114.315 l
-128.000 110.851 -124.000 110.851 l
-126.000 114.315 -128.000 110.851 l
-124.000 117.779 -126.000 114.315 l
-122.000 121.244 -124.000 117.779 l
-120.000 124.708 -122.000 121.244 l
-118.000 128.172 -120.000 124.708 l
-116.000 131.636 -118.000 128.172 l
-114.000 135.100 -116.000 131.636 l
-112.000 138.564 -114.000 135.100 l
-110.000 142.028 -112.000 138.564 l
-108.000 145.492 -110.000 142.028 l
-106.000 148.956 -108.000 145.492 l
-104.000 152.420 -106.000 148.956 l
-102.000 155.885 -104.000 152.420 l
-100.000 159.349 -102.000 155.885 l
-98.000 162.813 -100.000 159.349 l
-96.000 166.277 -98.000 162.813 l
-100.000 166.277 -96.000 166.277 l
-98.000 169.741 -100.000 166.277 l
-102.000 169.741 -98.000 169.741 l
-100.000 166.277 -102.000 169.741 l
-104.000 166.277 -100.000 166.277 l
-102.000 169.741 -104.000 166.277 l
-100.000 173.205 -102.000 169.741 l
-104.000 173.205 -100.000 173.205 l
-102.000 176.669 -104.000 173.205 l
-106.000 176.669 -102.000 176.669 l
-104.000 173.205 -106.000 176.669 l
-108.000 173.205 -104.000 173.205 l
-106.000 169.741 -108.000 173.205 l
-104.000 166.277 -106.000 169.741 l
-108.000 166.277 -104.000 166.277 l
-106.000 169.741 -108.000 166.277 l
-110.000 169.741 -106.000 169.741 l
-108.000 166.277 -110.000 169.741 l
-112.000 166.277 -108.000 166.277 l
-110.000 169.741 -112.000 166.277 l
-108.000 173.205 -110.000 169.741 l
-106.000 176.669 -108.000 173.205 l
-104.000 180.133 -106.000 176.669 l
-108.000 180.133 -104.000 180.133 l
-106.000 183.597 -108.000 180.133 l
-110.000 183.597 -106.000 183.597 l
-108.000 180.133 -110.000 183.597 l
-112.000 180.133 -108.000 180.133 l
-110.000 183.597 -112.000 180.133 l
-108.000 187.061 -110.000 183.597 l
-112.000 187.061 -108.000 187.061 l
-110.000 190.526 -112.000 187.061 l
-114.000 190.526 -110.000 190.526 l
-112.000 187.061 -114.000 190.526 l
-116.000 187.061 -112.000 187.061 l
-114.000 183.597 -116.000 187.061 l
-112.000 180.133 -114.000 183.597 l
-116.000 180.133 -112.000 180.133 l
-114.000 183.597 -116.000 180.133 l
-118.000 183.597 -114.000 183.597 l
-116.000 180.133 -118.000 183.597 l
-120.000 180.133 -116.000 180.133 l
-118.000 176.669 -120.000 180.133 l
-116.000 173.205 -118.000 176.669 l
-114.000 169.741 -116.000 173.205 l
-112.000 166.277 -114.000 169.741 l
-116.000 166.277 -112.000 166.277 l
-114.000 169.741 -116.000 166.277 l
-118.000 169.741 -114.000 169.741 l
-116.000 166.277 -118.000 169.741 l
-120.000 166.277 -116.000 166.277 l
-118.000 169.741 -120.000 166.277 l
-116.000 173.205 -118.000 169.741 l
-120.000 173.205 -116.000 173.205 l
-118.000 176.669 -120.000 173.205 l
-122.000 176.669 -118.000 176.669 l
-120.000 173.205 -122.000 176.669 l
-124.000 173.205 -120.000 173.205 l
-122.000 169.741 -124.000 173.205 l
-120.000 166.277 -122.000 169.741 l
-124.000 166.277 -120.000 166.277 l
-122.000 169.741 -124.000 166.277 l
-126.000 169.741 -122.000 169.741 l
-124.000 166.277 -126.000 169.741 l
-128.000 166.277 -124.000 166.277 l
-126.000 169.741 -128.000 166.277 l
-124.000 173.205 -126.000 169.741 l
-122.000 176.669 -124.000 173.205 l
-120.000 180.133 -122.000 176.669 l
-118.000 183.597 -120.000 180.133 l
-116.000 187.061 -118.000 183.597 l
-114.000 190.526 -116.000 187.061 l
-112.000 193.990 -114.000 190.526 l
-116.000 193.990 -112.000 193.990 l
-114.000 197.454 -116.000 193.990 l
-118.000 197.454 -114.000 197.454 l
-116.000 193.990 -118.000 197.454 l
-120.000 193.990 -116.000 193.990 l
-118.000 197.454 -120.000 193.990 l
-116.000 200.918 -118.000 197.454 l
-120.000 200.918 -116.000 200.918 l
-118.000 204.382 -120.000 200.918 l
-122.000 204.382 -118.000 204.382 l
-120.000 200.918 -122.000 204.382 l
-124.000 200.918 -120.000 200.918 l
-122.000 197.454 -124.000 200.918 l
-120.000 193.990 -122.000 197.454 l
-124.000 193.990 -120.000 193.990 l
-122.000 197.454 -124.000 193.990 l
-126.000 197.454 -122.000 197.454 l
-124.000 193.990 -126.000 197.454 l
-128.000 193.990 -124.000 193.990 l
-126.000 197.454 -128.000 193.990 l
-124.000 200.918 -126.000 197.454 l
-122.000 204.382 -124.000 200.918 l
-120.000 207.846 -122.000 204.382 l
-124.000 207.846 -120.000 207.846 l
-122.000 211.310 -124.000 207.846 l
-126.000 211.310 -122.000 211.310 l
-124.000 207.846 -126.000 211.310 l
-128.000 207.846 -124.000 207.846 l
-126.000 211.310 -128.000 207.846 l
-124.000 214.774 -126.000 211.310 l
-128.000 214.774 -124.000 214.774 l
-126.000 218.238 -128.000 214.774 l
-130.000 218.238 -126.000 218.238 l
-128.000 214.774 -130.000 218.238 l
-132.000 214.774 -128.000 214.774 l
-130.000 211.310 -132.000 214.774 l
-128.000 207.846 -130.000 211.310 l
-132.000 207.846 -128.000 207.846 l
-130.000 211.310 -132.000 207.846 l
-134.000 211.310 -130.000 211.310 l
-132.000 207.846 -134.000 211.310 l
-136.000 207.846 -132.000 207.846 l
-134.000 204.382 -136.000 207.846 l
-132.000 200.918 -134.000 204.382 l
-130.000 197.454 -132.000 200.918 l
-128.000 193.990 -130.000 197.454 l
-132.000 193.990 -128.000 193.990 l
-130.000 197.454 -132.000 193.990 l
-134.000 197.454 -130.000 197.454 l
-132.000 193.990 -134.000 197.454 l
-136.000 193.990 -132.000 193.990 l
-134.000 197.454 -136.000 193.990 l
-132.000 200.918 -134.000 197.454 l
-136.000 200.918 -132.000 200.918 l
-134.000 204.382 -136.000 200.918 l
-138.000 204.382 -134.000 204.382 l
-136.000 200.918 -138.000 204.382 l
-140.000 200.918 -136.000 200.918 l
-138.000 197.454 -140.000 200.918 l
-136.000 193.990 -138.000 197.454 l
-140.000 193.990 -136.000 193.990 l
-138.000 197.454 -140.000 193.990 l
-142.000 197.454 -138.000 197.454 l
-140.000 193.990 -142.000 197.454 l
-144.000 193.990 -140.000 193.990 l
-142.000 190.526 -144.000 193.990 l
-140.000 187.061 -142.000 190.526 l
-138.000 183.597 -140.000 187.061 l
-136.000 180.133 -138.000 183.597 l
-134.000 176.669 -136.000 180.133 l
-132.000 173.205 -134.000 176.669 l
-130.000 169.741 -132.000 173.205 l
-128.000 166.277 -130.000 169.741 l
-132.000 166.277 -128.000 166.277 l
-130.000 169.741 -132.000 166.277 l
-134.000 169.741 -130.000 169.741 l
-132.000 166.277 -134.000 169.741 l
-136.000 166.277 -132.000 166.277 l
-134.000 169.741 -136.000 166.277 l
-132.000 173.205 -134.000 169.741 l
-136.000 173.205 -132.000 173.205 l
-134.000 176.669 -136.000 173.205 l
-138.000 176.669 -134.000 176.669 l
-136.000 173.205 -138.000 176.669 l
-140.000 173.205 -136.000 173.205 l
-138.000 169.741 -140.000 173.205 l
-136.000 166.277 -138.000 169.741 l
-140.000 166.277 -136.000 166.277 l
-138.000 169.741 -140.000 166.277 l
-142.000 169.741 -138.000 169.741 l
-140.000 166.277 -142.000 169.741 l
-144.000 166.277 -140.000 166.277 l
-142.000 169.741 -144.000 166.277 l
-140.000 173.205 -142.000 169.741 l
-138.000 176.669 -140.000 173.205 l
-136.000 180.133 -138.000 176.669 l
-140.000 180.133 -136.000 180.133 l
-138.000 183.597 -140.000 180.133 l
-142.000 183.597 -138.000 183.597 l
-140.000 180.133 -142.000 183.597 l
-144.000 180.133 -140.000 180.133 l
-142.000 183.597 -144.000 180.133 l
-140.000 187.061 -142.000 183.597 l
-144.000 187.061 -140.000 187.061 l
-142.000 190.526 -144.000 187.061 l
-146.000 190.526 -142.000 190.526 l
-144.000 187.061 -146.000 190.526 l
-148.000 187.061 -144.000 187.061 l
-146.000 183.597 -148.000 187.061 l
-144.000 180.133 -146.000 183.597 l
-148.000 180.133 -144.000 180.133 l
-146.000 183.597 -148.000 180.133 l
-150.000 183.597 -146.000 183.597 l
-148.000 180.133 -150.000 183.597 l
-152.000 180.133 -148.000 180.133 l
-150.000 176.669 -152.000 180.133 l
-148.000 173.205 -150.000 176.669 l
-146.000 169.741 -148.000 173.205 l
-144.000 166.277 -146.000 169.741 l
-148.000 166.277 -144.000 166.277 l
-146.000 169.741 -148.000 166.277 l
-150.000 169.741 -146.000 169.741 l
-148.000 166.277 -150.000 169.741 l
-152.000 166.277 -148.000 166.277 l
-150.000 169.741 -152.000 166.277 l
-148.000 173.205 -150.000 169.741 l
-152.000 173.205 -148.000 173.205 l
-150.000 176.669 -152.000 173.205 l
-154.000 176.669 -150.000 176.669 l
-152.000 173.205 -154.000 176.669 l
-156.000 173.205 -152.000 173.205 l
-154.000 169.741 -156.000 173.205 l
-152.000 166.277 -154.000 169.741 l
-156.000 166.277 -152.000 166.277 l
-154.000 169.741 -156.000 166.277 l
-158.000 169.741 -154.000 169.741 l
-156.000 166.277 -158.000 169.741 l
-160.000 166.277 -156.000 166.277 l
-158.000 162.813 -160.000 166.277 l
-156.000 159.349 -158.000 162.813 l
-154.000 155.885 -156.000 159.349 l
-152.000 152.420 -154.000 155.885 l
-150.000 148.956 -152.000 152.420 l
-148.000 145.492 -150.000 148.956 l
-146.000 142.028 -148.000 145.492 l
-144.000 138.564 -146.000 142.028 l
-142.000 135.100 -144.000 138.564 l
-140.000 131.636 -142.000 135.100 l
-138.000 128.172 -140.000 131.636 l
-136.000 124.708 -138.000 128.172 l
-134.000 121.244 -136.000 124.708 l
-132.000 117.779 -134.000 121.244 l
-130.000 114.315 -132.000 117.779 l
-128.000 110.851 -130.000 114.315 l
-132.000 110.851 -128.000 110.851 l
-130.000 114.315 -132.000 110.851 l
-134.000 114.315 -130.000 114.315 l
-132.000 110.851 -134.000 114.315 l
-136.000 110.851 -132.000 110.851 l
-134.000 114.315 -136.000 110.851 l
-132.000 117.779 -134.000 114.315 l
-136.000 117.779 -132.000 117.779 l
-134.000 121.244 -136.000 117.779 l
-138.000 121.244 -134.000 121.244 l
-136.000 117.779 -138.000 121.244 l
-140.000 117.779 -136.000 117.779 l
-138.000 114.315 -140.000 117.779 l
-136.000 110.851 -138.000 114.315 l
-140.000 110.851 -136.000 110.851 l
-138.000 114.315 -140.000 110.851 l
-142.000 114.315 -138.000 114.315 l
-140.000 110.851 -142.000 114.315 l
-144.000 110.851 -140.000 110.851 l
-142.000 114.315 -144.000 110.851 l
-140.000 117.779 -142.000 114.315 l
-138.000 121.244 -140.000 117.779 l
-136.000 124.708 -138.000 121.244 l
-140.000 124.708 -136.000 124.708 l
-138.000 128.172 -140.000 124.708 l
-142.000 128.172 -138.000 128.172 l
-140.000 124.708 -142.000 128.172 l
-144.000 124.708 -140.000 124.708 l
-142.000 128.172 -144.000 124.708 l
-140.000 131.636 -142.000 128.172 l
-144.000 131.636 -140.000 131.636 l
-142.000 135.100 -144.000 131.636 l
-146.000 135.100 -142.000 135.100 l
-144.000 131.636 -146.000 135.100 l
-148.000 131.636 -144.000 131.636 l
-146.000 128.172 -148.000 131.636 l
-144.000 124.708 -146.000 128.172 l
-148.000 124.708 -144.000 124.708 l
-146.000 128.172 -148.000 124.708 l
-150.000 128.172 -146.000 128.172 l
-148.000 124.708 -150.000 128.172 l
-152.000 124.708 -148.000 124.708 l
-150.000 121.244 -152.000 124.708 l
-148.000 117.779 -150.000 121.244 l
-146.000 114.315 -148.000 117.779 l
-144.000 110.851 -146.000 114.315 l
-148.000 110.851 -144.000 110.851 l
-146.000 114.315 -148.000 110.851 l
-150.000 114.315 -146.000 114.315 l
-148.000 110.851 -150.000 114.315 l
-152.000 110.851 -148.000 110.851 l
-150.000 114.315 -152.000 110.851 l
-148.000 117.779 -150.000 114.315 l
-152.000 117.779 -148.000 117.779 l
-150.000 121.244 -152.000 117.779 l
-154.000 121.244 -150.000 121.244 l
-152.000 117.779 -154.000 121.244 l
-156.000 117.779 -152.000 117.779 l
-154.000 114.315 -156.000 117.779 l
-152.000 110.851 -154.000 114.315 l
-156.000 110.851 -152.000 110.851 l
-154.000 114.315 -156.000 110.851 l
-158.000 114.315 -154.000 114.315 l
-156.000 110.851 -158.000 114.315 l
-160.000 110.851 -156.000 110.851 l
-158.000 114.315 -160.000 110.851 l
-156.000 117.779 -158.000 114.315 l
-154.000 121.244 -156.000 117.779 l
-152.000 124.708 -154.000 121.244 l
-150.000 128.172 -152.000 124.708 l
-148.000 131.636 -150.000 128.172 l
-146.000 135.100 -148.000 131.636 l
-144.000 138.564 -146.000 135.100 l
-148.000 138.564 -144.000 138.564 l
-146.000 142.028 -148.000 138.564 l
-150.000 142.028 -146.000 142.028 l
-148.000 138.564 -150.000 142.028 l
-152.000 138.564 -148.000 138.564 l
-150.000 142.028 -152.000 138.564 l
-148.000 145.492 -150.000 142.028 l
-152.000 145.492 -148.000 145.492 l
-150.000 148.956 -152.000 145.492 l
-154.000 148.956 -150.000 148.956 l
-152.000 145.492 -154.000 148.956 l
-156.000 145.492 -152.000 145.492 l
-154.000 142.028 -156.000 145.492 l
-152.000 138.564 -154.000 142.028 l
-156.000 138.564 -152.000 138.564 l
-154.000 142.028 -156.000 138.564 l
-158.000 142.028 -154.000 142.028 l
-156.000 138.564 -158.000 142.028 l
-160.000 138.564 -156.000 138.564 l
-158.000 142.028 -160.000 138.564 l
-156.000 145.492 -158.000 142.028 l
-154.000 148.956 -156.000 145.492 l
-152.000 152.420 -154.000 148.956 l
-156.000 152.420 -152.000 152.420 l
-154.000 155.885 -156.000 152.420 l
-158.000 155.885 -154.000 155.885 l
-156.000 152.420 -158.000 155.885 l
-160.000 152.420 -156.000 152.420 l
-158.000 155.885 -160.000 152.420 l
-156.000 159.349 -158.000 155.885 l
-160.000 159.349 -156.000 159.349 l
-158.000 162.813 -160.000 159.349 l
-162.000 162.813 -158.000 162.813 l
-160.000 159.349 -162.000 162.813 l
-164.000 159.349 -160.000 159.349 l
-162.000 155.885 -164.000 159.349 l
-160.000 152.420 -162.000 155.885 l
-164.000 152.420 -160.000 152.420 l
-162.000 155.885 -164.000 152.420 l
-166.000 155.885 -162.000 155.885 l
-164.000 152.420 -166.000 155.885 l
-168.000 152.420 -164.000 152.420 l
-166.000 148.956 -168.000 152.420 l
-164.000 145.492 -166.000 148.956 l
-162.000 142.028 -164.000 145.492 l
-160.000 138.564 -162.000 142.028 l
-164.000 138.564 -160.000 138.564 l
-162.000 142.028 -164.000 138.564 l
-166.000 142.028 -162.000 142.028 l
-164.000 138.564 -166.000 142.028 l
-168.000 138.564 -164.000 138.564 l
-166.000 142.028 -168.000 138.564 l
-164.000 145.492 -166.000 142.028 l
-168.000 145.492 -164.000 145.492 l
-166.000 148.956 -168.000 145.492 l
-170.000 148.956 -166.000 148.956 l
-168.000 145.492 -170.000 148.956 l
-172.000 145.492 -168.000 145.492 l
-170.000 142.028 -172.000 145.492 l
-168.000 138.564 -170.000 142.028 l
-172.000 138.564 -168.000 138.564 l
-170.000 142.028 -172.000 138.564 l
-174.000 142.028 -170.000 142.028 l
-172.000 138.564 -174.000 142.028 l
-176.000 138.564 -172.000 138.564 l
-174.000 135.100 -176.000 138.564 l
-172.000 131.636 -174.000 135.100 l
-170.000 128.172 -172.000 131.636 l
-168.000 124.708 -170.000 128.172 l
-166.000 121.244 -168.000 124.708 l
-164.000 117.779 -166.000 121.244 l
-162.000 114.315 -164.000 117.779 l
-160.000 110.851 -162.000 114.315 l
-164.000 110.851 -160.000 110.851 l
-162.000 114.315 -164.000 110.851 l
-166.000 114.315 -162.000 114.315 l
-164.000 110.851 -166.000 114.315 l
-168.000 110.851 -164.000 110.851 l
-166.000 114.315 -168.000 110.851 l
-164.000 117.779 -166.000 114.315 l
-168.000 117.779 -164.000 117.779 l
-166.000 121.244 -168.000 117.779 l
-170.000 121.244 -166.000 121.244 l
-168.000 117.779 -170.000 121.244 l
-172.000 117.779 -168.000 117.779 l
-170.000 114.315 -172.000 117.779 l
-168.000 110.851 -170.000 114.315 l
-172.000 110.851 -168.000 110.851 l
-170.000 114.315 -172.000 110.851 l
-174.000 114.315 -170.000 114.315 l
-172.000 110.851 -174.000 114.315 l
-176.000 110.851 -172.000 110.851 l
-174.000 114.315 -176.000 110.851 l
-172.000 117.779 -174.000 114.315 l
-170.000 121.244 -172.000 117.779 l
-168.000 124.708 -170.000 121.244 l
-172.000 124.708 -168.000 124.708 l
-170.000 128.172 -172.000 124.708 l
-174.000 128.172 -170.000 128.172 l
-172.000 124.708 -174.000 128.172 l
-176.000 124.708 -172.000 124.708 l
-174.000 128.172 -176.000 124.708 l
-172.000 131.636 -174.000 128.172 l
-176.000 131.636 -172.000 131.636 l
-174.000 135.100 -176.000 131.636 l
-178.000 135.100 -174.000 135.100 l
-176.000 131.636 -178.000 135.100 l
-180.000 131.636 -176.000 131.636 l
-178.000 128.172 -180.000 131.636 l
-176.000 124.708 -178.000 128.172 l
-180.000 124.708 -176.000 124.708 l
-178.000 128.172 -180.000 124.708 l
-182.000 128.172 -178.000 128.172 l
-180.000 124.708 -182.000 128.172 l
-184.000 124.708 -180.000 124.708 l
-182.000 121.244 -184.000 124.708 l
-180.000 117.779 -182.000 121.244 l
-178.000 114.315 -180.000 117.779 l
-176.000 110.851 -178.000 114.315 l
-180.000 110.851 -176.000 110.851 l
-178.000 114.315 -180.000 110.851 l
-182.000 114.315 -178.000 114.315 l
-180.000 110.851 -182.000 114.315 l
-184.000 110.851 -180.000 110.851 l
-182.000 114.315 -184.000 110.851 l
-180.000 117.779 -182.000 114.315 l
-184.000 117.779 -180.000 117.779 l
-182.000 121.244 -184.000 117.779 l
-186.000 121.244 -182.000 121.244 l
-184.000 117.779 -186.000 121.244 l
-188.000 117.779 -184.000 117.779 l
-186.000 114.315 -188.000 117.779 l
-184.000 110.851 -186.000 114.315 l
-188.000 110.851 -184.000 110.851 l
-186.000 114.315 -188.000 110.851 l
-190.000 114.315 -186.000 114.315 l
-188.000 110.851 -190.000 114.315 l
-192.000 110.851 -188.000 110.851 l
-190.000 107.387 -192.000 110.851 l
-188.000 103.923 -190.000 107.387 l
-186.000 100.459 -188.000 103.923 l
-184.000 96.995 -186.000 100.459 l
-182.000 93.531 -184.000 96.995 l
-180.000 90.067 -182.000 93.531 l
-178.000 86.603 -180.000 90.067 l
-176.000 83.138 -178.000 86.603 l
-174.000 79.674 -176.000 83.138 l
-172.000 76.210 -174.000 79.674 l
-170.000 72.746 -172.000 76.210 l
-168.000 69.282 -170.000 72.746 l
-166.000 65.818 -168.000 69.282 l
-164.000 62.354 -166.000 65.818 l
-162.000 58.890 -164.000 62.354 l
-160.000 55.426 -162.000 58.890 l
-158.000 51.962 -160.000 55.426 l
-156.000 48.497 -158.000 51.962 l
-154.000 45.033 -156.000 48.497 l
-152.000 41.569 -154.000 45.033 l
-150.000 38.105 -152.000 41.569 l
-148.000 34.641 -150.000 38.105 l
-146.000 31.177 -148.000 34.641 l
-144.000 27.713 -146.000 31.177 l
-142.000 24.249 -144.000 27.713 l
-140.000 20.785 -142.000 24.249 l
-138.000 17.321 -140.000 20.785 l
-136.000 13.856 -138.000 17.321 l
-134.000 10.392 -136.000 13.856 l
-132.000 6.928 -134.000 10.392 l
-130.000 3.464 -132.000 6.928 l
-128.000 0.000 -130.000 3.464 l
-132.000 0.000 -128.000 0.000 l
-130.000 3.464 -132.000 0.000 l
-134.000 3.464 -130.000 3.464 l
-132.000 0.000 -134.000 3.464 l
-136.000 0.000 -132.000 0.000 l
-134.000 3.464 -136.000 0.000 l
-132.000 6.928 -134.000 3.464 l
-136.000 6.928 -132.000 6.928 l
-134.000 10.392 -136.000 6.928 l
-138.000 10.392 -134.000 10.392 l
-136.000 6.928 -138.000 10.392 l
-140.000 6.928 -136.000 6.928 l
-138.000 3.464 -140.000 6.928 l
-136.000 0.000 -138.000 3.464 l
-140.000 0.000 -136.000 0.000 l
-138.000 3.464 -140.000 0.000 l
-142.000 3.464 -138.000 3.464 l
-140.000 0.000 -142.000 3.464 l
-144.000 0.000 -140.000 0.000 l
-142.000 3.464 -144.000 0.000 l
-140.000 6.928 -142.000 3.464 l
-138.000 10.392 -140.000 6.928 l
-136.000 13.856 -138.000 10.392 l
-140.000 13.856 -136.000 13.856 l
-138.000 17.321 -140.000 13.856 l
-142.000 17.321 -138.000 17.321 l
-140.000 13.856 -142.000 17.321 l
-144.000 13.856 -140.000 13.856 l
-142.000 17.321 -144.000 13.856 l
-140.000 20.785 -142.000 17.321 l
-144.000 20.785 -140.000 20.785 l
-142.000 24.249 -144.000 20.785 l
-146.000 24.249 -142.000 24.249 l
-144.000 20.785 -146.000 24.249 l
-148.000 20.785 -144.000 20.785 l
-146.000 17.321 -148.000 20.785 l
-144.000 13.856 -146.000 17.321 l
-148.000 13.856 -144.000 13.856 l
-146.000 17.321 -148.000 13.856 l
-150.000 17.321 -146.000 17.321 l
-148.000 13.856 -150.000 17.321 l
-152.000 13.856 -148.000 13.856 l
-150.000 10.392 -152.000 13.856 l
-148.000 6.928 -150.000 10.392 l
-146.000 3.464 -148.000 6.928 l
-144.000 0.000 -146.000 3.464 l
-148.000 0.000 -144.000 0.000 l
-146.000 3.464 -148.000 0.000 l
-150.000 3.464 -146.000 3.464 l
-148.000 0.000 -150.000 3.464 l
-152.000 0.000 -148.000 0.000 l
-150.000 3.464 -152.000 0.000 l
-148.000 6.928 -150.000 3.464 l
-152.000 6.928 -148.000 6.928 l
-150.000 10.392 -152.000 6.928 l
-154.000 10.392 -150.000 10.392 l
-152.000 6.928 -154.000 10.392 l
-156.000 6.928 -152.000 6.928 l
-154.000 3.464 -156.000 6.928 l
-152.000 0.000 -154.000 3.464 l
-156.000 0.000 -152.000 0.000 l
-154.000 3.464 -156.000 0.000 l
-158.000 3.464 -154.000 3.464 l
-156.000 0.000 -158.000 3.464 l
-160.000 0.000 -156.000 0.000 l
-158.000 3.464 -160.000 0.000 l
-156.000 6.928 -158.000 3.464 l
-154.000 10.392 -156.000 6.928 l
-152.000 13.856 -154.000 10.392 l
-150.000 17.321 -152.000 13.856 l
-148.000 20.785 -150.000 17.321 l
-146.000 24.249 -148.000 20.785 l
-144.000 27.713 -146.000 24.249 l
-148.000 27.713 -144.000 27.713 l
-146.000 31.177 -148.000 27.713 l
-150.000 31.177 -146.000 31.177 l
-148.000 27.713 -150.000 31.177 l
-152.000 27.713 -148.000 27.713 l
-150.000 31.177 -152.000 27.713 l
-148.000 34.641 -150.000 31.177 l
-152.000 34.641 -148.000 34.641 l
-150.000 38.105 -152.000 34.641 l
-154.000 38.105 -150.000 38.105 l
-152.000 34.641 -154.000 38.105 l
-156.000 34.641 -152.000 34.641 l
-154.000 31.177 -156.000 34.641 l
-152.000 27.713 -154.000 31.177 l
-156.000 27.713 -152.000 27.713 l
-154.000 31.177 -156.000 27.713 l
-158.000 31.177 -154.000 31.177 l
-156.000 27.713 -158.000 31.177 l
-160.000 27.713 -156.000 27.713 l
-158.000 31.177 -160.000 27.713 l
-156.000 34.641 -158.000 31.177 l
-154.000 38.105 -156.000 34.641 l
-152.000 41.569 -154.000 38.105 l
-156.000 41.569 -152.000 41.569 l
-154.000 45.033 -156.000 41.569 l
-158.000 45.033 -154.000 45.033 l
-156.000 41.569 -158.000 45.033 l
-160.000 41.569 -156.000 41.569 l
-158.000 45.033 -160.000 41.569 l
-156.000 48.497 -158.000 45.033 l
-160.000 48.497 -156.000 48.497 l
-158.000 51.962 -160.000 48.497 l
-162.000 51.962 -158.000 51.962 l
-160.000 48.497 -162.000 51.962 l
-164.000 48.497 -160.000 48.497 l
-162.000 45.033 -164.000 48.497 l
-160.000 41.569 -162.000 45.033 l
-164.000 41.569 -160.000 41.569 l
-162.000 45.033 -164.000 41.569 l
-166.000 45.033 -162.000 45.033 l
-164.000 41.569 -166.000 45.033 l
-168.000 41.569 -164.000 41.569 l
-166.000 38.105 -168.000 41.569 l
-164.000 34.641 -166.000 38.105 l
-162.000 31.177 -164.000 34.641 l
-160.000 27.713 -162.000 31.177 l
-164.000 27.713 -160.000 27.713 l
-162.000 31.177 -164.000 27.713 l
-166.000 31.177 -162.000 31.177 l
-164.000 27.713 -166.000 31.177 l
-168.000 27.713 -164.000 27.713 l
-166.000 31.177 -168.000 27.713 l
-164.000 34.641 -166.000 31.177 l
-168.000 34.641 -164.000 34.641 l
-166.000 38.105 -168.000 34.641 l
-170.000 38.105 -166.000 38.105 l
-168.000 34.641 -170.000 38.105 l
-172.000 34.641 -168.000 34.641 l
-170.000 31.177 -172.000 34.641 l
-168.000 27.713 -170.000 31.177 l
-172.000 27.713 -168.000 27.713 l
-170.000 31.177 -172.000 27.713 l
-174.000 31.177 -170.000 31.177 l
-172.000 27.713 -174.000 31.177 l
-176.000 27.713 -172.000 27.713 l
-174.000 24.249 -176.000 27.713 l
-172.000 20.785 -174.000 24.249 l
-170.000 17.321 -172.000 20.785 l
-168.000 13.856 -170.000 17.321 l
-166.000 10.392 -168.000 13.856 l
-164.000 6.928 -166.000 10.392 l
-162.000 3.464 -164.000 6.928 l
-160.000 0.000 -162.000 3.464 l
-164.000 0.000 -160.000 0.000 l
-162.000 3.464 -164.000 0.000 l
-166.000 3.464 -162.000 3.464 l
-164.000 0.000 -166.000 3.464 l
-168.000 0.000 -164.000 0.000 l
-166.000 3.464 -168.000 0.000 l
-164.000 6.928 -166.000 3.464 l
-168.000 6.928 -164.000 6.928 l
-166.000 10.392 -168.000 6.928 l
-170.000 10.392 -166.000 10.392 l
-168.000 6.928 -170.000 10.392 l
-172.000 6.928 -168.000 6.928 l
-170.000 3.464 -172.000 6.928 l
-168.000 0.000 -170.000 3.464 l
-172.000 0.000 -168.000 0.000 l
-170.000 3.464 -172.000 0.000 l
-174.000 3.464 -170.000 3.464 l
-172.000 0.000 -174.000 3.464 l
-176.000 0.000 -172.000 0.000 l
-174.000 3.464 -176.000 0.000 l
-172.000 6.928 -174.000 3.464 l
-170.000 10.392 -172.000 6.928 l
-168.000 13.856 -170.000 10.392 l
-172.000 13.856 -168.000 13.856 l
-170.000 17.321 -172.000 13.856 l
-174.000 17.321 -170.000 17.321 l
-172.000 13.856 -174.000 17.321 l
-176.000 13.856 -172.000 13.856 l
-174.000 17.321 -176.000 13.856 l
-172.000 20.785 -174.000 17.321 l
-176.000 20.785 -172.000 20.785 l
-174.000 24.249 -176.000 20.785 l
-178.000 24.249 -174.000 24.249 l
-176.000 20.785 -178.000 24.249 l
-180.000 20.785 -176.000 20.785 l
-178.000 17.321 -180.000 20.785 l
-176.000 13.856 -178.000 17.321 l
-180.000 13.856 -176.000 13.856 l
-178.000 17.321 -180.000 13.856 l
-182.000 17.321 -178.000 17.321 l
-180.000 13.856 -182.000 17.321 l
-184.000 13.856 -180.000 13.856 l
-182.000 10.392 -184.000 13.856 l
-180.000 6.928 -182.000 10.392 l
-178.000 3.464 -180.000 6.928 l
-176.000 0.000 -178.000 3.464 l
-180.000 0.000 -176.000 0.000 l
-178.000 3.464 -180.000 0.000 l
-182.000 3.464 -178.000 3.464 l
-180.000 0.000 -182.000 3.464 l
-184.000 0.000 -180.000 0.000 l
-182.000 3.464 -184.000 0.000 l
-180.000 6.928 -182.000 3.464 l
-184.000 6.928 -180.000 6.928 l
-182.000 10.392 -184.000 6.928 l
-186.000 10.392 -182.000 10.392 l
-184.000 6.928 -186.000 10.392 l
-188.000 6.928 -184.000 6.928 l
-186.000 3.464 -188.000 6.928 l
-184.000 0.000 -186.000 3.464 l
-188.000 0.000 -184.000 0.000 l
-186.000 3.464 -188.000 0.000 l
-190.000 3.464 -186.000 3.464 l
-188.000 0.000 -190.000 3.464 l
-192.000 0.000 -188.000 0.000 l
-190.000 3.464 -192.000 0.000 l
-188.000 6.928 -190.000 3.464 l
-186.000 10.392 -188.000 6.928 l
-184.000 13.856 -186.000 10.392 l
-182.000 17.321 -184.000 13.856 l
-180.000 20.785 -182.000 17.321 l
-178.000 24.249 -180.000 20.785 l
-176.000 27.713 -178.000 24.249 l
-174.000 31.177 -176.000 27.713 l
-172.000 34.641 -174.000 31.177 l
-170.000 38.105 -172.000 34.641 l
-168.000 41.569 -170.000 38.105 l
-166.000 45.033 -168.000 41.569 l
-164.000 48.497 -166.000 45.033 l
-162.000 51.962 -164.000 48.497 l
-160.000 55.426 -162.000 51.962 l
-164.000 55.426 -160.000 55.426 l
-162.000 58.890 -164.000 55.426 l
-166.000 58.890 -162.000 58.890 l
-164.000 55.426 -166.000 58.890 l
-168.000 55.426 -164.000 55.426 l
-166.000 58.890 -168.000 55.426 l
-164.000 62.354 -166.000 58.890 l
-168.000 62.354 -164.000 62.354 l
-166.000 65.818 -168.000 62.354 l
-170.000 65.818 -166.000 65.818 l
-168.000 62.354 -170.000 65.818 l
-172.000 62.354 -168.000 62.354 l
-170.000 58.890 -172.000 62.354 l
-168.000 55.426 -170.000 58.890 l
-172.000 55.426 -168.000 55.426 l
-170.000 58.890 -172.000 55.426 l
-174.000 58.890 -170.000 58.890 l
-172.000 55.426 -174.000 58.890 l
-176.000 55.426 -172.000 55.426 l
-174.000 58.890 -176.000 55.426 l
-172.000 62.354 -174.000 58.890 l
-170.000 65.818 -172.000 62.354 l
-168.000 69.282 -170.000 65.818 l
-172.000 69.282 -168.000 69.282 l
-170.000 72.746 -172.000 69.282 l
-174.000 72.746 -170.000 72.746 l
-172.000 69.282 -174.000 72.746 l
-176.000 69.282 -172.000 69.282 l
-174.000 72.746 -176.000 69.282 l
-172.000 76.210 -174.000 72.746 l
-176.000 76.210 -172.000 76.210 l
-174.000 79.674 -176.000 76.210 l
-178.000 79.674 -174.000 79.674 l
-176.000 76.210 -178.000 79.674 l
-180.000 76.210 -176.000 76.210 l
-178.000 72.746 -180.000 76.210 l
-176.000 69.282 -178.000 72.746 l
-180.000 69.282 -176.000 69.282 l
-178.000 72.746 -180.000 69.282 l
-182.000 72.746 -178.000 72.746 l
-180.000 69.282 -182.000 72.746 l
-184.000 69.282 -180.000 69.282 l
-182.000 65.818 -184.000 69.282 l
-180.000 62.354 -182.000 65.818 l
-178.000 58.890 -180.000 62.354 l
-176.000 55.426 -178.000 58.890 l
-180.000 55.426 -176.000 55.426 l
-178.000 58.890 -180.000 55.426 l
-182.000 58.890 -178.000 58.890 l
-180.000 55.426 -182.000 58.890 l
-184.000 55.426 -180.000 55.426 l
-182.000 58.890 -184.000 55.426 l
-180.000 62.354 -182.000 58.890 l
-184.000 62.354 -180.000 62.354 l
-182.000 65.818 -184.000 62.354 l
-186.000 65.818 -182.000 65.818 l
-184.000 62.354 -186.000 65.818 l
-188.000 62.354 -184.000 62.354 l
-186.000 58.890 -188.000 62.354 l
-184.000 55.426 -186.000 58.890 l
-188.000 55.426 -184.000 55.426 l
-186.000 58.890 -188.000 55.426 l
-190.000 58.890 -186.000 58.890 l
-188.000 55.426 -190.000 58.890 l
-192.000 55.426 -188.000 55.426 l
-190.000 58.890 -192.000 55.426 l
-188.000 62.354 -190.000 58.890 l
-186.000 65.818 -188.000 62.354 l
-184.000 69.282 -186.000 65.818 l
-182.000 72.746 -184.000 69.282 l
-180.000 76.210 -182.000 72.746 l
-178.000 79.674 -180.000 76.210 l
-176.000 83.138 -178.000 79.674 l
-180.000 83.138 -176.000 83.138 l
-178.000 86.603 -180.000 83.138 l
-182.000 86.603 -178.000 86.603 l
-180.000 83.138 -182.000 86.603 l
-184.000 83.138 -180.000 83.138 l
-182.000 86.603 -184.000 83.138 l
-180.000 90.067 -182.000 86.603 l
-184.000 90.067 -180.000 90.067 l
-182.000 93.531 -184.000 90.067 l
-186.000 93.531 -182.000 93.531 l
-184.000 90.067 -186.000 93.531 l
-188.000 90.067 -184.000 90.067 l
-186.000 86.603 -188.000 90.067 l
-184.000 83.138 -186.000 86.603 l
-188.000 83.138 -184.000 83.138 l
-186.000 86.603 -188.000 83.138 l
-190.000 86.603 -186.000 86.603 l
-188.000 83.138 -190.000 86.603 l
-192.000 83.138 -188.000 83.138 l
-190.000 86.603 -192.000 83.138 l
-188.000 90.067 -190.000 86.603 l
-186.000 93.531 -188.000 90.067 l
-184.000 96.995 -186.000 93.531 l
-188.000 96.995 -184.000 96.995 l
-186.000 100.459 -188.000 96.995 l
-190.000 100.459 -186.000 100.459 l
-188.000 96.995 -190.000 100.459 l
-192.000 96.995 -188.000 96.995 l
-190.000 100.459 -192.000 96.995 l
-188.000 103.923 -190.000 100.459 l
-192.000 103.923 -188.000 103.923 l
-190.000 107.387 -192.000 103.923 l
-194.000 107.387 -190.000 107.387 l
-192.000 103.923 -194.000 107.387 l
-196.000 103.923 -192.000 103.923 l
-194.000 100.459 -196.000 103.923 l
-192.000 96.995 -194.000 100.459 l
-196.000 96.995 -192.000 96.995 l
-194.000 100.459 -196.000 96.995 l
-198.000 100.459 -194.000 100.459 l
-196.000 96.995 -198.000 100.459 l
-200.000 96.995 -196.000 96.995 l
-198.000 93.531 -200.000 96.995 l
-196.000 90.067 -198.000 93.531 l
-194.000 86.603 -196.000 90.067 l
-192.000 83.138 -194.000 86.603 l
-196.000 83.138 -192.000 83.138 l
-194.000 86.603 -196.000 83.138 l
-198.000 86.603 -194.000 86.603 l
-196.000 83.138 -198.000 86.603 l
-200.000 83.138 -196.000 83.138 l
-198.000 86.603 -200.000 83.138 l
-196.000 90.067 -198.000 86.603 l
-200.000 90.067 -196.000 90.067 l
-198.000 93.531 -200.000 90.067 l
-202.000 93.531 -198.000 93.531 l
-200.000 90.067 -202.000 93.531 l
-204.000 90.067 -200.000 90.067 l
-202.000 86.603 -204.000 90.067 l
-200.000 83.138 -202.000 86.603 l
-204.000 83.138 -200.000 83.138 l
-202.000 86.603 -204.000 83.138 l
-206.000 86.603 -202.000 86.603 l
-204.000 83.138 -206.000 86.603 l
-208.000 83.138 -204.000 83.138 l
-206.000 79.674 -208.000 83.138 l
-204.000 76.210 -206.000 79.674 l
-202.000 72.746 -204.000 76.210 l
-200.000 69.282 -202.000 72.746 l
-198.000 65.818 -200.000 69.282 l
-196.000 62.354 -198.000 65.818 l
-194.000 58.890 -196.000 62.354 l
-192.000 55.426 -194.000 58.890 l
-196.000 55.426 -192.000 55.426 l
-194.000 58.890 -196.000 55.426 l
-198.000 58.890 -194.000 58.890 l
-196.000 55.426 -198.000 58.890 l
-200.000 55.426 -196.000 55.426 l
-198.000 58.890 -200.000 55.426 l
-196.000 62.354 -198.000 58.890 l
-200.000 62.354 -196.000 62.354 l
-198.000 65.818 -200.000 62.354 l
-202.000 65.818 -198.000 65.818 l
-200.000 62.354 -202.000 65.818 l
-204.000 62.354 -200.000 62.354 l
-202.000 58.890 -204.000 62.354 l
-200.000 55.426 -202.000 58.890 l
-204.000 55.426 -200.000 55.426 l
-202.000 58.890 -204.000 55.426 l
-206.000 58.890 -202.000 58.890 l
-204.000 55.426 -206.000 58.890 l
-208.000 55.426 -204.000 55.426 l
-206.000 58.890 -208.000 55.426 l
-204.000 62.354 -206.000 58.890 l
-202.000 65.818 -204.000 62.354 l
-200.000 69.282 -202.000 65.818 l
-204.000 69.282 -200.000 69.282 l
-202.000 72.746 -204.000 69.282 l
-206.000 72.746 -202.000 72.746 l
-204.000 69.282 -206.000 72.746 l
-208.000 69.282 -204.000 69.282 l
-206.000 72.746 -208.000 69.282 l
-204.000 76.210 -206.000 72.746 l
-208.000 76.210 -204.000 76.210 l
-206.000 79.674 -208.000 76.210 l
-210.000 79.674 -206.000 79.674 l
-208.000 76.210 -210.000 79.674 l
-212.000 76.210 -208.000 76.210 l
-210.000 72.746 -212.000 76.210 l
-208.000 69.282 -210.000 72.746 l
-212.000 69.282 -208.000 69.282 l
-210.000 72.746 -212.000 69.282 l
-214.000 72.746 -210.000 72.746 l
-212.000 69.282 -214.000 72.746 l
-216.000 69.282 -212.000 69.282 l
-214.000 65.818 -216.000 69.282 l
-212.000 62.354 -214.000 65.818 l
-210.000 58.890 -212.000 62.354 l
-208.000 55.426 -210.000 58.890 l
-212.000 55.426 -208.000 55.426 l
-210.000 58.890 -212.000 55.426 l
-214.000 58.890 -210.000 58.890 l
-212.000 55.426 -214.000 58.890 l
-216.000 55.426 -212.000 55.426 l
-214.000 58.890 -216.000 55.426 l
-212.000 62.354 -214.000 58.890 l
-216.000 62.354 -212.000 62.354 l
-214.000 65.818 -216.000 62.354 l
-218.000 65.818 -214.000 65.818 l
-216.000 62.354 -218.000 65.818 l
-220.000 62.354 -216.000 62.354 l
-218.000 58.890 -220.000 62.354 l
-216.000 55.426 -218.000 58.890 l
-220.000 55.426 -216.000 55.426 l
-218.000 58.890 -220.000 55.426 l
-222.000 58.890 -218.000 58.890 l
-220.000 55.426 -222.000 58.890 l
-224.000 55.426 -220.000 55.426 l
-222.000 51.962 -224.000 55.426 l
-220.000 48.497 -222.000 51.962 l
-218.000 45.033 -220.000 48.497 l
-216.000 41.569 -218.000 45.033 l
-214.000 38.105 -216.000 41.569 l
-212.000 34.641 -214.000 38.105 l
-210.000 31.177 -212.000 34.641 l
-208.000 27.713 -210.000 31.177 l
-206.000 24.249 -208.000 27.713 l
-204.000 20.785 -206.000 24.249 l
-202.000 17.321 -204.000 20.785 l
-200.000 13.856 -202.000 17.321 l
-198.000 10.392 -200.000 13.856 l
-196.000 6.928 -198.000 10.392 l
-194.000 3.464 -196.000 6.928 l
-192.000 0.000 -194.000 3.464 l
-196.000 0.000 -192.000 0.000 l
-194.000 3.464 -196.000 0.000 l
-198.000 3.464 -194.000 3.464 l
-196.000 0.000 -198.000 3.464 l
-200.000 0.000 -196.000 0.000 l
-198.000 3.464 -200.000 0.000 l
-196.000 6.928 -198.000 3.464 l
-200.000 6.928 -196.000 6.928 l
-198.000 10.392 -200.000 6.928 l
-202.000 10.392 -198.000 10.392 l
-200.000 6.928 -202.000 10.392 l
-204.000 6.928 -200.000 6.928 l
-202.000 3.464 -204.000 6.928 l
-200.000 0.000 -202.000 3.464 l
-204.000 0.000 -200.000 0.000 l
-202.000 3.464 -204.000 0.000 l
-206.000 3.464 -202.000 3.464 l
-204.000 0.000 -206.000 3.464 l
-208.000 0.000 -204.000 0.000 l
-206.000 3.464 -208.000 0.000 l
-204.000 6.928 -206.000 3.464 l
-202.000 10.392 -204.000 6.928 l
-200.000 13.856 -202.000 10.392 l
-204.000 13.856 -200.000 13.856 l
-202.000 17.321 -204.000 13.856 l
-206.000 17.321 -202.000 17.321 l
-204.000 13.856 -206.000 17.321 l
-208.000 13.856 -204.000 13.856 l
-206.000 17.321 -208.000 13.856 l
-204.000 20.785 -206.000 17.321 l
-208.000 20.785 -204.000 20.785 l
-206.000 24.249 -208.000 20.785 l
-210.000 24.249 -206.000 24.249 l
-208.000 20.785 -210.000 24.249 l
-212.000 20.785 -208.000 20.785 l
-210.000 17.321 -212.000 20.785 l
-208.000 13.856 -210.000 17.321 l
-212.000 13.856 -208.000 13.856 l
-210.000 17.321 -212.000 13.856 l
-214.000 17.321 -210.000 17.321 l
-212.000 13.856 -214.000 17.321 l
-216.000 13.856 -212.000 13.856 l
-214.000 10.392 -216.000 13.856 l
-212.000 6.928 -214.000 10.392 l
-210.000 3.464 -212.000 6.928 l
-208.000 0.000 -210.000 3.464 l
-212.000 0.000 -208.000 0.000 l
-210.000 3.464 -212.000 0.000 l
-214.000 3.464 -210.000 3.464 l
-212.000 0.000 -214.000 3.464 l
-216.000 0.000 -212.000 0.000 l
-214.000 3.464 -216.000 0.000 l
-212.000 6.928 -214.000 3.464 l
-216.000 6.928 -212.000 6.928 l
-214.000 10.392 -216.000 6.928 l
-218.000 10.392 -214.000 10.392 l
-216.000 6.928 -218.000 10.392 l
-220.000 6.928 -216.000 6.928 l
-218.000 3.464 -220.000 6.928 l
-216.000 0.000 -218.000 3.464 l
-220.000 0.000 -216.000 0.000 l
-218.000 3.464 -220.000 0.000 l
-222.000 3.464 -218.000 3.464 l
-220.000 0.000 -222.000 3.464 l
-224.000 0.000 -220.000 0.000 l
-222.000 3.464 -224.000 0.000 l
-220.000 6.928 -222.000 3.464 l
-218.000 10.392 -220.000 6.928 l
-216.000 13.856 -218.000 10.392 l
-214.000 17.321 -216.000 13.856 l
-212.000 20.785 -214.000 17.321 l
-210.000 24.249 -212.000 20.785 l
-208.000 27.713 -210.000 24.249 l
-212.000 27.713 -208.000 27.713 l
-210.000 31.177 -212.000 27.713 l
-214.000 31.177 -210.000 31.177 l
-212.000 27.713 -214.000 31.177 l
-216.000 27.713 -212.000 27.713 l
-214.000 31.177 -216.000 27.713 l
-212.000 34.641 -214.000 31.177 l
-216.000 34.641 -212.000 34.641 l
-214.000 38.105 -216.000 34.641 l
-218.000 38.105 -214.000 38.105 l
-216.000 34.641 -218.000 38.105 l
-220.000 34.641 -216.000 34.641 l
-218.000 31.177 -220.000 34.641 l
-216.000 27.713 -218.000 31.177 l
-220.000 27.713 -216.000 27.713 l
-218.000 31.177 -220.000 27.713 l
-222.000 31.177 -218.000 31.177 l
-220.000 27.713 -222.000 31.177 l
-224.000 27.713 -220.000 27.713 l
-222.000 31.177 -224.000 27.713 l
-220.000 34.641 -222.000 31.177 l
-218.000 38.105 -220.000 34.641 l
-216.000 41.569 -218.000 38.105 l
-220.000 41.569 -216.000 41.569 l
-218.000 45.033 -220.000 41.569 l
-222.000 45.033 -218.000 45.033 l
-220.000 41.569 -222.000 45.033 l
-224.000 41.569 -220.000 41.569 l
-222.000 45.033 -224.000 41.569 l
-220.000 48.497 -222.000 45.033 l
-224.000 48.497 -220.000 48.497 l
-222.000 51.962 -224.000 48.497 l
-226.000 51.962 -222.000 51.962 l
-224.000 48.497 -226.000 51.962 l
-228.000 48.497 -224.000 48.497 l
-226.000 45.033 -228.000 48.497 l
-224.000 41.569 -226.000 45.033 l
-228.000 41.569 -224.000 41.569 l
-226.000 45.033 -228.000 41.569 l
-230.000 45.033 -226.000 45.033 l
-228.000 41.569 -230.000 45.033 l
-232.000 41.569 -228.000 41.569 l
-230.000 38.105 -232.000 41.569 l
-228.000 34.641 -230.000 38.105 l
-226.000 31.177 -228.000 34.641 l
-224.000 27.713 -226.000 31.177 l
-228.000 27.713 -224.000 27.713 l
-226.000 31.177 -228.000 27.713 l
-230.000 31.177 -226.000 31.177 l
-228.000 27.713 -230.000 31.177 l
-232.000 27.713 -228.000 27.713 l
-230.000 31.177 -232.000 27.713 l
-228.000 34.641 -230.000 31.177 l
-232.000 34.641 -228.000 34.641 l
-230.000 38.105 -232.000 34.641 l
-234.000 38.105 -230.000 38.105 l
-232.000 34.641 -234.000 38.105 l
-236.000 34.641 -232.000 34.641 l
-234.000 31.177 -236.000 34.641 l
-232.000 27.713 -234.000 31.177 l
-236.000 27.713 -232.000 27.713 l
-234.000 31.177 -236.000 27.713 l
-238.000 31.177 -234.000 31.177 l
-236.000 27.713 -238.000 31.177 l
-240.000 27.713 -236.000 27.713 l
-238.000 24.249 -240.000 27.713 l
-236.000 20.785 -238.000 24.249 l
-234.000 17.321 -236.000 20.785 l
-232.000 13.856 -234.000 17.321 l
-230.000 10.392 -232.000 13.856 l
-228.000 6.928 -230.000 10.392 l
-226.000 3.464 -228.000 6.928 l
-224.000 0.000 -226.000 3.464 l
-228.000 0.000 -224.000 0.000 l
-226.000 3.464 -228.000 0.000 l
-230.000 3.464 -226.000 3.464 l
-228.000 0.000 -230.000 3.464 l
-232.000 0.000 -228.000 0.000 l
-230.000 3.464 -232.000 0.000 l
-228.000 6.928 -230.000 3.464 l
-232.000 6.928 -228.000 6.928 l
-230.000 10.392 -232.000 6.928 l
-234.000 10.392 -230.000 10.392 l
-232.000 6.928 -234.000 10.392 l
-236.000 6.928 -232.000 6.928 l
-234.000 3.464 -236.000 6.928 l
-232.000 0.000 -234.000 3.464 l
-236.000 0.000 -232.000 0.000 l
-234.000 3.464 -236.000 0.000 l
-238.000 3.464 -234.000 3.464 l
-236.000 0.000 -238.000 3.464 l
-240.000 0.000 -236.000 0.000 l
-238.000 3.464 -240.000 0.000 l
-236.000 6.928 -238.000 3.464 l
-234.000 10.392 -236.000 6.928 l
-232.000 13.856 -234.000 10.392 l
-236.000 13.856 -232.000 13.856 l
-234.000 17.321 -236.000 13.856 l
-238.000 17.321 -234.000 17.321 l
-236.000 13.856 -238.000 17.321 l
-240.000 13.856 -236.000 13.856 l
-238.000 17.321 -240.000 13.856 l
-236.000 20.785 -238.000 17.321 l
-240.000 20.785 -236.000 20.785 l
-238.000 24.249 -240.000 20.785 l
-242.000 24.249 -238.000 24.249 l
-240.000 20.785 -242.000 24.249 l
-244.000 20.785 -240.000 20.785 l
-242.000 17.321 -244.000 20.785 l
-240.000 13.856 -242.000 17.321 l
-244.000 13.856 -240.000 13.856 l
-242.000 17.321 -244.000 13.856 l
-246.000 17.321 -242.000 17.321 l
-244.000 13.856 -246.000 17.321 l
-248.000 13.856 -244.000 13.856 l
-246.000 10.392 -248.000 13.856 l
-244.000 6.928 -246.000 10.392 l
-242.000 3.464 -244.000 6.928 l
-240.000 0.000 -242.000 3.464 l
-244.000 0.000 -240.000 0.000 l
-242.000 3.464 -244.000 0.000 l
-246.000 3.464 -242.000 3.464 l
-244.000 0.000 -246.000 3.464 l
-248.000 0.000 -244.000 0.000 l
-246.000 3.464 -248.000 0.000 l
-244.000 6.928 -246.000 3.464 l
-248.000 6.928 -244.000 6.928 l
-246.000 10.392 -248.000 6.928 l
-250.000 10.392 -246.000 10.392 l
-248.000 6.928 -250.000 10.392 l
-252.000 6.928 -248.000 6.928 l
-250.000 3.464 -252.000 6.928 l
-248.000 0.000 -250.000 3.464 l
-252.000 0.000 -248.000 0.000 l
-250.000 3.464 -252.000 0.000 l
-254.000 3.464 -250.000 3.464 l
-252.000 0.000 -254.000 3.464 l
-256.000 0.000 -252.000 0.000 l
-254.000 3.464 -256.000 0.000 l
-252.000 6.928 -254.000 3.464 l
-250.000 10.392 -252.000 6.928 l
-248.000 13.856 -250.000 10.392 l
-246.000 17.321 -248.000 13.856 l
-244.000 20.785 -246.000 17.321 l
-242.000 24.249 -244.000 20.785 l
-240.000 27.713 -242.000 24.249 l
-238.000 31.177 -240.000 27.713 l
-236.000 34.641 -238.000 31.177 l
-234.000 38.105 -236.000 34.641 l
-232.000 41.569 -234.000 38.105 l
-230.000 45.033 -232.000 41.569 l
-228.000 48.497 -230.000 45.033 l
-226.000 51.962 -228.000 48.497 l
-224.000 55.426 -226.000 51.962 l
-222.000 58.890 -224.000 55.426 l
-220.000 62.354 -222.000 58.890 l
-218.000 65.818 -220.000 62.354 l
-216.000 69.282 -218.000 65.818 l
-214.000 72.746 -216.000 69.282 l
-212.000 76.210 -214.000 72.746 l
-210.000 79.674 -212.000 76.210 l
-208.000 83.138 -210.000 79.674 l
-206.000 86.603 -208.000 83.138 l
-204.000 90.067 -206.000 86.603 l
-202.000 93.531 -204.000 90.067 l
-200.000 96.995 -202.000 93.531 l
-198.000 100.459 -200.000 96.995 l
-196.000 103.923 -198.000 100.459 l
-194.000 107.387 -196.000 103.923 l
-192.000 110.851 -194.000 107.387 l
-190.000 114.315 -192.000 110.851 l
-188.000 117.779 -190.000 114.315 l
-186.000 121.244 -188.000 117.779 l
-184.000 124.708 -186.000 121.244 l
-182.000 128.172 -184.000 124.708 l
-180.000 131.636 -182.000 128.172 l
-178.000 135.100 -180.000 131.636 l
-176.000 138.564 -178.000 135.100 l
-174.000 142.028 -176.000 138.564 l
-172.000 145.492 -174.000 142.028 l
-170.000 148.956 -172.000 145.492 l
-168.000 152.420 -170.000 148.956 l
-166.000 155.885 -168.000 152.420 l
-164.000 159.349 -166.000 155.885 l
-162.000 162.813 -164.000 159.349 l
-160.000 166.277 -162.000 162.813 l
-158.000 169.741 -160.000 166.277 l
-156.000 173.205 -158.000 169.741 l
-154.000 176.669 -156.000 173.205 l
-152.000 180.133 -154.000 176.669 l
-150.000 183.597 -152.000 180.133 l
-148.000 187.061 -150.000 183.597 l
-146.000 190.526 -148.000 187.061 l
-144.000 193.990 -146.000 190.526 l
-142.000 197.454 -144.000 193.990 l
-140.000 200.918 -142.000 197.454 l
-138.000 204.382 -140.000 200.918 l
-136.000 207.846 -138.000 204.382 l
-134.000 211.310 -136.000 207.846 l
-132.000 214.774 -134.000 211.310 l
-130.000 218.238 -132.000 214.774 l
-128.000 221.703 -130.000 218.238 l
-126.000 218.238 -128.000 221.703 l
-124.000 214.774 -126.000 218.238 l
-122.000 211.310 -124.000 214.774 l
-120.000 207.846 -122.000 211.310 l
-118.000 204.382 -120.000 207.846 l
-116.000 200.918 -118.000 204.382 l
-114.000 197.454 -116.000 200.918 l
-112.000 193.990 -114.000 197.454 l
-110.000 190.526 -112.000 193.990 l
-108.000 187.061 -110.000 190.526 l
-106.000 183.597 -108.000 187.061 l
-104.000 180.133 -106.000 183.597 l
-102.000 176.669 -104.000 180.133 l
-100.000 173.205 -102.000 176.669 l
-98.000 169.741 -100.000 173.205 l
-96.000 166.277 -98.000 169.741 l
-94.000 162.813 -96.000 166.277 l
-92.000 159.349 -94.000 162.813 l
-90.000 155.885 -92.000 159.349 l
-88.000 152.420 -90.000 155.885 l
-86.000 148.956 -88.000 152.420 l
-84.000 145.492 -86.000 148.956 l
-82.000 142.028 -84.000 145.492 l
-80.000 138.564 -82.000 142.028 l
-78.000 135.100 -80.000 138.564 l
-76.000 131.636 -78.000 135.100 l
-74.000 128.172 -76.000 131.636 l
-72.000 124.708 -74.000 128.172 l
-70.000 121.244 -72.000 124.708 l
-68.000 117.779 -70.000 121.244 l
-66.000 114.315 -68.000 117.779 l
-64.000 110.851 -66.000 114.315 l
-62.000 107.387 -64.000 110.851 l
-60.000 103.923 -62.000 107.387 l
-58.000 100.459 -60.000 103.923 l
-56.000 96.995 -58.000 100.459 l
-54.000 93.531 -56.000 96.995 l
-52.000 90.067 -54.000 93.531 l
-50.000 86.603 -52.000 90.067 l
-48.000 83.138 -50.000 86.603 l
-46.000 79.674 -48.000 83.138 l
-44.000 76.210 -46.000 79.674 l
-42.000 72.746 -44.000 76.210 l
-40.000 69.282 -42.000 72.746 l
-38.000 65.818 -40.000 69.282 l
-36.000 62.354 -38.000 65.818 l
-34.000 58.890 -36.000 62.354 l
-32.000 55.426 -34.000 58.890 l
-30.000 51.962 -32.000 55.426 l
-28.000 48.497 -30.000 51.962 l
-26.000 45.033 -28.000 48.497 l
-24.000 41.569 -26.000 45.033 l
-22.000 38.105 -24.000 41.569 l
-20.000 34.641 -22.000 38.105 l
-18.000 31.177 -20.000 34.641 l
-16.000 27.713 -18.000 31.177 l
-14.000 24.249 -16.000 27.713 l
-12.000 20.785 -14.000 24.249 l
-10.000 17.321 -12.000 20.785 l
-8.000 13.856 -10.000 17.321 l
-6.000 10.392 -8.000 13.856 l
-4.000 6.928 -6.000 10.392 l
-2.000 3.464 -4.000 6.928 l
0.000 0.000 -2.000 3.464 l

showpage

restore
%%EOF
